HTTrack3.49-2 launched on Thu, 23 Mar 2023 21:28:32 at http://localhost/HarvestLinks261.html +*.css +*.js -ad.doubleclick.net/* -mime:application/foobar +*.gif +*.jpg +*.jpeg +*.png +*.tif +*.tiff +*.bmp +*.pcx +*.ddf +*.zip +*.tar +*.tgz +*.gz +*.rar +*.z +*.exe +*.7z +*.ace +*.RAR +*.bz2 +*.lzh +*.sit +*.mov +*.mpg +*.mpeg +*.avi +*.asf +*.divx +*.mp4 +*.mp3 +*.mp2 +*.rm +*.wav +*.vob +*.qt +*.vid +*.ac3 +*.wma +*.wmv +*.ogg +*.flac +*.asm +*.bin +*.smd +.gen +.md +*.h +*.cpp +*.c +*.hpp +*.inc +*.iso +*.cue +*.pdf +*.svg +*.svgz +*.imageshack.us/* +https://manualespurdy.cisdigital.com/*
(M:\ToyotaManuals\httrack.exe http://localhost/HarvestLinks261.html -t -%N0 -C0 -O M:\ToyotaManuals\Apache24\htdocs,M:\ToyotaManuals\Apache24\htdocs\Cache\Cache261 -c32 -#L0 -%! -A0 -%c0 -r2000000000 -s0 -%k -n -R8 -%v -q -F "Mozilla /5.0 (Windows NT 6.3; WOW64) AppleWebKit/537.36 (KHTML, like Gecko) Chrome/33.0.1750.117 Safari/537.36" +*.css +*.js -ad.doubleclick.net/* -mime:application/foobar +*.gif +*.jpg +*.jpeg +*.png +*.tif +*.tiff +*.bmp +*.pcx +*.ddf +*.zip +*.tar +*.tgz +*.gz +*.rar +*.z +*.exe +*.7z +*.ace +*.RAR +*.bz2 +*.lzh +*.sit +*.mov +*.mpg +*.mpeg +*.avi +*.asf +*.divx +*.mp4 +*.mp3 +*.mp2 +*.rm +*.wav +*.vob +*.qt +*.vid +*.ac3 +*.wma +*.wmv +*.ogg +*.flac +*.asm +*.bin +*.smd +.gen +.md +*.h +*.cpp +*.c +*.hpp +*.inc +*.iso +*.cue +*.pdf +*.svg +*.svgz +*.imageshack.us/* +https://manualespurdy.cisdigital.com/* )

Information, Warnings and Errors reported for this mirror:
note:	the hts-log.txt file, and hts-cache folder, may contain sensitive information,
	such as username/password authentication for websites mirrored in this project
	do not share these files/folders if you want these information to remain private

21:28:32	Warning: 	* security warning: !!! BYPASSING SECURITY LIMITS - MONITOR THIS SESSION WITH EXTREME CARE !!!
21:28:32	Warning: 	HTML file (6190 bytes) retransferred due to lack of cache: https://manualespurdy.cisdigital.com/Toyota/Tundra2016-2017/N00214/pgm/top.html
21:28:35	Error: 	"Not Found" (404) at link https://manualespurdy.cisdigital.com/Toyota/Tundra2016-2017/N00214/pgm/text/css (from https://manualespurdy.cisdigital.com/Toyota/Tundra2016-2017/N00214/pgm/top.html)
21:28:35	Error: 	"Not Found" (404) at link https://manualespurdy.cisdigital.com/Toyota/Tundra2016-2017/N00214/pgm/text/javascript (from https://manualespurdy.cisdigital.com/Toyota/Tundra2016-2017/N00214/pgm/top.html)

HTTrack Website Copier/3.49-2 mirror complete in 6 seconds : 16 links scanned, 3 files written (290757 bytes overall) [294333 bytes received at 49055 bytes/sec]
(2 errors, 2 warnings, 0 messages)
