﻿<?xml version="1.0" encoding="utf-8"?>
<!DOCTYPE svg PUBLIC "-//W3C//DTD SVG 1.0//EN" "http://www.w3.org/TR/2001/REC-SVG-20010904/DTD/svg10.dtd"[
	<!ENTITY ns_flows "http://ns.adobe.com/Flows/1.0/">
	<!ENTITY ns_svg "http://www.w3.org/2000/svg">
	<!ENTITY ns_xlink "http://www.w3.org/1999/xlink">
	<!ENTITY st0 "font-size:7px;font-family:'MS-PGothic';adobe-font-script:japanese;">
	<!ENTITY st1 "font-size:6px;font-family:'ArialMT';">
	<!-- White fill  -->
	<!ENTITY st2 "fill:#FFFFFF;stroke:#000000; stroke-width:1.41;stroke-linecap:round;stroke-linejoin:round;">
	<!-- Yellow fill  -->
	<!ENTITY st3 "fill:#FFFFCC;stroke:#FFFFCC; stroke-width:0.1;stroke-linecap:round;stroke-linejoin:round;">
	<!-- Gray fill  -->
	<!ENTITY st4 "fill:#CCCCCC;stroke:#CCCCCC; stroke-width:0.1;stroke-linecap:round;stroke-linejoin:round;">
	<!-- Light-blue fill -->
	<!ENTITY st5 "fill:#CCECF4;stroke:#000000; stroke-width:1.133;stroke-linecap:round;stroke-linejoin:round;">
	<!ENTITY st6 "fill:none;stroke-linecap:butt; stroke-linejoin:round;">
	<!ENTITY st7 "fill:none;stroke:#000000;stroke-linecap:round;stroke-linejoin:round;">
	<!ENTITY st8 "enable-background:new    ;">
	<!-- Black fill -->
	<!ENTITY st9 "fill:#000000;stroke:#000000; stroke-linecap:round;stroke-linejoin:round;">
	<!-- SRS note   -->
	<!ENTITY st10 "font-size:9px;font-family:'ArialMT';">
	<!ENTITY st11 "font-size:9px;font-family:'Svg Symbol';">
	<!ENTITY st12 "font-size:6px;font-family:'Svg Symbol';">
	<!ENTITY st13 "fill:none;stroke:#ff0000;stroke-linecap:round;stroke-linejoin:round;">
	<!-- Yellow fill  -->
	<!ENTITY st14 "fill:#FFFF00;stroke:#FFFF00; stroke-width:0.1;stroke-linecap:round;stroke-linejoin:round;">
	<!ENTITY st15 "font-size:6px;font-family:'MS-PGothic';adobe-font-script:japanese;">
	<!ENTITY st16 "1.00 0.00 0.00 1.00">
	<!ENTITY st17 "0.00 -1.00 1.00 0.00">
	<!ENTITY st18 "font-size:6px;font-family:'Arial';">
	<!ENTITY st19 "font-size:9px;font-family:'Arial';">
	<!ENTITY st20 "font-size:6px;font-family:'MS-PGothic','MS PGothic';adobe-font-script:japanese;">
	<!ENTITY st21 "font-size:7px;font-family:'MS-PGothic','MS PGothic';adobe-font-script:japanese;">
	<!ATTLIST svg
		xmlns:ewd CDATA #FIXED "http://shcl.co.jp/ewd"
		xmlns:a CDATA #FIXED "http://ns.adobe.com/AdobeSVGViewerExtensions/3.0/"
		ewd:ver CDATA #IMPLIED
	>
	<!ATTLIST a
		ewd:lineID CDATA #IMPLIED
		ewd:groupID CDATA #IMPLIED
		ewd:figtype CDATA #IMPLIED
		ewd:code CDATA #IMPLIED
		ewd:figID CDATA #IMPLIED
		ewd:pinNo CDATA #IMPLIED
		ewd:comment CDATA #IMPLIED >
	<!ATTLIST g
		ewd:lineID CDATA #IMPLIED
		ewd:groupID CDATA #IMPLIED
		ewd:figtype CDATA #IMPLIED
		ewd:code CDATA #IMPLIED
		ewd:figID CDATA #IMPLIED
		ewd:pinNo CDATA #IMPLIED
		ewd:comment CDATA #IMPLIED >
	<!ATTLIST text
		ewd:textID CDATA #IMPLIED >
	<!ATTLIST title
		ewd:textID CDATA #IMPLIED >
]>
<!-- Generator: Shintec Hozumi YS   -->
<svg onload="call_execInitLoadProc_svg('system')" style="overflow:visible;  enable-background:new 0 0 6697.589 710.000" viewBox="0 0 6697.589 710.000" height="710.000" width="6697.589" xml:space="preserve" ewd:ver="L2.1.2.9" xmlns="&ns_svg;" xmlns:a="http://ns.adobe.com/AdobeSVGViewerExtensions/3.0/" xmlns:ewd="http://shcl.co.jp/ewd" xmlns:xlink="&ns_xlink;">
<path d=" M  5311.61,   117.37  L  5324.36,   117.37  " style="stroke-width: 0.85 ;&st7; stroke-dasharray:3, 1.5;" /><path d=" M  5311.61,   108.30  L  5324.36,   108.30  " style="stroke-width: 0.85 ;&st7; stroke-dasharray:3, 1.5;" /><path d=" M  5065.15,   697.25  L  5065.15,   701.50  " style="stroke-width: 0.85 ;&st7;  " /><path d=" M  5056.65,   701.50  L  5073.65,   701.50  " style="stroke-width: 0.85 ;&st7;  " /><path d=" M  5060.90,   704.33  L  5069.40,   704.33  " style="stroke-width: 0.85 ;&st7;  " /><path d=" M  5062.32,   707.17  L  5067.98,   707.17  " style="stroke-width: 0.85 ;&st7;  " /><path d=" M  5063.74,   710.00  L  5066.57,   710.00  " style="stroke-width: 0.85 ;&st7;  " /><path d=" M  5252.12,   108.30  L  5286.11,   108.30  " style="stroke-width: 0.85 ;&st7; stroke-dasharray:3, 1.5;" /><path d=" M  5252.12,   117.37  L  5286.11,   117.37  " style="stroke-width: 0.85 ;&st7; stroke-dasharray:3, 1.5;" /><path d=" M  5294.61,   231.25  L  5294.61,   248.24  L  5345.60,   248.24  L  5345.60,   231.25  L  5294.61,   231.25  " style="stroke-width: 1.42 ;&st7;  " /><path d=" M  5303.11,   231.25  L  5303.11,   248.24  " style="stroke-width: 0.85 ;&st7;  " /><path d=" M  5337.11,   231.25  L  5337.11,   248.24  " style="stroke-width: 0.85 ;&st7;  " /><path d=" M  5643.05,   426.71  L  5643.05,   409.72  L  5473.08,   409.72  L  5473.08,   426.71  " style="stroke-width: 0.85 ;&st7;  " /><path d=" M  5609.06,   426.71  L  5609.06,   418.22  L  5439.09,   418.22  L  5439.09,   426.71  " style="stroke-width: 0.85 ;&st7;  " /><path d=" M  5430.59,   401.22  L  5651.55,   401.22  L  5651.55,   426.71  L  5430.59,   426.71  L  5430.59,   401.22  " style="stroke-width: 1.42 ;&st7;  " /><path d=" M  5341.64,   117.37  C  5341.64    114.86   5339.61    112.83   5337.11    112.83  " style="stroke-width: 1.42 ;&st7;   " /><path d=" M  5337.11,   112.83  C  5334.61    112.83   5332.58    114.86   5332.58    117.37  " style="stroke-width: 1.42 ;&st7;   " /><path d=" M  5332.58,   117.37  C  5332.58    119.87   5334.61    121.90   5337.11    121.90  " style="stroke-width: 1.42 ;&st7;   " /><path d=" M  5337.11,   121.90  C  5339.61    121.90   5341.64    119.87   5341.64    117.37  " style="stroke-width: 1.42 ;&st7;   " /><path d=" M  5341.64,   108.30  C  5341.64    105.80   5339.61    103.77   5337.11    103.77  " style="stroke-width: 1.42 ;&st7;   " /><path d=" M  5337.11,   103.77  C  5334.61    103.77   5332.58    105.80   5332.58    108.30  " style="stroke-width: 1.42 ;&st7;   " /><path d=" M  5332.58,   108.30  C  5332.58    110.80   5334.61    112.83   5337.11    112.83  " style="stroke-width: 1.42 ;&st7;   " /><path d=" M  5337.11,   112.83  C  5339.61    112.83   5341.64    110.80   5341.64    108.30  " style="stroke-width: 1.42 ;&st7;   " /><path d=" M  5018.69,   592.15  C  5018.69    589.65   5016.67    587.62   5014.16    587.62  " style="stroke-width: 1.42 ;&st7;   " /><path d=" M  5014.16,   587.62  C  5011.66    587.62   5009.63    589.65   5009.63    592.15  " style="stroke-width: 1.42 ;&st7;   " /><path d=" M  5009.63,   592.15  C  5009.63    594.66   5011.66    596.69   5014.16    596.69  " style="stroke-width: 1.42 ;&st7;   " /><path d=" M  5014.16,   596.69  C  5016.67    596.69   5018.69    594.66   5018.69    592.15  " style="stroke-width: 1.42 ;&st7;   " /><path d=" M  5248.16,   108.30  C  5248.16    105.80   5246.13    103.77   5243.62    103.77  " style="stroke-width: 1.42 ;&st7;   " /><path d=" M  5243.62,   103.77  C  5241.12    103.77   5239.09    105.80   5239.09    108.30  " style="stroke-width: 1.42 ;&st7;   " /><path d=" M  5239.09,   108.30  C  5239.09    110.80   5241.12    112.83   5243.62    112.83  " style="stroke-width: 1.42 ;&st7;   " /><path d=" M  5243.62,   112.83  C  5246.13    112.83   5248.16    110.80   5248.16    108.30  " style="stroke-width: 1.42 ;&st7;   " /><path d=" M  5248.16,   117.37  C  5248.16    114.86   5246.13    112.83   5243.62    112.83  " style="stroke-width: 1.42 ;&st7;   " /><path d=" M  5243.62,   112.83  C  5241.12    112.83   5239.09    114.86   5239.09    117.37  " style="stroke-width: 1.42 ;&st7;   " /><path d=" M  5239.09,   117.37  C  5239.09    119.87   5241.12    121.90   5243.62    121.90  " style="stroke-width: 1.42 ;&st7;   " /><path d=" M  5243.62,   121.90  C  5246.13    121.90   5248.16    119.87   5248.16    117.37  " style="stroke-width: 1.42 ;&st7;   " /><path d=" M  5307.65,   117.37  C  5307.65    114.86   5305.62    112.83   5303.11    112.83  " style="stroke-width: 1.42 ;&st7;   " /><path d=" M  5303.11,   112.83  C  5300.61    112.83   5298.58    114.86   5298.58    117.37  " style="stroke-width: 1.42 ;&st7;   " /><path d=" M  5298.58,   117.37  C  5298.58    119.87   5300.61    121.90   5303.11    121.90  " style="stroke-width: 1.42 ;&st7;   " /><path d=" M  5303.11,   121.90  C  5305.62    121.90   5307.65    119.87   5307.65    117.37  " style="stroke-width: 1.42 ;&st7;   " /><path d=" M  5307.65,   108.30  C  5307.65    105.80   5305.62    103.77   5303.11    103.77  " style="stroke-width: 1.42 ;&st7;   " /><path d=" M  5303.11,   103.77  C  5300.61    103.77   5298.58    105.80   5298.58    108.30  " style="stroke-width: 1.42 ;&st7;   " /><path d=" M  5298.58,   108.30  C  5298.58    110.80   5300.61    112.83   5303.11    112.83  " style="stroke-width: 1.42 ;&st7;   " /><path d=" M  5303.11,   112.83  C  5305.62    112.83   5307.65    110.80   5307.65    108.30  " style="stroke-width: 1.42 ;&st7;   " /><text style="&st18;" transform="matrix(&st16;  5432.91  434.91 )">1</text><text style="&st18;" transform="matrix(&st16;  5463.8  434.91 )">12</text><text style="&st18;" transform="matrix(&st17;  5333.41  292.35 )">R</text><text style="&st18;" transform="matrix(&st17;  5299.42  293.2 )">W</text><text style="&st18;" transform="matrix(&st17;  5435.4  470.82 )">R</text><text style="&st18;" transform="matrix(&st17;  5469.39  471.67 )">W</text><text style="&st18;" transform="matrix(&st16;  5293.83  227.56 )">18</text><text style="&st18;" transform="matrix(&st17;  5299.42  165.72 )">W</text><text style="&st18;" transform="matrix(&st17;  5333.41  167.04 )">LG</text><text style="&st18;" transform="matrix(&st16;  5330.92  227.56 )">7</text><text ewd:textID="21" style="&st18;" transform="matrix(&st17;  5360.32  251.15 )">Junction Connector</text><text style="&st18;" transform="matrix(&st17;  5353.22  251.14 )">J74</text><text style="&st18;" transform="matrix(&st16;  5293.83  256.44 )">15</text><text style="&st18;" transform="matrix(&st16;  5330.92  256.44 )">4</text><text style="&st18;" transform="matrix(&st16;  5294.76  100.07 )">CANL</text><text style="&st18;" transform="matrix(&st16;  5328.33  100.07 )">CANH</text><text style="&st18;" transform="matrix(&st16;  5301.97  119.33 )">I</text><text style="&st18;" transform="matrix(&st16;  5291.32  119.33 )">10</text><text style="&st18;" transform="matrix(&st16;  5301.0  110.27 )">E</text><text style="&st18;" transform="matrix(&st16;  5291.32  110.27 )">10</text><text style="&st18;" transform="matrix(&st16;  5335.97  119.33 )">I</text><text style="&st18;" transform="matrix(&st16;  5328.41  119.33 )">9</text><text style="&st18;" transform="matrix(&st16;  5335.0  110.27 )">E</text><text style="&st18;" transform="matrix(&st16;  5328.41  110.27 )">9</text><text style="&st18;" transform="matrix(&st16;  5214.72  28.09 )">J116(A),J133(C),J134(D),J135(E),J136(F),J151(K),K1(M),K3(N),L1(Q)</text><text style="&st18;" transform="matrix(&st16;  5214.72  41.97 )">J122(B),J137(G),J138(H),J139(I),J140(J),J155(L),K5(O),K6(P),L2(R)</text><text ewd:textID="24" style="&st18;" transform="matrix(&st16;  5214.72  34.92 )">Navigation Receiver Assembly</text><text ewd:textID="30" style="&st18;" transform="matrix(&st16;  5214.72  49.08 )">Radio &amp; Display Receiver Assembly</text><text style="&st18;" transform="matrix(&st16;  5342.2  110.27 )">(*1)</text><text style="&st18;" transform="matrix(&st16;  5342.2  119.33 )">(*2)</text><text ewd:textID="3" style="&st18;" transform="matrix(&st16;  5461.18  199.22 )">* 1 :w/ Navigation System</text><text ewd:textID="4" style="&st18;" transform="matrix(&st16;  5461.18  207.72 )">* 2 :w/o Navigation System</text><text style="&st18;" transform="matrix(&st16;  5007.51  604.32 )">GND</text><text style="&st18;" transform="matrix(&st16;  5005.47  594.12 )">7</text><text style="&st18;" transform="matrix(&st16;  5011.86  594.12 )">A</text><text style="&st18;" transform="matrix(&st17;  5061.46  653.63 )">W-B</text><text style="&st18;" transform="matrix(&st16;  5237.95  100.07 )">SPD</text><text style="&st18;" transform="matrix(&st17;  5239.93  165.72 )">W</text><text style="&st18;" transform="matrix(&st16;  5231.83  110.27 )">17</text><text style="&st18;" transform="matrix(&st16;  5241.51  110.27 )">E</text><text style="&st18;" transform="matrix(&st16;  5231.83  119.33 )">17</text><text style="&st18;" transform="matrix(&st16;  5242.48  119.33 )">I</text></svg>