﻿<?xml version="1.0" encoding="utf-8"?>
<!DOCTYPE svg PUBLIC "-//W3C//DTD SVG 1.0//EN" "http://www.w3.org/TR/2001/REC-SVG-20010904/DTD/svg10.dtd"[
	<!ENTITY ns_flows "http://ns.adobe.com/Flows/1.0/">
	<!ENTITY ns_svg "http://www.w3.org/2000/svg">
	<!ENTITY ns_xlink "http://www.w3.org/1999/xlink">
	<!ENTITY st0 "font-size:7px;font-family:'MS-PGothic';adobe-font-script:japanese;">
	<!ENTITY st1 "font-size:6px;font-family:'ArialMT';">
	<!-- White fill  -->
	<!ENTITY st2 "fill:#FFFFFF;stroke:#000000; stroke-width:1.41;stroke-linecap:round;stroke-linejoin:round;">
	<!-- Yellow fill  -->
	<!ENTITY st3 "fill:#FFFFCC;stroke:#FFFFCC; stroke-width:0.1;stroke-linecap:round;stroke-linejoin:round;">
	<!-- Gray fill  -->
	<!ENTITY st4 "fill:#CCCCCC;stroke:#CCCCCC; stroke-width:0.1;stroke-linecap:round;stroke-linejoin:round;">
	<!-- Light-blue fill -->
	<!ENTITY st5 "fill:#CCECF4;stroke:#000000; stroke-width:1.133;stroke-linecap:round;stroke-linejoin:round;">
	<!ENTITY st6 "fill:none;stroke-linecap:butt; stroke-linejoin:round;">
	<!ENTITY st7 "fill:none;stroke:#000000;stroke-linecap:round;stroke-linejoin:round;">
	<!ENTITY st8 "enable-background:new    ;">
	<!-- Black fill -->
	<!ENTITY st9 "fill:#000000;stroke:#000000; stroke-linecap:round;stroke-linejoin:round;">
	<!-- SRS note   -->
	<!ENTITY st10 "font-size:9px;font-family:'ArialMT';">
	<!ENTITY st11 "font-size:9px;font-family:'Svg Symbol';">
	<!ENTITY st12 "font-size:6px;font-family:'Svg Symbol';">
	<!ENTITY st13 "fill:none;stroke:#ff0000;stroke-linecap:round;stroke-linejoin:round;">
	<!-- Yellow fill  -->
	<!ENTITY st14 "fill:#FFFF00;stroke:#FFFF00; stroke-width:0.1;stroke-linecap:round;stroke-linejoin:round;">
	<!ENTITY st15 "font-size:6px;font-family:'MS-PGothic';adobe-font-script:japanese;">
	<!ENTITY st16 "1.00 0.00 0.00 1.00">
	<!ENTITY st17 "0.00 -1.00 1.00 0.00">
	<!ENTITY st18 "font-size:6px;font-family:'Arial';">
	<!ENTITY st19 "font-size:9px;font-family:'Arial';">
	<!ENTITY st20 "font-size:6px;font-family:'MS-PGothic','MS PGothic';adobe-font-script:japanese;">
	<!ENTITY st21 "font-size:7px;font-family:'MS-PGothic','MS PGothic';adobe-font-script:japanese;">
	<!ATTLIST svg
		xmlns:ewd CDATA #FIXED "http://shcl.co.jp/ewd"
		xmlns:a CDATA #FIXED "http://ns.adobe.com/AdobeSVGViewerExtensions/3.0/"
		ewd:ver CDATA #IMPLIED
	>
	<!ATTLIST a
		ewd:lineID CDATA #IMPLIED
		ewd:groupID CDATA #IMPLIED
		ewd:figtype CDATA #IMPLIED
		ewd:code CDATA #IMPLIED
		ewd:figID CDATA #IMPLIED
		ewd:pinNo CDATA #IMPLIED
		ewd:comment CDATA #IMPLIED >
	<!ATTLIST g
		ewd:lineID CDATA #IMPLIED
		ewd:groupID CDATA #IMPLIED
		ewd:figtype CDATA #IMPLIED
		ewd:code CDATA #IMPLIED
		ewd:figID CDATA #IMPLIED
		ewd:pinNo CDATA #IMPLIED
		ewd:comment CDATA #IMPLIED >
	<!ATTLIST text
		ewd:textID CDATA #IMPLIED >
	<!ATTLIST title
		ewd:textID CDATA #IMPLIED >
]>
<!-- Generator: Shintec Hozumi YS   -->
<svg onload="call_execInitLoadProc_svg('system')" style="overflow:visible;  enable-background:new 0 0 12229.982 710.000" viewBox="0 0 12229.982 710.000" height="710.000" width="12229.982" xml:space="preserve" ewd:ver="L2.1.2.9" xmlns="&ns_svg;" xmlns:a="http://ns.adobe.com/AdobeSVGViewerExtensions/3.0/" xmlns:ewd="http://shcl.co.jp/ewd" xmlns:xlink="&ns_xlink;">
<path d=" M  1614.73,   516.67  L  1609.76,   511.70  " style="stroke-width: 1.42 ;&st7;  " /><path d=" M  1597.73,   523.73  L  1602.70,   528.70  " style="stroke-width: 1.42 ;&st7;  " /><path d=" M  1609.76,   528.70  L  1614.73,   523.73  " style="stroke-width: 1.42 ;&st7;  " /><path d=" M  1602.70,   511.70  L  1597.73,   516.67  " style="stroke-width: 1.42 ;&st7;  " /><path d=" M  1657.22,   516.67  L  1652.25,   511.70  " style="stroke-width: 1.42 ;&st7;  " /><path d=" M  1640.23,   523.73  L  1645.19,   528.70  " style="stroke-width: 1.42 ;&st7;  " /><path d=" M  1652.25,   528.70  L  1657.22,   523.73  " style="stroke-width: 1.42 ;&st7;  " /><path d=" M  1645.20,   511.70  L  1640.23,   516.67  " style="stroke-width: 1.42 ;&st7;  " /><path d=" M  1801.70,   265.24  L  9688.38,   265.24  L  9688.38,   324.73  L  1801.70,   324.73  L  1801.70,   265.24  " style="stroke-width: 1.42 ;&st7;  " /><path d=" M  1589.23,   265.24  L  1589.23,   307.73  L  1767.70,   307.73  L  1767.70,   265.24  L  1589.23,   265.24  " style="stroke-width: 1.42 ;&st7;  " /><path d=" M  1925.21,   260.71  C  1925.21    258.21   1923.18    256.18   1920.68    256.18  " style="stroke-width: 1.42 ;&st7;   " /><path d=" M  1920.68,   256.18  C  1918.18    256.18   1916.15    258.21   1916.15    260.71  " style="stroke-width: 1.42 ;&st7;   " /><path d=" M  1916.15,   260.71  C  1916.15    263.21   1918.18    265.24   1920.68    265.24  " style="stroke-width: 1.42 ;&st7;   " /><path d=" M  1920.68,   265.24  C  1923.18    265.24   1925.21    263.21   1925.21    260.71  " style="stroke-width: 1.42 ;&st7;   " /><path d=" M  1950.71,   260.71  C  1950.71    258.21   1948.68    256.18   1946.17    256.18  " style="stroke-width: 1.42 ;&st7;   " /><path d=" M  1946.17,   256.18  C  1943.67    256.18   1941.64    258.21   1941.64    260.71  " style="stroke-width: 1.42 ;&st7;   " /><path d=" M  1941.64,   260.71  C  1941.64    263.21   1943.67    265.24   1946.17    265.24  " style="stroke-width: 1.42 ;&st7;   " /><path d=" M  1946.17,   265.24  C  1948.68    265.24   1950.71    263.21   1950.71    260.71  " style="stroke-width: 1.42 ;&st7;   " /><path d=" M  1899.72,   260.71  C  1899.72    258.21   1897.69    256.18   1895.18    256.18  " style="stroke-width: 1.42 ;&st7;   " /><path d=" M  1895.18,   256.18  C  1892.68    256.18   1890.65    258.21   1890.65    260.71  " style="stroke-width: 1.42 ;&st7;   " /><path d=" M  1890.65,   260.71  C  1890.65    263.21   1892.68    265.24   1895.18    265.24  " style="stroke-width: 1.42 ;&st7;   " /><path d=" M  1895.18,   265.24  C  1897.69    265.24   1899.72    263.21   1899.72    260.71  " style="stroke-width: 1.42 ;&st7;   " /><path d=" M  1823.23,   260.71  C  1823.23    258.21   1821.20    256.18   1818.70    256.18  " style="stroke-width: 1.42 ;&st7;   " /><path d=" M  1818.70,   256.18  C  1816.19    256.18   1814.16    258.21   1814.16    260.71  " style="stroke-width: 1.42 ;&st7;   " /><path d=" M  1814.16,   260.71  C  1814.16    263.21   1816.19    265.24   1818.70    265.24  " style="stroke-width: 1.42 ;&st7;   " /><path d=" M  1818.70,   265.24  C  1821.20    265.24   1823.23    263.21   1823.23    260.71  " style="stroke-width: 1.42 ;&st7;   " /><path d=" M  1848.72,   260.71  C  1848.72    258.21   1846.70    256.18   1844.19    256.18  " style="stroke-width: 1.42 ;&st7;   " /><path d=" M  1844.19,   256.18  C  1841.69    256.18   1839.66    258.21   1839.66    260.71  " style="stroke-width: 1.42 ;&st7;   " /><path d=" M  1839.66,   260.71  C  1839.66    263.21   1841.69    265.24   1844.19    265.24  " style="stroke-width: 1.42 ;&st7;   " /><path d=" M  1844.19,   265.24  C  1846.70    265.24   1848.72    263.21   1848.72    260.71  " style="stroke-width: 1.42 ;&st7;   " /><path d=" M  1874.22,   260.71  C  1874.22    258.21   1872.19    256.18   1869.69    256.18  " style="stroke-width: 1.42 ;&st7;   " /><path d=" M  1869.69,   256.18  C  1867.18    256.18   1865.16    258.21   1865.16    260.71  " style="stroke-width: 1.42 ;&st7;   " /><path d=" M  1865.16,   260.71  C  1865.16    263.21   1867.18    265.24   1869.69    265.24  " style="stroke-width: 1.42 ;&st7;   " /><path d=" M  1869.69,   265.24  C  1872.19    265.24   1874.22    263.21   1874.22    260.71  " style="stroke-width: 1.42 ;&st7;   " /><path d=" M  1925.21,   329.26  C  1925.21    326.76   1923.18    324.73   1920.68    324.73  " style="stroke-width: 1.42 ;&st7;   " /><path d=" M  1920.68,   324.73  C  1918.18    324.73   1916.15    326.76   1916.15    329.26  " style="stroke-width: 1.42 ;&st7;   " /><path d=" M  1916.15,   329.26  C  1916.15    331.77   1918.18    333.80   1920.68    333.80  " style="stroke-width: 1.42 ;&st7;   " /><path d=" M  1920.68,   333.80  C  1923.18    333.80   1925.21    331.77   1925.21    329.26  " style="stroke-width: 1.42 ;&st7;   " /><path d=" M  1950.71,   329.26  C  1950.71    326.76   1948.68    324.73   1946.17    324.73  " style="stroke-width: 1.42 ;&st7;   " /><path d=" M  1946.17,   324.73  C  1943.67    324.73   1941.64    326.76   1941.64    329.26  " style="stroke-width: 1.42 ;&st7;   " /><path d=" M  1941.64,   329.26  C  1941.64    331.77   1943.67    333.80   1946.17    333.80  " style="stroke-width: 1.42 ;&st7;   " /><path d=" M  1946.17,   333.80  C  1948.68    333.80   1950.71    331.77   1950.71    329.26  " style="stroke-width: 1.42 ;&st7;   " /><path d=" M  1976.20,   329.26  C  1976.20    326.76   1974.17    324.73   1971.67    324.73  " style="stroke-width: 1.42 ;&st7;   " /><path d=" M  1971.67,   324.73  C  1969.17    324.73   1967.14    326.76   1967.14    329.26  " style="stroke-width: 1.42 ;&st7;   " /><path d=" M  1967.14,   329.26  C  1967.14    331.77   1969.17    333.80   1971.67    333.80  " style="stroke-width: 1.42 ;&st7;   " /><path d=" M  1971.67,   333.80  C  1974.17    333.80   1976.20    331.77   1976.20    329.26  " style="stroke-width: 1.42 ;&st7;   " /><path d=" M  1899.72,   329.26  C  1899.72    326.76   1897.69    324.73   1895.18    324.73  " style="stroke-width: 1.42 ;&st7;   " /><path d=" M  1895.18,   324.73  C  1892.68    324.73   1890.65    326.76   1890.65    329.26  " style="stroke-width: 1.42 ;&st7;   " /><path d=" M  1890.65,   329.26  C  1890.65    331.77   1892.68    333.80   1895.18    333.80  " style="stroke-width: 1.42 ;&st7;   " /><path d=" M  1895.18,   333.80  C  1897.69    333.80   1899.72    331.77   1899.72    329.26  " style="stroke-width: 1.42 ;&st7;   " /><path d=" M  1823.23,   329.26  C  1823.23    326.76   1821.20    324.73   1818.70    324.73  " style="stroke-width: 1.42 ;&st7;   " /><path d=" M  1818.70,   324.73  C  1816.19    324.73   1814.16    326.76   1814.16    329.26  " style="stroke-width: 1.42 ;&st7;   " /><path d=" M  1814.16,   329.26  C  1814.16    331.77   1816.19    333.80   1818.70    333.80  " style="stroke-width: 1.42 ;&st7;   " /><path d=" M  1818.70,   333.80  C  1821.20    333.80   1823.23    331.77   1823.23    329.26  " style="stroke-width: 1.42 ;&st7;   " /><path d=" M  1848.72,   329.26  C  1848.72    326.76   1846.70    324.73   1844.19    324.73  " style="stroke-width: 1.42 ;&st7;   " /><path d=" M  1844.19,   324.73  C  1841.69    324.73   1839.66    326.76   1839.66    329.26  " style="stroke-width: 1.42 ;&st7;   " /><path d=" M  1839.66,   329.26  C  1839.66    331.77   1841.69    333.80   1844.19    333.80  " style="stroke-width: 1.42 ;&st7;   " /><path d=" M  1844.19,   333.80  C  1846.70    333.80   1848.72    331.77   1848.72    329.26  " style="stroke-width: 1.42 ;&st7;   " /><path d=" M  1874.22,   329.26  C  1874.22    326.76   1872.19    324.73   1869.69    324.73  " style="stroke-width: 1.42 ;&st7;   " /><path d=" M  1869.69,   324.73  C  1867.18    324.73   1865.16    326.76   1865.16    329.26  " style="stroke-width: 1.42 ;&st7;   " /><path d=" M  1865.16,   329.26  C  1865.16    331.77   1867.18    333.80   1869.69    333.80  " style="stroke-width: 1.42 ;&st7;   " /><path d=" M  1869.69,   333.80  C  1872.19    333.80   1874.22    331.77   1874.22    329.26  " style="stroke-width: 1.42 ;&st7;   " /><path d=" M  1997.17,   324.73  C  1994.66    324.73   1992.63    326.76   1992.63    329.26  " style="stroke-width: 1.42 ;&st7;   " /><path d=" M  1992.63,   329.26  C  1992.63    331.77   1994.66    333.80   1997.17    333.80  " style="stroke-width: 1.42 ;&st7;   " /><path d=" M  1997.17,   333.80  C  1999.67    333.80   2001.70    331.77   2001.70    329.26  " style="stroke-width: 1.42 ;&st7;   " /><text style="&st18;" transform="matrix(&st16;  1912.4  272.88 )">MREL</text><text style="&st18;" transform="matrix(&st16;  1938.05  272.88 )">BATT</text><text style="&st18;" transform="matrix(&st17;  1942.48  241.32 )">L</text><text style="&st18;" transform="matrix(&st17;  1916.98  242.21 )">W</text><text style="&st18;" transform="matrix(&st16;  1908.91  262.68 )">34</text><text style="&st18;" transform="matrix(&st16;  1918.37  262.68 )">A</text><text style="&st18;" transform="matrix(&st16;  1937.51  262.68 )">1</text><text style="&st18;" transform="matrix(&st16;  1943.87  262.68 )">A</text><text ewd:textID="36" style="&st18;" transform="matrix(&st17;  1579.87  310.64 )">EGR Control Valve <tspan dy="6.0" x="0 ">Sub-Assembly</tspan></text><text style="&st18;" transform="matrix(&st16;  1816.51  262.68 )">B</text><text style="&st18;" transform="matrix(&st16;  1806.9  262.68 )">29</text><text style="&st18;" transform="matrix(&st16;  1832.4  262.68 )">53</text><text style="&st18;" transform="matrix(&st16;  1842.0  262.68 )">B</text><text style="&st18;" transform="matrix(&st16;  1857.89  262.68 )">43</text><text style="&st18;" transform="matrix(&st16;  1867.38  262.68 )">A</text><text style="&st18;" transform="matrix(&st16;  1908.88  331.23 )">30</text><text style="&st18;" transform="matrix(&st16;  1918.49  331.23 )">B</text><text style="&st18;" transform="matrix(&st16;  1934.38  331.23 )">54</text><text style="&st18;" transform="matrix(&st16;  1943.99  331.23 )">B</text><text style="&st18;" transform="matrix(&st16;  1883.39  262.68 )">52</text><text style="&st18;" transform="matrix(&st16;  1892.88  262.68 )">A</text><text style="&st18;" transform="matrix(&st17;  1891.49  243.3 )">BE</text><text style="&st18;" transform="matrix(&st16;  1889.16  272.88 )">FPC</text><text style="&st18;" transform="matrix(&st16;  1959.87  331.23 )">28</text><text style="&st18;" transform="matrix(&st16;  1969.48  331.23 )">B</text><text style="&st18;" transform="matrix(&st16;  1964.56  321.03 )">AIRV</text><text style="&st18;" transform="matrix(&st16;  1939.37  321.03 )">AIRP</text><text style="&st18;" transform="matrix(&st16;  1914.46  321.03 )">AIDI</text><text style="&st18;" transform="matrix(&st16;  1811.82  272.88 )">AID2</text><text style="&st18;" transform="matrix(&st16;  1836.73  272.88 )">ARP2</text><text style="&st18;" transform="matrix(&st17;  1967.97  362.28 )">BR</text><text style="&st18;" transform="matrix(&st17;  1942.48  360.22 )">P</text><text style="&st18;" transform="matrix(&st17;  1916.98  360.69 )">G</text><text style="&st18;" transform="matrix(&st16;  1861.92  272.88 )">ARV2</text><text style="&st18;" transform="matrix(&st17;  1865.99  241.55 )">V</text><text style="&st18;" transform="matrix(&st17;  1840.5  244.61 )">P-L</text><text style="&st18;" transform="matrix(&st17;  1815.0  245.2 )">G-Y</text><text style="&st18;" transform="matrix(&st16;  1985.37  331.23 )">60</text><text style="&st18;" transform="matrix(&st16;  1994.98  331.23 )">B</text><text style="&st18;" transform="matrix(&st16;  1990.17  321.03 )">HAI1</text><text style="&st18;" transform="matrix(&st17;  1993.47  360.41 )">B</text><text style="&st18;" transform="matrix(&st16;  1600.94  304.04 )">+B2</text><text style="&st18;" transform="matrix(&st16;  1643.43  304.04 )">+B1</text><text style="&st18;" transform="matrix(&st16;  1600.05  315.93 )">2</text><text style="&st18;" transform="matrix(&st16;  1642.54  315.93 )">5</text><text style="&st18;" transform="matrix(&st16;  1621.14  516.5 )">L-W</text><text style="&st18;" transform="matrix(&st16;  1676.38  516.5 )">L-W</text><text style="&st18;" transform="matrix(&st17;  1602.54  347.57 )">L-W</text><text style="&st18;" transform="matrix(&st17;  1645.03  347.57 )">L-W</text><text style="&st18;" transform="matrix(&st17;  1572.77  310.63 )">D85</text><text style="&st18;" transform="matrix(&st16;  1887.45  321.03 )">EGR1</text><text style="&st18;" transform="matrix(&st16;  1883.42  331.23 )">48</text><text style="&st18;" transform="matrix(&st16;  1893.0  331.23 )">B</text><text style="&st18;" transform="matrix(&st17;  1891.49  360.41 )">B</text><text style="&st18;" transform="matrix(&st16;  1806.9  331.23 )">47</text><text style="&st18;" transform="matrix(&st16;  1816.51  331.23 )">B</text><text style="&st18;" transform="matrix(&st16;  1832.4  331.23 )">24</text><text style="&st18;" transform="matrix(&st16;  1842.0  331.23 )">B</text><text style="&st18;" transform="matrix(&st16;  1860.99  331.23 )">1</text><text style="&st18;" transform="matrix(&st16;  1867.5  331.23 )">B</text><text style="&st18;" transform="matrix(&st16;  1861.95  321.03 )">EGR2</text><text style="&st18;" transform="matrix(&st16;  1836.46  321.03 )">EGR3</text><text style="&st18;" transform="matrix(&st16;  1810.96  321.03 )">EGR4</text><text style="&st18;" transform="matrix(&st17;  1865.99  363.79 )">B-L</text><text style="&st18;" transform="matrix(&st16;  1668.04  315.93 )">4</text><text style="&st18;" transform="matrix(&st16;  1693.53  315.93 )">3</text><text style="&st18;" transform="matrix(&st16;  1719.03  315.93 )">6</text><text style="&st18;" transform="matrix(&st17;  1747.01  346.91 )">B-Y</text><text style="&st18;" transform="matrix(&st17;  1721.52  346.83 )">B-R</text><text style="&st18;" transform="matrix(&st16;  1744.52  315.93 )">1</text><text style="&st18;" transform="matrix(&st17;  1696.02  346.79 )">B-L</text><text style="&st18;" transform="matrix(&st16;  1666.49  304.04 )">EGR1</text><text style="&st18;" transform="matrix(&st16;  1691.98  304.04 )">EGR2</text><text style="&st18;" transform="matrix(&st17;  1670.52  343.42 )">B</text><text style="&st18;" transform="matrix(&st16;  1717.48  304.04 )">EGR3</text><text style="&st18;" transform="matrix(&st16;  1742.97  304.04 )">EGR4</text><text style="&st18;" transform="matrix(&st16;  1823.78  292.68 )">A24(A),D74(B)</text><text ewd:textID="37" style="&st18;" transform="matrix(&st16;  1823.79  299.79 )">Engine Control Module</text><text style="&st18;" transform="matrix(&st16;  1574.4  516.5 )">L-W</text><text style="&st18;" transform="matrix(&st16;  1578.43  168.06 )">V</text><text style="&st18;" transform="matrix(&st16;  1527.44  168.06 )">V</text><text style="&st18;" transform="matrix(&st16;  1575.37  185.06 )">P-L</text><text style="&st18;" transform="matrix(&st16;  1524.38  185.06 )">P-L</text><text style="&st18;" transform="matrix(&st16;  1574.79  202.05 )">G-Y</text><text style="&st18;" transform="matrix(&st16;  1523.8  202.05 )">G-Y</text><text style="&st18;" transform="matrix(&st16;  1526.78  134.07 )">W</text><text style="&st18;" transform="matrix(&st16;  1577.77  134.07 )">W</text><text style="&st18;" transform="matrix(&st16;  1527.67  117.07 )">L</text><text style="&st18;" transform="matrix(&st16;  1578.66  117.07 )">L</text><text style="&st18;" transform="matrix(&st16;  1576.69  151.06 )">BE</text><text style="&st18;" transform="matrix(&st16;  1525.7  151.06 )">BE</text><text style="&st18;" transform="matrix(&st16;  1578.28  465.51 )">G</text><text style="&st18;" transform="matrix(&st16;  1527.28  465.51 )">G</text><text style="&st18;" transform="matrix(&st16;  1578.74  482.51 )">P</text><text style="&st18;" transform="matrix(&st16;  1527.75  482.51 )">P</text><text style="&st18;" transform="matrix(&st16;  1576.69  499.5 )">BR</text><text style="&st18;" transform="matrix(&st16;  1525.7  499.5 )">BR</text><text style="&st18;" transform="matrix(&st16;  1576.42  533.5 )">GR</text><text style="&st18;" transform="matrix(&st16;  1525.42  533.5 )">GR</text><text style="&st18;" transform="matrix(&st16;  1575.17  558.99 )">B-L</text><text style="&st18;" transform="matrix(&st16;  1524.18  558.99 )">B-L</text><text style="&st18;" transform="matrix(&st16;  1574.28  575.99 )">B-W</text><text style="&st18;" transform="matrix(&st16;  1523.29  575.99 )">B-W</text><text style="&st18;" transform="matrix(&st16;  1578.74  601.49 )">P</text><text style="&st18;" transform="matrix(&st16;  1527.75  601.49 )">P</text><text style="&st18;" transform="matrix(&st16;  1574.28  618.48 )">B-W</text><text style="&st18;" transform="matrix(&st16;  1523.29  618.48 )">B-W</text><text style="&st18;" transform="matrix(&st16;  1578.55  643.98 )">B</text><text style="&st18;" transform="matrix(&st16;  1527.56  643.98 )">B</text><text style="&st18;" transform="matrix(&st16;  1523.41  516.5 )">L-W</text></svg>