﻿<?xml version="1.0" encoding="utf-8"?>
<!DOCTYPE svg PUBLIC "-//W3C//DTD SVG 1.0//EN" "http://www.w3.org/TR/2001/REC-SVG-20010904/DTD/svg10.dtd"[
	<!ENTITY ns_flows "http://ns.adobe.com/Flows/1.0/">
	<!ENTITY ns_svg "http://www.w3.org/2000/svg">
	<!ENTITY ns_xlink "http://www.w3.org/1999/xlink">
	<!ENTITY st0 "font-size:7px;font-family:'MS-PGothic';adobe-font-script:japanese;">
	<!ENTITY st1 "font-size:6px;font-family:'ArialMT';">
	<!-- White fill  -->
	<!ENTITY st2 "fill:#FFFFFF;stroke:#000000; stroke-width:1.41;stroke-linecap:round;stroke-linejoin:round;">
	<!-- Yellow fill  -->
	<!ENTITY st3 "fill:#FFFFCC;stroke:#FFFFCC; stroke-width:0.1;stroke-linecap:round;stroke-linejoin:round;">
	<!-- Gray fill  -->
	<!ENTITY st4 "fill:#CCCCCC;stroke:#CCCCCC; stroke-width:0.1;stroke-linecap:round;stroke-linejoin:round;">
	<!-- Light-blue fill -->
	<!ENTITY st5 "fill:#CCECF4;stroke:#000000; stroke-width:1.133;stroke-linecap:round;stroke-linejoin:round;">
	<!ENTITY st6 "fill:none;stroke-linecap:butt; stroke-linejoin:round;">
	<!ENTITY st7 "fill:none;stroke:#000000;stroke-linecap:round;stroke-linejoin:round;">
	<!ENTITY st8 "enable-background:new    ;">
	<!-- Black fill -->
	<!ENTITY st9 "fill:#000000;stroke:#000000; stroke-linecap:round;stroke-linejoin:round;">
	<!-- SRS note   -->
	<!ENTITY st10 "font-size:9px;font-family:'ArialMT';">
	<!ENTITY st11 "font-size:9px;font-family:'Svg Symbol';">
	<!ENTITY st12 "font-size:6px;font-family:'Svg Symbol';">
	<!ENTITY st13 "fill:none;stroke:#ff0000;stroke-linecap:round;stroke-linejoin:round;">
	<!-- Yellow fill  -->
	<!ENTITY st14 "fill:#FFFF00;stroke:#FFFF00; stroke-width:0.1;stroke-linecap:round;stroke-linejoin:round;">
	<!ENTITY st15 "font-size:6px;font-family:'MS-PGothic';adobe-font-script:japanese;">
	<!ENTITY st16 "1.00 0.00 0.00 1.00">
	<!ENTITY st17 "0.00 -1.00 1.00 0.00">
	<!ENTITY st18 "font-size:6px;font-family:'Arial';">
	<!ENTITY st19 "font-size:9px;font-family:'Arial';">
	<!ENTITY st20 "font-size:6px;font-family:'MS-PGothic','MS PGothic';adobe-font-script:japanese;">
	<!ENTITY st21 "font-size:7px;font-family:'MS-PGothic','MS PGothic';adobe-font-script:japanese;">
	<!ATTLIST svg
		xmlns:ewd CDATA #FIXED "http://shcl.co.jp/ewd"
		xmlns:a CDATA #FIXED "http://ns.adobe.com/AdobeSVGViewerExtensions/3.0/"
		ewd:ver CDATA #IMPLIED
	>
	<!ATTLIST a
		ewd:lineID CDATA #IMPLIED
		ewd:groupID CDATA #IMPLIED
		ewd:figtype CDATA #IMPLIED
		ewd:code CDATA #IMPLIED
		ewd:figID CDATA #IMPLIED
		ewd:pinNo CDATA #IMPLIED
		ewd:comment CDATA #IMPLIED >
	<!ATTLIST g
		ewd:lineID CDATA #IMPLIED
		ewd:groupID CDATA #IMPLIED
		ewd:figtype CDATA #IMPLIED
		ewd:code CDATA #IMPLIED
		ewd:figID CDATA #IMPLIED
		ewd:pinNo CDATA #IMPLIED
		ewd:comment CDATA #IMPLIED >
	<!ATTLIST text
		ewd:textID CDATA #IMPLIED >
	<!ATTLIST title
		ewd:textID CDATA #IMPLIED >
]>
<!-- Generator: Shintec Hozumi YS   -->
<svg onload="call_execInitLoadProc_svg('system')" style="overflow:visible;  enable-background:new 0 0 12246.979 710.000" viewBox="0 0 12246.979 710.000" height="710.000" width="12246.979" xml:space="preserve" ewd:ver="L2.1.2.9" xmlns="&ns_svg;" xmlns:a="http://ns.adobe.com/AdobeSVGViewerExtensions/3.0/" xmlns:ewd="http://shcl.co.jp/ewd" xmlns:xlink="&ns_xlink;">
<path d=" M 10606.23,   358.73  L 10597.73,   358.73  " style="stroke-width: 1.42 ;&st7;  " /><path d=" M 10538.24,   358.73  L 10529.74,   358.73  " style="stroke-width: 1.42 ;&st7;  " /><path d=" M 10767.70,   299.24  L 10759.20,   299.24  " style="stroke-width: 1.42 ;&st7;  " /><path d=" M 10767.70,   350.23  L 10759.20,   350.23  " style="stroke-width: 1.42 ;&st7;  " /><path d=" M 10733.71,   244.72  L 10728.73,   239.75  " style="stroke-width: 1.42 ;&st7;  " /><path d=" M 10716.71,   251.77  L 10721.68,   256.74  " style="stroke-width: 1.42 ;&st7;  " /><path d=" M 10728.73,   256.74  L 10733.71,   251.77  " style="stroke-width: 1.42 ;&st7;  " /><path d=" M 10721.68,   239.75  L 10716.71,   244.72  " style="stroke-width: 1.42 ;&st7;  " /><path d=" M 10726.62,    95.27  L 10757.78,    95.27  " style="stroke-width: 0.85 ;&st7;  " /><path d=" M 10750.70,    52.78  L 10750.70,   154.76  " style="stroke-width: 0.85 ;&st7;  " /><path d=" M 10699.71,    52.78  L 10699.71,   154.76  " style="stroke-width: 0.85 ;&st7;  " /><path d=" M 10682.71,    52.78  L 10682.71,   154.76  " style="stroke-width: 0.85 ;&st7;  " /><path d=" M 10692.63,   146.26  L 10757.78,   146.26  " style="stroke-width: 0.85 ;&st7;  " /><path d=" M 10665.71,   103.77  L 10767.70,   103.77  " style="stroke-width: 0.85 ;&st7;  " /><path d=" M 10665.71,   137.76  L 10767.70,   137.76  " style="stroke-width: 0.85 ;&st7;  " /><path d=" M 10665.71,    52.78  L 10665.71,   154.76  L 10767.70,   154.76  L 10767.70,    52.78  L 10665.71,    52.78  " style="stroke-width: 1.42 ;&st7;  " /><path d=" M 10716.70,    52.78  L 10716.70,   154.76  " style="stroke-width: 0.85 ;&st7;  " /><path d=" M 10733.70,    52.78  L 10733.70,   154.76  " style="stroke-width: 0.85 ;&st7;  " /><path d=" M 10665.71,    86.77  L 10767.70,    86.77  " style="stroke-width: 0.85 ;&st7;  " /><path d=" M 10665.71,    69.77  L 10767.70,    69.77  " style="stroke-width: 0.85 ;&st7;  " /><path d=" M 10743.62,    78.27  L 10757.78,    78.27  " style="stroke-width: 0.85 ;&st7;  " /><path d=" M 10709.62,   112.27  L 10757.78,   112.27  " style="stroke-width: 0.85 ;&st7;  " /><path d=" M 10601.97,   367.79  L 10597.72,   363.54  L 10593.48,   367.79  " style="stroke-width: 1.42 ;&st7;  " /><path d=" M 10601.97,   364.39  L 10597.72,   360.14  L 10593.48,   364.39  " style="stroke-width: 1.42 ;&st7;  " /><path d=" M 10759.20,   409.72  L 10759.20,   426.71  " style="stroke-width: 0.85 ;&st7;  " /><path d=" M 10597.72,   282.24  L 10631.72,   282.24  L 10631.72,   265.24  " style="stroke-width: 0.85 ;&st7;  " /><path d=" M 10597.72,   265.24  L 10597.72,   299.24  " style="stroke-width: 0.85 ;&st7;  " /><path d=" M 10596.53,   281.24  L 10596.26,   281.71  L 10596.17,   282.24  L 10596.26,   282.77  L 10596.53,   283.24  L 10596.95,   283.59  L 10597.46,   283.77  L 10597.99,   283.77  L 10598.50,   283.59  L 10598.92,   283.24  L 10599.19,   282.77  L 10599.28,   282.24  L 10599.19,   281.71  L 10598.92,   281.24  L 10598.50,   280.89  L 10597.99,   280.70  L 10597.46,   280.70  L 10596.95,   280.89  L 10596.53,   281.24  L 10596.93,   281.95  L 10596.93,   282.53  L 10597.30,   282.97  L 10597.87,   283.07  L 10598.38,   282.79  L 10598.57,   282.24  L 10598.38,   281.69  L 10597.87,   281.40  L 10597.30,   281.50  L 10597.72,   282.24  " style="stroke-width: 0.85 ;&st7;  " /><path d=" M 10529.74,   282.24  L 10563.73,   282.24  L 10563.73,   265.24  " style="stroke-width: 0.85 ;&st7;  " /><path d=" M 10528.54,   281.24  L 10528.27,   281.71  L 10528.18,   282.24  L 10528.27,   282.77  L 10528.54,   283.24  L 10528.96,   283.59  L 10529.47,   283.77  L 10530.01,   283.77  L 10530.52,   283.59  L 10530.93,   283.24  L 10531.20,   282.77  L 10531.29,   282.24  L 10531.20,   281.71  L 10530.93,   281.24  L 10530.52,   280.89  L 10530.01,   280.70  L 10529.47,   280.70  L 10528.96,   280.89  L 10528.54,   281.24  L 10528.94,   281.95  L 10528.94,   282.53  L 10529.31,   282.97  L 10529.88,   283.07  L 10530.39,   282.79  L 10530.59,   282.24  L 10530.39,   281.69  L 10529.88,   281.40  L 10529.31,   281.50  L 10529.74,   282.24  " style="stroke-width: 0.85 ;&st7;  " /><path d=" M 10529.74,   265.24  L 10529.74,   299.24  " style="stroke-width: 0.85 ;&st7;  " /><path d=" M 10533.99,   364.39  L 10529.74,   360.14  L 10525.49,   364.39  " style="stroke-width: 1.42 ;&st7;  " /><path d=" M 10533.99,   367.79  L 10529.74,   363.54  L 10525.49,   367.79  " style="stroke-width: 1.42 ;&st7;  " /><path d=" M 10750.70,   409.72  L 10767.70,   409.72  L 10767.70,   426.71  L 10750.70,   426.71  L 10750.70,   409.72  " style="stroke-width: 1.42 ;&st7;  " /><path d=" M 10763.45,   308.30  L 10759.20,   304.05  L 10754.95,   308.30  " style="stroke-width: 1.42 ;&st7;  " /><path d=" M 10763.45,   304.90  L 10759.20,   300.65  L 10754.95,   304.90  " style="stroke-width: 1.42 ;&st7;  " /><path d=" M 10763.45,   359.29  L 10759.20,   355.04  L 10754.95,   359.29  " style="stroke-width: 1.42 ;&st7;  " /><path d=" M 10763.45,   355.89  L 10759.20,   351.64  L 10754.95,   355.89  " style="stroke-width: 1.42 ;&st7;  " /><path d=" M 10665.71,   120.77  L 10767.70,   120.77  " style="stroke-width: 0.85 ;&st7;  " /><path d=" M 10692.63,   129.26  L 10757.78,   129.26  " style="stroke-width: 0.85 ;&st7;  " /><path d=" M 10937.67,   418.22  L 10937.67,   435.21  L 10954.67,   435.21  L 10954.67,   418.22  L 10937.67,   418.22  " style="stroke-width: 1.42 ;&st7;  " /><path d=" M 10946.17,   418.22  L 10946.17,   435.21  " style="stroke-width: 0.85 ;&st7;  " /><path d=" M 10760.62,    95.27  C 10760.62     94.49  10759.98     93.85  10759.20     93.85  " style="stroke-width: 0.85 ;&st7;   " /><path d=" M 10759.20,    93.85  C 10758.42     93.85  10757.79     94.49  10757.79     95.27  " style="stroke-width: 0.85 ;&st7;   " /><path d=" M 10757.79,    95.27  C 10757.79     96.05  10758.42     96.69  10759.20     96.69  " style="stroke-width: 0.85 ;&st7;   " /><path d=" M 10759.20,    96.69  C 10759.98     96.69  10760.62     96.05  10760.62     95.27  " style="stroke-width: 0.85 ;&st7;   " /><path d=" M 10726.62,    95.27  C 10726.62     94.49  10725.99     93.85  10725.21     93.85  " style="stroke-width: 0.85 ;&st7;   " /><path d=" M 10725.21,    93.85  C 10724.43     93.85  10723.79     94.49  10723.79     95.27  " style="stroke-width: 0.85 ;&st7;   " /><path d=" M 10723.79,    95.27  C 10723.79     96.05  10724.43     96.69  10725.21     96.69  " style="stroke-width: 0.85 ;&st7;   " /><path d=" M 10725.21,    96.69  C 10725.99     96.69  10726.62     96.05  10726.62     95.27  " style="stroke-width: 0.85 ;&st7;   " /><path d=" M 10692.63,   146.26  C 10692.63    145.48  10692.00    144.84  10691.21    144.84  " style="stroke-width: 0.85 ;&st7;   " /><path d=" M 10691.21,   144.84  C 10690.43    144.84  10689.80    145.48  10689.80    146.26  " style="stroke-width: 0.85 ;&st7;   " /><path d=" M 10689.80,   146.26  C 10689.80    147.04  10690.43    147.68  10691.21    147.68  " style="stroke-width: 0.85 ;&st7;   " /><path d=" M 10691.21,   147.68  C 10692.00    147.68  10692.63    147.04  10692.63    146.26  " style="stroke-width: 0.85 ;&st7;   " /><path d=" M 10709.63,   112.27  C 10709.63    111.48  10708.99    110.85  10708.21    110.85  " style="stroke-width: 0.85 ;&st7;   " /><path d=" M 10708.21,   110.85  C 10707.43    110.85  10706.79    111.48  10706.79    112.27  " style="stroke-width: 0.85 ;&st7;   " /><path d=" M 10706.79,   112.27  C 10706.79    113.05  10707.43    113.68  10708.21    113.68  " style="stroke-width: 0.85 ;&st7;   " /><path d=" M 10708.21,   113.68  C 10708.99    113.68  10709.63    113.05  10709.63    112.27  " style="stroke-width: 0.85 ;&st7;   " /><path d=" M 10743.62,    78.27  C 10743.62     77.49  10742.99     76.86  10742.21     76.86  " style="stroke-width: 0.85 ;&st7;   " /><path d=" M 10742.21,    76.86  C 10741.42     76.86  10740.79     77.49  10740.79     78.27  " style="stroke-width: 0.85 ;&st7;   " /><path d=" M 10740.79,    78.27  C 10740.79     79.05  10741.42     79.69  10742.21     79.69  " style="stroke-width: 0.85 ;&st7;   " /><path d=" M 10742.21,    79.69  C 10742.99     79.69  10743.62     79.05  10743.62     78.27  " style="stroke-width: 0.85 ;&st7;   " /><path d=" M 10760.62,    78.27  C 10760.62     77.49  10759.98     76.86  10759.20     76.86  " style="stroke-width: 0.85 ;&st7;   " /><path d=" M 10759.20,    76.86  C 10758.42     76.86  10757.79     77.49  10757.79     78.27  " style="stroke-width: 0.85 ;&st7;   " /><path d=" M 10757.79,    78.27  C 10757.79     79.05  10758.42     79.69  10759.20     79.69  " style="stroke-width: 0.85 ;&st7;   " /><path d=" M 10759.20,    79.69  C 10759.98     79.69  10760.62     79.05  10760.62     78.27  " style="stroke-width: 0.85 ;&st7;   " /><path d=" M 10760.62,   112.27  C 10760.62    111.48  10759.98    110.85  10759.20    110.85  " style="stroke-width: 0.85 ;&st7;   " /><path d=" M 10759.20,   110.85  C 10758.42    110.85  10757.79    111.48  10757.79    112.27  " style="stroke-width: 0.85 ;&st7;   " /><path d=" M 10757.79,   112.27  C 10757.79    113.05  10758.42    113.68  10759.20    113.68  " style="stroke-width: 0.85 ;&st7;   " /><path d=" M 10759.20,   113.68  C 10759.98    113.68  10760.62    113.05  10760.62    112.27  " style="stroke-width: 0.85 ;&st7;   " /><path d=" M 10760.62,   146.26  C 10760.62    145.48  10759.98    144.84  10759.20    144.84  " style="stroke-width: 0.85 ;&st7;   " /><path d=" M 10759.20,   144.84  C 10758.42    144.84  10757.79    145.48  10757.79    146.26  " style="stroke-width: 0.85 ;&st7;   " /><path d=" M 10757.79,   146.26  C 10757.79    147.04  10758.42    147.68  10759.20    147.68  " style="stroke-width: 0.85 ;&st7;   " /><path d=" M 10759.20,   147.68  C 10759.98    147.68  10760.62    147.04  10760.62    146.26  " style="stroke-width: 0.85 ;&st7;   " /><path d=" M 10636.26,   260.71  C 10636.26    258.21  10634.23    256.18  10631.72    256.18  " style="stroke-width: 1.42 ;&st7;   " /><path d=" M 10631.72,   256.18  C 10629.22    256.18  10627.19    258.21  10627.19    260.71  " style="stroke-width: 1.42 ;&st7;   " /><path d=" M 10627.19,   260.71  C 10627.19    263.21  10629.22    265.24  10631.72    265.24  " style="stroke-width: 1.42 ;&st7;   " /><path d=" M 10631.72,   265.24  C 10634.23    265.24  10636.26    263.21  10636.26    260.71  " style="stroke-width: 1.42 ;&st7;   " /><path d=" M 10602.26,   260.71  C 10602.26    258.21  10600.23    256.18  10597.73    256.18  " style="stroke-width: 1.42 ;&st7;   " /><path d=" M 10597.73,   256.18  C 10595.23    256.18  10593.20    258.21  10593.20    260.71  " style="stroke-width: 1.42 ;&st7;   " /><path d=" M 10593.20,   260.71  C 10593.20    263.21  10595.23    265.24  10597.73    265.24  " style="stroke-width: 1.42 ;&st7;   " /><path d=" M 10597.73,   265.24  C 10600.23    265.24  10602.26    263.21  10602.26    260.71  " style="stroke-width: 1.42 ;&st7;   " /><path d=" M 10602.26,   303.77  C 10602.26    301.26  10600.23    299.24  10597.73    299.24  " style="stroke-width: 1.42 ;&st7;   " /><path d=" M 10597.73,   299.24  C 10595.23    299.24  10593.20    301.26  10593.20    303.77  " style="stroke-width: 1.42 ;&st7;   " /><path d=" M 10593.20,   303.77  C 10593.20    306.27  10595.23    308.30  10597.73    308.30  " style="stroke-width: 1.42 ;&st7;   " /><path d=" M 10597.73,   308.30  C 10600.23    308.30  10602.26    306.27  10602.26    303.77  " style="stroke-width: 1.42 ;&st7;   " /><path d=" M 10534.27,   260.71  C 10534.27    258.21  10532.24    256.18  10529.74    256.18  " style="stroke-width: 1.42 ;&st7;   " /><path d=" M 10529.74,   256.18  C 10527.24    256.18  10525.21    258.21  10525.21    260.71  " style="stroke-width: 1.42 ;&st7;   " /><path d=" M 10525.21,   260.71  C 10525.21    263.21  10527.24    265.24  10529.74    265.24  " style="stroke-width: 1.42 ;&st7;   " /><path d=" M 10529.74,   265.24  C 10532.24    265.24  10534.27    263.21  10534.27    260.71  " style="stroke-width: 1.42 ;&st7;   " /><path d=" M 10500.28,   260.71  C 10500.28    258.21  10498.25    256.18  10495.75    256.18  " style="stroke-width: 1.42 ;&st7;   " /><path d=" M 10534.27,   303.77  C 10534.27    301.26  10532.24    299.24  10529.74    299.24  " style="stroke-width: 1.42 ;&st7;   " /><path d=" M 10529.74,   299.24  C 10527.24    299.24  10525.21    301.26  10525.21    303.77  " style="stroke-width: 1.42 ;&st7;   " /><path d=" M 10525.21,   303.77  C 10525.21    306.27  10527.24    308.30  10529.74    308.30  " style="stroke-width: 1.42 ;&st7;   " /><path d=" M 10529.74,   308.30  C 10532.24    308.30  10534.27    306.27  10534.27    303.77  " style="stroke-width: 1.42 ;&st7;   " /><path d=" M 10568.27,   260.71  C 10568.27    258.21  10566.24    256.18  10563.73    256.18  " style="stroke-width: 1.42 ;&st7;   " /><path d=" M 10563.73,   256.18  C 10561.23    256.18  10559.20    258.21  10559.20    260.71  " style="stroke-width: 1.42 ;&st7;   " /><path d=" M 10559.20,   260.71  C 10559.20    263.21  10561.23    265.24  10563.73    265.24  " style="stroke-width: 1.42 ;&st7;   " /><path d=" M 10563.73,   265.24  C 10566.24    265.24  10568.27    263.21  10568.27    260.71  " style="stroke-width: 1.42 ;&st7;   " /><path d=" M 10500.28,   303.77  C 10500.28    301.26  10498.25    299.24  10495.75    299.24  " style="stroke-width: 1.42 ;&st7;   " /><path d=" M 10692.63,   129.26  C 10692.63    128.48  10692.00    127.85  10691.21    127.85  " style="stroke-width: 0.85 ;&st7;   " /><path d=" M 10691.21,   127.85  C 10690.43    127.85  10689.80    128.48  10689.80    129.26  " style="stroke-width: 0.85 ;&st7;   " /><path d=" M 10689.80,   129.26  C 10689.80    130.05  10690.43    130.68  10691.21    130.68  " style="stroke-width: 0.85 ;&st7;   " /><path d=" M 10691.21,   130.68  C 10692.00    130.68  10692.63    130.05  10692.63    129.26  " style="stroke-width: 0.85 ;&st7;   " /><path d=" M 10760.62,   129.26  C 10760.62    128.48  10759.98    127.85  10759.20    127.85  " style="stroke-width: 0.85 ;&st7;   " /><path d=" M 10759.20,   127.85  C 10758.42    127.85  10757.79    128.48  10757.79    129.26  " style="stroke-width: 0.85 ;&st7;   " /><path d=" M 10757.79,   129.26  C 10757.79    130.05  10758.42    130.68  10759.20    130.68  " style="stroke-width: 0.85 ;&st7;   " /><path d=" M 10759.20,   130.68  C 10759.98    130.68  10760.62    130.05  10760.62    129.26  " style="stroke-width: 0.85 ;&st7;   " /><text ewd:textID="74" style="&st18;" transform="matrix(&st17;  10782.42  157.67 )">Park/Neutral <tspan dy="6.0" x="0 ">Position Switch</tspan></text><text style="&st18;" transform="matrix(&st17;  10775.31  157.66 )">D35</text><text style="&st18;" transform="matrix(&st16;  10671.91  114.24 )">N</text><text style="&st18;" transform="matrix(&st16;  10672.11  97.24 )">R</text><text style="&st18;" transform="matrix(&st16;  10672.22  80.24 )">P</text><text style="&st18;" transform="matrix(&st16;  10672.42  148.23 )">S</text><text style="&st18;" transform="matrix(&st16;  10702.03  162.95 )">9</text><text style="&st18;" transform="matrix(&st16;  10755.15  63.24 )">RB</text><text style="&st18;" transform="matrix(&st16;  10753.02  49.09 )">2</text><text style="&st18;" transform="matrix(&st16;  10738.39  63.24 )">PL</text><text style="&st18;" transform="matrix(&st16;  10736.02  162.95 )">6</text><text style="&st18;" transform="matrix(&st16;  10721.27  63.24 )">RL</text><text style="&st18;" transform="matrix(&st16;  10719.02  162.95 )">1</text><text style="&st18;" transform="matrix(&st16;  10687.01  63.24 )">DL</text><text style="&st18;" transform="matrix(&st16;  10685.03  162.95 )">7</text><text style="&st18;" transform="matrix(&st16;  10582.0  356.45 )">17</text><text style="&st18;" transform="matrix(&st17;  10628.03  245.2 )">G-B</text><text style="&st18;" transform="matrix(&st17;  10594.03  328.55 )">GR</text><text style="&st18;" transform="matrix(&st16;  10623.03  262.68 )">2</text><text style="&st18;" transform="matrix(&st16;  10629.54  262.68 )">B</text><text style="&st18;" transform="matrix(&st16;  10589.04  262.68 )">1</text><text style="&st18;" transform="matrix(&st16;  10595.54  262.68 )">B</text><text style="&st18;" transform="matrix(&st16;  10585.93  305.74 )">10</text><text style="&st18;" transform="matrix(&st16;  10595.42  305.74 )">A</text><text style="&st18;" transform="matrix(&st16;  10521.08  262.68 )">8</text><text style="&st18;" transform="matrix(&st16;  10527.55  262.68 )">B</text><text ewd:textID="65" style="&st18;" transform="matrix(&st17;  10654.94  302.14 )">Junction <tspan dy="6.0" x="0 ">Connector</tspan></text><text style="&st18;" transform="matrix(&st17;  10647.83  302.13 )">A45(A),D73(B)</text><text style="&st18;" transform="matrix(&st16;  10521.08  305.74 )">3</text><text style="&st18;" transform="matrix(&st16;  10527.44  305.74 )">A</text><text style="&st18;" transform="matrix(&st16;  10555.07  262.68 )">9</text><text style="&st18;" transform="matrix(&st16;  10561.55  262.68 )">B</text><text style="&st18;" transform="matrix(&st17;  10560.04  237.47 )">G-W</text><text style="&st18;" transform="matrix(&st17;  10526.04  390.04 )">L</text><text style="&st18;" transform="matrix(&st17;  10526.04  328.51 )">LG</text><text style="&st18;" transform="matrix(&st16;  10517.11  356.45 )">8</text><text style="&st18;" transform="matrix(&st16;  10936.88  414.53 )">22</text><text style="&st18;" transform="matrix(&st16;  10746.57  296.96 )">2</text><text style="&st18;" transform="matrix(&st16;  10743.47  347.95 )">11</text><text style="&st18;" transform="matrix(&st17;  10755.51  278.72 )">L-R</text><text style="&st18;" transform="matrix(&st17;  10755.51  326.3 )">L</text><text style="&st18;" transform="matrix(&st17;  10755.51  385.83 )">R</text><text style="&st18;" transform="matrix(&st16;  10753.02  406.03 )">5</text><text style="&st18;" transform="matrix(&st17;  10721.51  278.72 )">L-R</text><text style="&st18;" transform="matrix(&st17;  10704.52  186.48 )">G-W</text><text style="&st18;" transform="matrix(&st17;  10738.51  185.71 )">G-B</text><text style="&st18;" transform="matrix(&st17;  10721.51  185.24 )">L-R</text><text style="&st18;" transform="matrix(&st17;  10687.52  182.22 )">G</text><text style="&st18;" transform="matrix(&st17;  10594.03  245.2 )">G-B</text><text style="&st18;" transform="matrix(&st16;  10704.08  63.24 )">NL</text><text style="&st18;" transform="matrix(&st17;  10526.05  237.47 )">G-W</text><text style="&st18;" transform="matrix(&st16;  10671.83  131.23 )">D</text><text style="&st18;" transform="matrix(&st17;  10942.48  371.01 )">LG</text><text style="&st18;" transform="matrix(&st16;  10753.02  434.91 )">6</text><text ewd:textID="65" style="&st18;" transform="matrix(&st16;  10769.96  418.77 )">Junction <tspan dy="6.0" x="0 ">Connector</tspan></text><text style="&st18;" transform="matrix(&st16;  10769.95  411.66 )">J66</text><text style="&st18;" transform="matrix(&st17;  10755.51  455.99 )">LG</text><text ewd:textID="65" style="&st18;" transform="matrix(&st17;  10969.39  438.12 )">Junction <tspan dy="6.0" x="0 ">Connector</tspan></text><text style="&st18;" transform="matrix(&st17;  10962.28  438.11 )">J65</text><text style="&st18;" transform="matrix(&st17;  10594.03  392.29 )">GR</text><text style="&st18;" transform="matrix(&st16;  10936.88  443.41 )">20</text><text style="&st18;" transform="matrix(&st17;  10942.48  464.26 )">BR</text><text style="&st18;" transform="matrix(&st16;  10909.72  23.58 )">G</text><text style="&st18;" transform="matrix(&st16;  10858.73  23.58 )">G</text><text style="&st18;" transform="matrix(&st16;  10907.89  329.53 )">LG</text><text style="&st18;" transform="matrix(&st16;  10856.9  329.53 )">LG</text><text style="&st18;" transform="matrix(&st16;  10907.86  482.51 )">GR</text><text style="&st18;" transform="matrix(&st16;  10856.86  482.51 )">GR</text><text style="&st18;" transform="matrix(&st16;  10910.1  516.5 )">L</text><text style="&st18;" transform="matrix(&st16;  10859.11  516.5 )">L</text><text style="&st18;" transform="matrix(&st16;  10909.72  533.5 )">G</text><text style="&st18;" transform="matrix(&st16;  10858.73  533.5 )">G</text><text style="&st18;" transform="matrix(&st16;  10905.03  550.5 )">B(*3)</text><text style="&st18;" transform="matrix(&st16;  10854.03  550.5 )">B(*3)</text><text style="&st18;" transform="matrix(&st16;  10902.89  567.49 )">GR(*2)</text><text style="&st18;" transform="matrix(&st16;  10851.9  567.49 )">GR(*2)</text><text style="&st18;" transform="matrix(&st16;  10910.18  584.49 )">P</text><text style="&st18;" transform="matrix(&st16;  10859.19  584.49 )">P</text><text style="&st18;" transform="matrix(&st16;  10910.18  601.49 )">P</text><text style="&st18;" transform="matrix(&st16;  10859.19  601.49 )">P</text><text style="&st18;" transform="matrix(&st16;  10909.21  618.48 )">W</text><text style="&st18;" transform="matrix(&st16;  10858.22  618.48 )">W</text><text style="&st18;" transform="matrix(&st16;  10908.44  635.48 )">SB</text><text style="&st18;" transform="matrix(&st16;  10857.45  635.48 )">SB</text><text style="&st18;" transform="matrix(&st16;  10907.89  652.48 )">LG</text><text style="&st18;" transform="matrix(&st16;  10856.9  652.48 )">LG</text><text style="&st18;" transform="matrix(&st16;  10910.18  669.48 )">P</text><text style="&st18;" transform="matrix(&st16;  10859.19  669.48 )">P</text></svg>