﻿<?xml version="1.0" encoding="utf-8"?>
<!DOCTYPE svg PUBLIC "-//W3C//DTD SVG 1.0//EN" "http://www.w3.org/TR/2001/REC-SVG-20010904/DTD/svg10.dtd"[
	<!ENTITY ns_flows "http://ns.adobe.com/Flows/1.0/">
	<!ENTITY ns_svg "http://www.w3.org/2000/svg">
	<!ENTITY ns_xlink "http://www.w3.org/1999/xlink">
	<!ENTITY st0 "font-size:7px;font-family:'MS-PGothic';adobe-font-script:japanese;">
	<!ENTITY st1 "font-size:6px;font-family:'ArialMT';">
	<!-- White fill  -->
	<!ENTITY st2 "fill:#FFFFFF;stroke:#000000; stroke-width:1.41;stroke-linecap:round;stroke-linejoin:round;">
	<!-- Yellow fill  -->
	<!ENTITY st3 "fill:#FFFFCC;stroke:#FFFFCC; stroke-width:0.1;stroke-linecap:round;stroke-linejoin:round;">
	<!-- Gray fill  -->
	<!ENTITY st4 "fill:#CCCCCC;stroke:#CCCCCC; stroke-width:0.1;stroke-linecap:round;stroke-linejoin:round;">
	<!-- Light-blue fill -->
	<!ENTITY st5 "fill:#CCECF4;stroke:#000000; stroke-width:1.133;stroke-linecap:round;stroke-linejoin:round;">
	<!ENTITY st6 "fill:none;stroke-linecap:butt; stroke-linejoin:round;">
	<!ENTITY st7 "fill:none;stroke:#000000;stroke-linecap:round;stroke-linejoin:round;">
	<!ENTITY st8 "enable-background:new    ;">
	<!-- Black fill -->
	<!ENTITY st9 "fill:#000000;stroke:#000000; stroke-linecap:round;stroke-linejoin:round;">
	<!-- SRS note   -->
	<!ENTITY st10 "font-size:9px;font-family:'ArialMT';">
	<!ENTITY st11 "font-size:9px;font-family:'Svg Symbol';">
	<!ENTITY st12 "font-size:6px;font-family:'Svg Symbol';">
	<!ENTITY st13 "fill:none;stroke:#ff0000;stroke-linecap:round;stroke-linejoin:round;">
	<!-- Yellow fill  -->
	<!ENTITY st14 "fill:#FFFF00;stroke:#FFFF00; stroke-width:0.1;stroke-linecap:round;stroke-linejoin:round;">
	<!ENTITY st15 "font-size:6px;font-family:'MS-PGothic';adobe-font-script:japanese;">
	<!ENTITY st16 "1.00 0.00 0.00 1.00">
	<!ENTITY st17 "0.00 -1.00 1.00 0.00">
	<!ENTITY st18 "font-size:6px;font-family:'Arial';">
	<!ENTITY st19 "font-size:9px;font-family:'Arial';">
	<!ENTITY st20 "font-size:6px;font-family:'MS-PGothic','MS PGothic';adobe-font-script:japanese;">
	<!ENTITY st21 "font-size:7px;font-family:'MS-PGothic','MS PGothic';adobe-font-script:japanese;">
	<!ATTLIST svg
		xmlns:ewd CDATA #FIXED "http://shcl.co.jp/ewd"
		xmlns:a CDATA #FIXED "http://ns.adobe.com/AdobeSVGViewerExtensions/3.0/"
		ewd:ver CDATA #IMPLIED
	>
	<!ATTLIST a
		ewd:lineID CDATA #IMPLIED
		ewd:groupID CDATA #IMPLIED
		ewd:figtype CDATA #IMPLIED
		ewd:code CDATA #IMPLIED
		ewd:figID CDATA #IMPLIED
		ewd:pinNo CDATA #IMPLIED
		ewd:comment CDATA #IMPLIED >
	<!ATTLIST g
		ewd:lineID CDATA #IMPLIED
		ewd:groupID CDATA #IMPLIED
		ewd:figtype CDATA #IMPLIED
		ewd:code CDATA #IMPLIED
		ewd:figID CDATA #IMPLIED
		ewd:pinNo CDATA #IMPLIED
		ewd:comment CDATA #IMPLIED >
	<!ATTLIST text
		ewd:textID CDATA #IMPLIED >
	<!ATTLIST title
		ewd:textID CDATA #IMPLIED >
]>
<!-- Generator: Shintec Hozumi YS   -->
<svg onload="call_execInitLoadProc_svg('system')" style="overflow:visible;  enable-background:new 0 0 12246.979 710.000" viewBox="0 0 12246.979 710.000" height="710.000" width="12246.979" xml:space="preserve" ewd:ver="L2.1.2.9" xmlns="&ns_svg;" xmlns:a="http://ns.adobe.com/AdobeSVGViewerExtensions/3.0/" xmlns:ewd="http://shcl.co.jp/ewd" xmlns:xlink="&ns_xlink;">
<path d=" M  3747.87,   367.22  L  3756.37,   367.22  " style="stroke-width: 1.42 ;&st7;  " /><path d=" M  3552.41,   188.75  L  3552.41,   197.25  " style="stroke-width: 0.85 ;&st7;  " /><path d=" M  3552.41,   163.26  L  3552.41,   171.76  " style="stroke-width: 0.85 ;&st7;  " /><path d=" M  3909.35,   601.66  L  3904.38,   596.69  " style="stroke-width: 1.42 ;&st7;  " /><path d=" M  3892.35,   608.71  L  3897.32,   613.68  " style="stroke-width: 1.42 ;&st7;  " /><path d=" M  3904.38,   613.68  L  3909.35,   608.71  " style="stroke-width: 1.42 ;&st7;  " /><path d=" M  3897.32,   596.69  L  3892.35,   601.66  " style="stroke-width: 1.42 ;&st7;  " /><path d=" M  3705.38,   550.67  L  3700.41,   545.69  " style="stroke-width: 1.42 ;&st7;  " /><path d=" M  3688.38,   557.72  L  3693.36,   562.69  " style="stroke-width: 1.42 ;&st7;  " /><path d=" M  3700.41,   562.69  L  3705.38,   557.72  " style="stroke-width: 1.42 ;&st7;  " /><path d=" M  3693.36,   545.69  L  3688.38,   550.67  " style="stroke-width: 1.42 ;&st7;  " /><path d=" M  3968.84,   418.22  L  3968.84,   460.71  L  4053.82,   460.71  L  4053.82,   418.22  L  3968.84,   418.22  " style="stroke-width: 1.42 ;&st7;  " /><path d=" M  3739.37,   418.22  L  3739.37,   460.71  L  3849.86,   460.71  L  3849.86,   418.22  L  3739.37,   418.22  " style="stroke-width: 1.42 ;&st7;  " /><path d=" M  3752.12,   358.16  L  3756.37,   362.41  L  3760.62,   358.16  " style="stroke-width: 1.42 ;&st7;  " /><path d=" M  3760.62,   361.56  L  3756.37,   365.81  L  3752.12,   361.56  " style="stroke-width: 1.42 ;&st7;  " /><path d=" M  3805.95,   710.00  L  3808.78,   710.00  " style="stroke-width: 0.85 ;&st7;  " /><path d=" M  3804.53,   707.17  L  3810.20,   707.17  " style="stroke-width: 0.85 ;&st7;  " /><path d=" M  3803.11,   704.33  L  3811.61,   704.33  " style="stroke-width: 0.85 ;&st7;  " /><path d=" M  3798.86,   701.50  L  3815.86,   701.50  " style="stroke-width: 0.85 ;&st7;  " /><path d=" M  3807.36,   697.25  L  3807.36,   701.50  " style="stroke-width: 0.85 ;&st7;  " /><path d=" M  3560.90,   197.25  L  3560.90,   163.26  L  3543.91,   163.26  L  3543.91,   197.25  L  3560.90,   197.25  " style="stroke-width: 1.42 ;&st7;  " /><path d=" M  3909.35,    44.28  L  3977.33,    44.28  L  3977.33,    86.77  L  3909.35,    86.77  L  3909.35,    44.28  " style="stroke-width: 1.42 ;&st7;  " /><path d=" M  3790.37,    44.28  L  3858.35,    44.28  L  3858.35,    86.77  L  3790.37,    86.77  L  3790.37,    44.28  " style="stroke-width: 1.42 ;&st7;  " /><path d=" M  3688.38,    44.28  L  3756.37,    44.28  L  3756.37,    86.77  L  3688.38,    86.77  L  3688.38,    44.28  " style="stroke-width: 1.42 ;&st7;  " /><path d=" M  3832.86,   163.26  L  3832.86,   180.26  L  3875.35,   180.26  L  3875.35,   163.26  L  3832.86,   163.26  " style="stroke-width: 1.42 ;&st7;  " /><path d=" M  3840.16,   170.75  L  3839.89,   171.22  L  3839.80,   171.76  L  3839.89,   172.29  L  3840.16,   172.76  L  3840.58,   173.11  L  3841.09,   173.29  L  3841.63,   173.29  L  3842.14,   173.11  L  3842.55,   172.76  L  3842.82,   172.29  L  3842.91,   171.76  L  3842.82,   171.22  L  3842.55,   170.75  L  3842.14,   170.41  L  3841.63,   170.22  L  3841.09,   170.22  L  3840.58,   170.41  L  3840.16,   170.75  L  3840.56,   171.47  L  3840.56,   172.05  L  3840.93,   172.49  L  3841.50,   172.59  L  3842.01,   172.30  L  3842.21,   171.76  L  3842.01,   171.21  L  3841.50,   170.92  L  3840.93,   171.02  L  3841.36,   171.76  " style="stroke-width: 0.85 ;&st7;  " /><path d=" M  3865.66,   170.75  L  3865.39,   171.22  L  3865.29,   171.76  L  3865.39,   172.29  L  3865.66,   172.76  L  3866.07,   173.11  L  3866.58,   173.29  L  3867.12,   173.29  L  3867.63,   173.11  L  3868.04,   172.76  L  3868.32,   172.29  L  3868.41,   171.76  L  3868.32,   171.22  L  3868.04,   170.75  L  3867.63,   170.41  L  3867.12,   170.22  L  3866.58,   170.22  L  3866.07,   170.41  L  3865.66,   170.75  L  3866.05,   171.47  L  3866.05,   172.05  L  3866.43,   172.49  L  3867.00,   172.59  L  3867.50,   172.30  L  3867.70,   171.76  L  3867.50,   171.21  L  3867.00,   170.92  L  3866.43,   171.02  L  3866.85,   171.76  " style="stroke-width: 0.85 ;&st7;  " /><path d=" M  3866.85,   163.26  L  3866.85,   180.26  " style="stroke-width: 0.85 ;&st7;  " /><path d=" M  3841.36,   163.26  L  3841.36,   180.26  " style="stroke-width: 0.85 ;&st7;  " /><path d=" M  3832.86,   171.76  L  3866.85,   171.76  " style="stroke-width: 0.85 ;&st7;  " /><path d=" M  3905.38,   329.26  C  3905.38    326.76   3903.35    324.73   3900.85    324.73  " style="stroke-width: 1.42 ;&st7;   " /><path d=" M  3900.85,   324.73  C  3898.34    324.73   3896.32    326.76   3896.32    329.26  " style="stroke-width: 1.42 ;&st7;   " /><path d=" M  3896.32,   329.26  C  3896.32    331.77   3898.34    333.80   3900.85    333.80  " style="stroke-width: 1.42 ;&st7;   " /><path d=" M  3900.85,   333.80  C  3903.35    333.80   3905.38    331.77   3905.38    329.26  " style="stroke-width: 1.42 ;&st7;   " /><path d=" M  3709.91,   260.71  C  3709.91    258.21   3707.88    256.18   3705.38    256.18  " style="stroke-width: 1.42 ;&st7;   " /><path d=" M  3705.38,   256.18  C  3702.88    256.18   3700.85    258.21   3700.85    260.71  " style="stroke-width: 1.42 ;&st7;   " /><path d=" M  3700.85,   260.71  C  3700.85    263.21   3702.88    265.24   3705.38    265.24  " style="stroke-width: 1.42 ;&st7;   " /><path d=" M  3705.38,   265.24  C  3707.88    265.24   3709.91    263.21   3709.91    260.71  " style="stroke-width: 1.42 ;&st7;   " /><path d=" M  3811.90,   260.71  C  3811.90    258.21   3809.87    256.18   3807.36    256.18  " style="stroke-width: 1.42 ;&st7;   " /><path d=" M  3807.36,   256.18  C  3804.86    256.18   3802.83    258.21   3802.83    260.71  " style="stroke-width: 1.42 ;&st7;   " /><path d=" M  3802.83,   260.71  C  3802.83    263.21   3804.86    265.24   3807.36    265.24  " style="stroke-width: 1.42 ;&st7;   " /><path d=" M  3807.36,   265.24  C  3809.87    265.24   3811.90    263.21   3811.90    260.71  " style="stroke-width: 1.42 ;&st7;   " /><path d=" M  3930.88,   260.71  C  3930.88    258.21   3928.85    256.18   3926.34    256.18  " style="stroke-width: 1.42 ;&st7;   " /><path d=" M  3926.34,   256.18  C  3923.84    256.18   3921.81    258.21   3921.81    260.71  " style="stroke-width: 1.42 ;&st7;   " /><path d=" M  3921.81,   260.71  C  3921.81    263.21   3923.84    265.24   3926.34    265.24  " style="stroke-width: 1.42 ;&st7;   " /><path d=" M  3926.34,   265.24  C  3928.85    265.24   3930.88    263.21   3930.88    260.71  " style="stroke-width: 1.42 ;&st7;   " /><path d=" M  3845.89,   260.71  C  3845.89    258.21   3843.86    256.18   3841.36    256.18  " style="stroke-width: 1.42 ;&st7;   " /><path d=" M  3841.36,   256.18  C  3838.85    256.18   3836.83    258.21   3836.83    260.71  " style="stroke-width: 1.42 ;&st7;   " /><path d=" M  3836.83,   260.71  C  3836.83    263.21   3838.85    265.24   3841.36    265.24  " style="stroke-width: 1.42 ;&st7;   " /><path d=" M  3841.36,   265.24  C  3843.86    265.24   3845.89    263.21   3845.89    260.71  " style="stroke-width: 1.42 ;&st7;   " /><path d=" M  3990.37,   329.26  C  3990.37    326.76   3988.34    324.73   3985.83    324.73  " style="stroke-width: 1.42 ;&st7;   " /><path d=" M  3985.83,   324.73  C  3983.33    324.73   3981.30    326.76   3981.30    329.26  " style="stroke-width: 1.42 ;&st7;   " /><path d=" M  3981.30,   329.26  C  3981.30    331.77   3983.33    333.80   3985.83    333.80  " style="stroke-width: 1.42 ;&st7;   " /><path d=" M  3985.83,   333.80  C  3988.34    333.80   3990.37    331.77   3990.37    329.26  " style="stroke-width: 1.42 ;&st7;   " /><path d=" M  3760.90,   329.26  C  3760.90    326.76   3758.88    324.73   3756.37    324.73  " style="stroke-width: 1.42 ;&st7;   " /><path d=" M  3756.37,   324.73  C  3753.87    324.73   3751.84    326.76   3751.84    329.26  " style="stroke-width: 1.42 ;&st7;   " /><path d=" M  3751.84,   329.26  C  3751.84    331.77   3753.87    333.80   3756.37    333.80  " style="stroke-width: 1.42 ;&st7;   " /><path d=" M  3756.37,   333.80  C  3758.88    333.80   3760.90    331.77   3760.90    329.26  " style="stroke-width: 1.42 ;&st7;   " /><path d=" M  3549.88,   177.78  C  3551.25    179.17   3553.49    179.20   3554.89    177.83  " style="stroke-width: 0.85 ;&st7;   " /><path d=" M  3554.89,   177.83  C  3556.28    176.46   3556.31    174.22   3554.94    172.82  " style="stroke-width: 0.85 ;&st7;   " /><path d=" M  3554.94,   172.82  C  3554.24    172.11   3553.40    171.76   3552.41    171.76  " style="stroke-width: 0.85 ;&st7;   " /><path d=" M  3549.88,   182.73  C  3551.25    184.13   3553.49    184.15   3554.89    182.78  " style="stroke-width: 0.85 ;&st7;   " /><path d=" M  3554.89,   182.78  C  3556.28    181.42   3556.31    179.17   3554.94    177.78  " style="stroke-width: 0.85 ;&st7;   " /><path d=" M  3554.94,   177.78  C  3553.57    176.38   3551.32    176.36   3549.93    177.73  " style="stroke-width: 0.85 ;&st7;   " /><path d=" M  3549.93,   177.73  C  3549.91    177.74   3549.89    177.76   3549.88    177.78  " style="stroke-width: 0.85 ;&st7;   " /><path d=" M  3552.41,   188.75  C  3554.36    188.75   3555.95    187.17   3555.95    185.21  " style="stroke-width: 0.85 ;&st7;   " /><path d=" M  3555.95,   185.21  C  3555.95    183.26   3554.36    181.67   3552.41    181.67  " style="stroke-width: 0.85 ;&st7;   " /><path d=" M  3552.41,   181.67  C  3551.42    181.67   3550.57    182.03   3549.88    182.73  " style="stroke-width: 0.85 ;&st7;   " /><path d=" M  3556.94,   260.71  C  3556.94    258.21   3554.91    256.18   3552.41    256.18  " style="stroke-width: 1.42 ;&st7;   " /><path d=" M  3552.41,   256.18  C  3549.90    256.18   3547.87    258.21   3547.87    260.71  " style="stroke-width: 1.42 ;&st7;   " /><path d=" M  3547.87,   260.71  C  3547.87    263.21   3549.90    265.24   3552.41    265.24  " style="stroke-width: 1.42 ;&st7;   " /><path d=" M  3552.41,   265.24  C  3554.91    265.24   3556.94    263.21   3556.94    260.71  " style="stroke-width: 1.42 ;&st7;   " /><path d=" M  3514.45,   260.71  C  3514.45    258.21   3512.42    256.18   3509.91    256.18  " style="stroke-width: 1.42 ;&st7;   " /><path d=" M  3509.91,   256.18  C  3507.41    256.18   3505.38    258.21   3505.38    260.71  " style="stroke-width: 1.42 ;&st7;   " /><path d=" M  3505.38,   260.71  C  3505.38    263.21   3507.41    265.24   3509.91    265.24  " style="stroke-width: 1.42 ;&st7;   " /><path d=" M  3509.91,   265.24  C  3512.42    265.24   3514.45    263.21   3514.45    260.71  " style="stroke-width: 1.42 ;&st7;   " /><path d=" M  3599.43,   260.71  C  3599.43    258.21   3597.40    256.18   3594.90    256.18  " style="stroke-width: 1.42 ;&st7;   " /><path d=" M  3594.90,   256.18  C  3592.40    256.18   3590.37    258.21   3590.37    260.71  " style="stroke-width: 1.42 ;&st7;   " /><path d=" M  3590.37,   260.71  C  3590.37    263.21   3592.40    265.24   3594.90    265.24  " style="stroke-width: 1.42 ;&st7;   " /><path d=" M  3594.90,   265.24  C  3597.40    265.24   3599.43    263.21   3599.43    260.71  " style="stroke-width: 1.42 ;&st7;   " /><path d=" M  3701.41,   329.26  C  3701.41    326.76   3699.39    324.73   3696.88    324.73  " style="stroke-width: 1.42 ;&st7;   " /><path d=" M  3696.88,   324.73  C  3694.38    324.73   3692.35    326.76   3692.35    329.26  " style="stroke-width: 1.42 ;&st7;   " /><path d=" M  3692.35,   329.26  C  3692.35    331.77   3694.38    333.80   3696.88    333.80  " style="stroke-width: 1.42 ;&st7;   " /><path d=" M  3696.88,   333.80  C  3699.39    333.80   3701.41    331.77   3701.41    329.26  " style="stroke-width: 1.42 ;&st7;   " /><text style="&st18;" transform="matrix(&st16;  3981.32  321.03 )">VG</text><text style="&st18;" transform="matrix(&st16;  3983.65  331.23 )">B</text><text style="&st18;" transform="matrix(&st16;  3974.07  331.23 )">74</text><text style="&st18;" transform="matrix(&st16;  3999.56  331.23 )">75</text><text style="&st18;" transform="matrix(&st17;  3982.14  380.78 )">L-Y</text><text style="&st18;" transform="matrix(&st16;  3981.32  425.85 )">VG</text><text style="&st18;" transform="matrix(&st16;  3979.65  468.9 )">5</text><text style="&st18;" transform="matrix(&st16;  3891.84  321.03 )">ETHW</text><text style="&st18;" transform="matrix(&st16;  3898.66  331.23 )">B</text><text style="&st18;" transform="matrix(&st16;  3889.08  331.23 )">97</text><text style="&st18;" transform="matrix(&st16;  3698.54  272.88 )">IGT1</text><text style="&st18;" transform="matrix(&st16;  3703.19  262.68 )">B</text><text style="&st18;" transform="matrix(&st16;  3693.61  262.68 )">40</text><text style="&st18;" transform="matrix(&st16;  3800.52  272.88 )">IGT4</text><text style="&st18;" transform="matrix(&st16;  3805.18  262.68 )">B</text><text style="&st18;" transform="matrix(&st16;  3795.6  262.68 )">34</text><text style="&st18;" transform="matrix(&st16;  3919.5  272.88 )">IGT6</text><text style="&st18;" transform="matrix(&st16;  3924.16  262.68 )">B</text><text style="&st18;" transform="matrix(&st16;  3914.58  262.68 )">36</text><text style="&st18;" transform="matrix(&st16;  3834.59  272.88 )">IGF1</text><text style="&st18;" transform="matrix(&st16;  3839.17  262.68 )">B</text><text style="&st18;" transform="matrix(&st16;  3826.49  262.68 )">104</text><text style="&st18;" transform="matrix(&st16;  3979.65  414.53 )">3</text><text style="&st18;" transform="matrix(&st16;  3826.68  468.9 )">4</text><text style="&st18;" transform="matrix(&st16;  3751.43  425.85 )">AIP</text><text style="&st18;" transform="matrix(&st17;  3752.68  401.95 )">L-R</text><text style="&st18;" transform="matrix(&st16;  3744.6  331.23 )">54</text><text style="&st18;" transform="matrix(&st16;  3754.07  331.23 )">A</text><text style="&st18;" transform="matrix(&st16;  3751.43  321.03 )">AIP</text><text style="&st18;" transform="matrix(&st17;  3778.17  492.16 )">B-W</text><text style="&st18;" transform="matrix(&st16;  3750.19  414.53 )">3</text><text style="&st18;" transform="matrix(&st16;  3778.13  457.01 )">+B</text><text style="&st18;" transform="matrix(&st16;  3775.68  468.9 )">5</text><text style="&st18;" transform="matrix(&st16;  3829.2  457.01 )">E2</text><text style="&st18;" transform="matrix(&st17;  3829.16  489.75 )">BR</text><text style="&st18;" transform="matrix(&st17;  3982.14  489.75 )">BR</text><text style="&st18;" transform="matrix(&st16;  3982.17  457.01 )">E2</text><text style="&st18;" transform="matrix(&st16;  3740.64  373.44 )">15</text><text style="&st18;" transform="matrix(&st17;  3752.68  347.67 )">Y</text><text style="&st18;" transform="matrix(&st17;  3693.19  347.55 )">L</text><text style="&st18;" transform="matrix(&st17;  3548.71  236.23 )">L-R</text><text style="&st18;" transform="matrix(&st17;  3506.22  236.31 )">L-B</text><text style="&st18;" transform="matrix(&st16;  3546.22  205.45 )">1</text><text style="&st18;" transform="matrix(&st16;  3546.22  159.57 )">2</text><text style="&st18;" transform="matrix(&st16;  3587.32  272.88 )">OE2-</text><text style="&st18;" transform="matrix(&st16;  3550.22  262.68 )">B</text><text style="&st18;" transform="matrix(&st16;  3540.64  262.68 )">50</text><text style="&st18;" transform="matrix(&st16;  3544.83  272.88 )">OE2+</text><text style="&st18;" transform="matrix(&st16;  3502.34  272.88 )">OE1-</text><text style="&st18;" transform="matrix(&st16;  3507.73  262.68 )">B</text><text style="&st18;" transform="matrix(&st17;  3568.52  200.15 )">D45</text><text style="&st18;" transform="matrix(&st16;  3592.71  262.68 )">B</text><text style="&st18;" transform="matrix(&st16;  3583.13  262.68 )">49</text><text style="&st18;" transform="matrix(&st17;  3591.2  232.82 )">L</text><text ewd:textID="24" style="&st18;" transform="matrix(&st17;  3575.62  200.16 )">Camshaft Timing <tspan dy="6.0" x="0 ">Oil Control Valve </tspan><tspan dy="6.0" x="0 ">(Bank 2 Exhaust Side)</tspan></text><text style="&st18;" transform="matrix(&st16;  3685.09  331.23 )">67</text><text style="&st18;" transform="matrix(&st16;  3694.69  331.23 )">B</text><text style="&st18;" transform="matrix(&st17;  3752.68  487.78 )">L</text><text style="&st18;" transform="matrix(&st17;  3803.67  492.16 )">W-B</text><text style="&st18;" transform="matrix(&st16;  3751.9  457.01 )">VC</text><text style="&st18;" transform="matrix(&st16;  3800.72  457.01 )">GND</text><text style="&st18;" transform="matrix(&st16;  3750.19  468.9 )">2</text><text style="&st18;" transform="matrix(&st16;  3801.18  468.9 )">1</text><text ewd:textID="16" style="&st18;" transform="matrix(&st16;  3769.96  408.57 )">Air Switching <tspan dy="6.0" x="0 ">Valve (Bank 1)</tspan></text><text style="&st18;" transform="matrix(&st16;  3769.96  401.46 )">D58</text><text style="&st18;" transform="matrix(&st17;  3994.58  89.67 )">D16</text><text style="&st18;" transform="matrix(&st17;  3892.6  89.67 )">D21</text><text style="&st18;" transform="matrix(&st17;  3773.62  89.67 )">D23</text><text style="&st18;" transform="matrix(&st17;  3671.63  89.67 )">D10</text><text style="&st18;" transform="matrix(&st16;  3954.15  94.96 )">2</text><text style="&st18;" transform="matrix(&st16;  3920.16  94.96 )">3</text><text style="&st18;" transform="matrix(&st16;  3835.17  94.96 )">2</text><text style="&st18;" transform="matrix(&st16;  3801.18  94.96 )">3</text><text style="&st18;" transform="matrix(&st17;  3837.66  232.45 )">G-B</text><text style="&st18;" transform="matrix(&st17;  3956.64  117.72 )">G-B</text><text style="&st18;" transform="matrix(&st17;  3922.65  114.23 )">G</text><text style="&st18;" transform="matrix(&st17;  3837.66  117.72 )">G-B</text><text style="&st18;" transform="matrix(&st17;  3803.67  117.33 )">L-B</text><text style="&st18;" transform="matrix(&st16;  3733.19  94.96 )">2</text><text style="&st18;" transform="matrix(&st17;  3701.69  117.45 )">B-Y</text><text style="&st18;" transform="matrix(&st16;  3857.57  159.57 )">19</text><text style="&st18;" transform="matrix(&st16;  3699.2  94.96 )">3</text><text ewd:textID="65" style="&st18;" transform="matrix(&st16;  3877.61  172.31 )">Junction <tspan dy="6.0" x="0 ">Connector</tspan></text><text style="&st18;" transform="matrix(&st16;  3877.61  165.2 )">D72</text><text style="&st18;" transform="matrix(&st17;  3922.65  228.96 )">G</text><text style="&st18;" transform="matrix(&st17;  3803.67  232.06 )">L-B</text><text style="&st18;" transform="matrix(&st17;  3701.69  232.18 )">B-Y</text><text style="&st18;" transform="matrix(&st16;  3832.07  159.57 )">20</text><text style="&st18;" transform="matrix(&st16;  3857.57  188.45 )">18</text><text style="&st18;" transform="matrix(&st16;  3823.57  168.07 )">21</text><text style="&st18;" transform="matrix(&st16;  3832.07  188.45 )">22</text><text style="&st18;" transform="matrix(&st16;  3834.59  83.07 )">IGF1</text><text style="&st18;" transform="matrix(&st16;  3800.52  83.07 )">IGT4</text><text style="&st18;" transform="matrix(&st16;  3953.57  83.07 )">IGF1</text><text style="&st18;" transform="matrix(&st16;  3919.5  83.07 )">IGT6</text><text style="&st18;" transform="matrix(&st16;  3732.61  83.07 )">IGF1</text><text style="&st18;" transform="matrix(&st16;  3698.54  83.07 )">IGT1</text><text ewd:textID="59" style="&st18;" transform="matrix(&st17;  3780.72  89.68 )">Ignition Coil <tspan dy="6.0" x="0 ">(No.4)</tspan></text><text ewd:textID="61" style="&st18;" transform="matrix(&st17;  3899.7  89.68 )">Ignition Coil <tspan dy="6.0" x="0 ">(No.6)</tspan></text><text ewd:textID="56" style="&st18;" transform="matrix(&st17;  3678.74  89.68 )">Ignition Coil <tspan dy="6.0" x="0 ">(No.1)</tspan></text><text style="&st18;" transform="matrix(&st17;  3735.68  117.72 )">G-B</text><text style="&st18;" transform="matrix(&st16;  3688.8  321.03 )">VCV1</text><text style="&st18;" transform="matrix(&st17;  3897.15  379.27 )">BR</text><text style="&st18;" transform="matrix(&st16;  3860.61  292.68 )">A24(A),D74(B)</text><text ewd:textID="37" style="&st18;" transform="matrix(&st16;  3860.62  299.79 )">Engine Control Module</text><text style="&st18;" transform="matrix(&st16;  3652.32  550.5 )">L</text><text style="&st18;" transform="matrix(&st16;  3601.33  550.5 )">L</text><text style="&st18;" transform="matrix(&st16;  3647.94  584.49 )">B-W</text><text style="&st18;" transform="matrix(&st16;  3596.94  584.49 )">B-W</text><text style="&st18;" transform="matrix(&st16;  3650.34  601.49 )">BR</text><text style="&st18;" transform="matrix(&st16;  3599.35  601.49 )">BR</text><text style="&st18;" transform="matrix(&st16;  3647.94  626.98 )">B-W</text><text style="&st18;" transform="matrix(&st16;  3596.94  626.98 )">B-W</text><text style="&st18;" transform="matrix(&st16;  3648.05  643.98 )">L-W</text><text style="&st18;" transform="matrix(&st16;  3597.06  643.98 )">L-W</text></svg>