﻿<?xml version="1.0" encoding="utf-8"?>
<!DOCTYPE svg PUBLIC "-//W3C//DTD SVG 1.0//EN" "http://www.w3.org/TR/2001/REC-SVG-20010904/DTD/svg10.dtd"[
	<!ENTITY ns_flows "http://ns.adobe.com/Flows/1.0/">
	<!ENTITY ns_svg "http://www.w3.org/2000/svg">
	<!ENTITY ns_xlink "http://www.w3.org/1999/xlink">
	<!ENTITY st0 "font-size:7px;font-family:'MS-PGothic';adobe-font-script:japanese;">
	<!ENTITY st1 "font-size:6px;font-family:'ArialMT';">
	<!-- White fill  -->
	<!ENTITY st2 "fill:#FFFFFF;stroke:#000000; stroke-width:1.41;stroke-linecap:round;stroke-linejoin:round;">
	<!-- Yellow fill  -->
	<!ENTITY st3 "fill:#FFFFCC;stroke:#FFFFCC; stroke-width:0.1;stroke-linecap:round;stroke-linejoin:round;">
	<!-- Gray fill  -->
	<!ENTITY st4 "fill:#CCCCCC;stroke:#CCCCCC; stroke-width:0.1;stroke-linecap:round;stroke-linejoin:round;">
	<!-- Light-blue fill -->
	<!ENTITY st5 "fill:#CCECF4;stroke:#000000; stroke-width:1.133;stroke-linecap:round;stroke-linejoin:round;">
	<!ENTITY st6 "fill:none;stroke-linecap:butt; stroke-linejoin:round;">
	<!ENTITY st7 "fill:none;stroke:#000000;stroke-linecap:round;stroke-linejoin:round;">
	<!ENTITY st8 "enable-background:new    ;">
	<!-- Black fill -->
	<!ENTITY st9 "fill:#000000;stroke:#000000; stroke-linecap:round;stroke-linejoin:round;">
	<!-- SRS note   -->
	<!ENTITY st10 "font-size:9px;font-family:'ArialMT';">
	<!ENTITY st11 "font-size:9px;font-family:'Svg Symbol';">
	<!ENTITY st12 "font-size:6px;font-family:'Svg Symbol';">
	<!ENTITY st13 "fill:none;stroke:#ff0000;stroke-linecap:round;stroke-linejoin:round;">
	<!-- Yellow fill  -->
	<!ENTITY st14 "fill:#FFFF00;stroke:#FFFF00; stroke-width:0.1;stroke-linecap:round;stroke-linejoin:round;">
	<!ENTITY st15 "font-size:6px;font-family:'MS-PGothic';adobe-font-script:japanese;">
	<!ENTITY st16 "1.00 0.00 0.00 1.00">
	<!ENTITY st17 "0.00 -1.00 1.00 0.00">
	<!ENTITY st18 "font-size:6px;font-family:'Arial';">
	<!ENTITY st19 "font-size:9px;font-family:'Arial';">
	<!ENTITY st20 "font-size:6px;font-family:'MS-PGothic','MS PGothic';adobe-font-script:japanese;">
	<!ENTITY st21 "font-size:7px;font-family:'MS-PGothic','MS PGothic';adobe-font-script:japanese;">
	<!ATTLIST svg
		xmlns:ewd CDATA #FIXED "http://shcl.co.jp/ewd"
		xmlns:a CDATA #FIXED "http://ns.adobe.com/AdobeSVGViewerExtensions/3.0/"
		ewd:ver CDATA #IMPLIED
	>
	<!ATTLIST a
		ewd:lineID CDATA #IMPLIED
		ewd:groupID CDATA #IMPLIED
		ewd:figtype CDATA #IMPLIED
		ewd:code CDATA #IMPLIED
		ewd:figID CDATA #IMPLIED
		ewd:pinNo CDATA #IMPLIED
		ewd:comment CDATA #IMPLIED >
	<!ATTLIST g
		ewd:lineID CDATA #IMPLIED
		ewd:groupID CDATA #IMPLIED
		ewd:figtype CDATA #IMPLIED
		ewd:code CDATA #IMPLIED
		ewd:figID CDATA #IMPLIED
		ewd:pinNo CDATA #IMPLIED
		ewd:comment CDATA #IMPLIED >
	<!ATTLIST text
		ewd:textID CDATA #IMPLIED >
	<!ATTLIST title
		ewd:textID CDATA #IMPLIED >
]>
<!-- Generator: Shintec Hozumi YS   -->
<svg onload="call_execInitLoadProc_svg('system')" style="overflow:visible;  enable-background:new 0 0 5694.757 710.000" viewBox="0 0 5694.757 710.000" height="710.000" width="5694.757" xml:space="preserve" ewd:ver="L2.1.2.9" xmlns="&ns_svg;" xmlns:a="http://ns.adobe.com/AdobeSVGViewerExtensions/3.0/" xmlns:ewd="http://shcl.co.jp/ewd" xmlns:xlink="&ns_xlink;">
<path d=" M 1461.76,  316.23  L 1529.74,  316.23 " style="stroke:#000000;stroke-width: 0.85 ;&st7;stroke-dasharray:3, 1.5;" /><path d=" M 1461.76,  341.73  L 1529.74,  341.73 " style="stroke:#000000;stroke-width: 0.85 ;&st7;stroke-dasharray:3, 1.5;" /><path d=" M 1461.76,  367.22  L 1529.74,  367.22 " style="stroke:#000000;stroke-width: 0.85 ;&st7;stroke-dasharray:3, 1.5;" /><path d=" M 1461.76,  418.22  L 1529.74,  418.22 " style="stroke:#000000;stroke-width: 0.85 ;&st7;stroke-dasharray:3, 1.5;" /><path d=" M 1461.76,  443.71  L 1529.74,  443.71 " style="stroke:#000000;stroke-width: 0.85 ;&st7;stroke-dasharray:3, 1.5;" /><path d=" M 1461.76,  392.72  L 1529.74,  392.72 " style="stroke:#000000;stroke-width: 0.85 ;&st7;stroke-dasharray:3, 1.5;" /><path d=" M 1461.76,  440.18  L 1456.78,  435.21 " style="stroke-width: 1.42 ;&st7; " /><path d=" M 1444.76,  447.24  L 1449.73,  452.21 " style="stroke-width: 1.42 ;&st7; " /><path d=" M 1456.78,  452.21  L 1461.76,  447.24 " style="stroke-width: 1.42 ;&st7; " /><path d=" M 1449.73,  435.21  L 1444.76,  440.18 " style="stroke-width: 1.42 ;&st7; " /><path d=" M 1461.76,  414.69  L 1456.78,  409.72 " style="stroke-width: 1.42 ;&st7; " /><path d=" M 1444.76,  421.75  L 1449.73,  426.71 " style="stroke-width: 1.42 ;&st7; " /><path d=" M 1456.78,  426.71  L 1461.76,  421.75 " style="stroke-width: 1.42 ;&st7; " /><path d=" M 1449.73,  409.72  L 1444.76,  414.69 " style="stroke-width: 1.42 ;&st7; " /><path d=" M 1461.76,  389.19  L 1456.78,  384.22 " style="stroke-width: 1.42 ;&st7; " /><path d=" M 1444.76,  396.25  L 1449.73,  401.22 " style="stroke-width: 1.42 ;&st7; " /><path d=" M 1456.78,  401.22  L 1461.76,  396.25 " style="stroke-width: 1.42 ;&st7; " /><path d=" M 1449.73,  384.22  L 1444.76,  389.19 " style="stroke-width: 1.42 ;&st7; " /><path d=" M 1461.76,  363.70  L 1456.78,  358.73 " style="stroke-width: 1.42 ;&st7; " /><path d=" M 1444.76,  370.75  L 1449.73,  375.72 " style="stroke-width: 1.42 ;&st7; " /><path d=" M 1456.78,  375.72  L 1461.76,  370.75 " style="stroke-width: 1.42 ;&st7; " /><path d=" M 1449.73,  358.73  L 1444.76,  363.70 " style="stroke-width: 1.42 ;&st7; " /><path d=" M 1461.76,  338.20  L 1456.78,  333.23 " style="stroke-width: 1.42 ;&st7; " /><path d=" M 1444.76,  345.26  L 1449.73,  350.23 " style="stroke-width: 1.42 ;&st7; " /><path d=" M 1456.78,  350.23  L 1461.76,  345.26 " style="stroke-width: 1.42 ;&st7; " /><path d=" M 1449.73,  333.23  L 1444.76,  338.20 " style="stroke-width: 1.42 ;&st7; " /><path d=" M 1461.76,  312.71  L 1456.78,  307.73 " style="stroke-width: 1.42 ;&st7; " /><path d=" M 1444.76,  319.76  L 1449.73,  324.73 " style="stroke-width: 1.42 ;&st7; " /><path d=" M 1456.78,  324.73  L 1461.76,  319.76 " style="stroke-width: 1.42 ;&st7; " /><path d=" M 1449.73,  307.73  L 1444.76,  312.71 " style="stroke-width: 1.42 ;&st7; " /><path d=" M 1249.29,  120.77  L 1257.79,  120.77 " style="stroke-width: 1.42 ;&st7; " /><path d=" M 1364.74,  248.24  L 1359.77,  253.22 " style="stroke-width: 1.42 ;&st7; " /><path d=" M 1371.80,  265.24  L 1376.77,  260.27 " style="stroke-width: 1.42 ;&st7; " /><path d=" M 1359.77,  260.27  L 1364.74,  265.24 " style="stroke-width: 1.42 ;&st7; " /><path d=" M 1376.77,  253.22  L 1371.80,  248.24 " style="stroke-width: 1.42 ;&st7; " /><path d=" M 1172.80,  439.46  L 1172.80,  443.71 " style="stroke-width: 1.42 ;&st7; " /><path d=" M 1215.30,  443.71  L 1215.30,  447.96 " style="stroke-width: 1.42 ;&st7; " /><path d=" M 1274.79,  474.18  L 1269.82,  469.21 " style="stroke-width: 1.42 ;&st7; " /><path d=" M 1257.79,  481.24  L 1262.76,  486.20 " style="stroke-width: 1.42 ;&st7; " /><path d=" M 1269.82,  486.20  L 1274.79,  481.24 " style="stroke-width: 1.42 ;&st7; " /><path d=" M 1262.76,  469.21  L 1257.79,  474.18 " style="stroke-width: 1.42 ;&st7; " /><path d=" M 1205.61,   68.77  L 1205.33,   69.24  L 1205.24,   69.77  L 1205.33,   70.31  L 1205.61,   70.78  L 1206.02,   71.12  L 1206.53,   71.31  L 1207.07,   71.31  L 1207.58,   71.12  L 1207.99,   70.78  L 1208.26,   70.31  L 1208.36,   69.77  L 1208.26,   69.24  L 1207.99,   68.77  L 1207.58,   68.43  L 1207.07,   68.24  L 1206.53,   68.24  L 1206.02,   68.43  L 1205.61,   68.77  L 1206.00,   69.48  L 1206.00,   70.07  L 1206.37,   70.51  L 1206.95,   70.61  L 1207.45,   70.32  L 1207.65,   69.77  L 1207.45,   69.23  L 1206.95,   68.94  L 1206.37,   69.04  L 1206.80,   69.77 " style="stroke-width: 0.85 ;&st7; " /><path d=" M 1045.32,  214.25  L 1045.32,  290.74  L 1130.31,  290.74  L 1130.31,  214.25  L 1045.32,  214.25 " style="stroke-width: 1.42 ;&st7; " /><path d=" M 1045.32,   61.28  L 1045.32,   86.77  L 1130.31,   86.77  L 1130.31,   61.28  L 1045.32,   61.28 " style="stroke-width: 1.42 ;&st7; " /><path d=" M 1045.32,   27.28  L 1045.32,   52.78  L 1130.31,   52.78  L 1130.31,   27.28  L 1045.32,   27.28 " style="stroke-width: 1.42 ;&st7; " /><path d=" M 1341.36,  642.01  L 1344.19,  642.01 " style="stroke-width: 0.85 ;&st7; " /><path d=" M 1339.94,  639.18  L 1345.61,  639.18 " style="stroke-width: 0.85 ;&st7; " /><path d=" M 1461.76,  503.20  L 1461.76,  579.69  L 1546.74,  579.69  L 1546.74,  503.20  L 1461.76,  503.20 " style="stroke-width: 1.42 ;&st7; " /><path d=" M 1342.78,  629.26  L 1342.78,  633.51 " style="stroke-width: 0.85 ;&st7; " /><path d=" M 1239.38,  327.56  L 1242.21,  327.56 " style="stroke-width: 0.85 ;&st7; " /><path d=" M 1237.96,  324.73  L 1243.63,  324.73 " style="stroke-width: 0.85 ;&st7; " /><path d=" M 1236.54,  321.90  L 1245.04,  321.90 " style="stroke-width: 0.85 ;&st7; " /><path d=" M 1232.29,  319.07  L 1249.29,  319.07 " style="stroke-width: 0.85 ;&st7; " /><path d=" M 1240.79,  314.82  L 1240.79,  319.07 " style="stroke-width: 0.85 ;&st7; " /><path d=" M 1198.30,   35.78  L 1206.80,   35.78  L 1206.80,   69.77 " style="stroke-width: 0.85 ;&st7; " /><path d=" M 1198.30,   69.77  L 1215.30,   69.77 " style="stroke-width: 0.85 ;&st7; " /><path d=" M 1338.53,  636.35  L 1347.02,  636.35 " style="stroke-width: 0.85 ;&st7; " /><path d=" M 1198.30,   27.28  L 1198.30,   78.27  L 1215.30,   78.27  L 1215.30,   27.28  L 1198.30,   27.28 " style="stroke-width: 1.42 ;&st7; " /><path d=" M 1262.04,  115.10  L 1257.79,  119.35  L 1253.54,  115.10 " style="stroke-width: 1.42 ;&st7; " /><path d=" M 1253.54,  111.70  L 1257.79,  115.95  L 1262.04,  111.70 " style="stroke-width: 1.42 ;&st7; " /><path d=" M 1257.79,  171.76  L 1257.79,  197.25 " style="stroke-width: 0.85 ;&st7; " /><path d=" M 1249.29,  188.75  L 1266.29,  188.75 " style="stroke-width: 1.13 ;&st7;stroke-dasharray:3, 1.5;" /><path d=" M 1249.29,  180.26  L 1266.29,  180.26 " style="stroke-width: 1.13 ;&st7;stroke-dasharray:3, 1.5;" /><path d=" M 1249.29,  171.76  L 1249.29,  197.25  L 1266.29,  197.25  L 1266.29,  171.76  L 1249.29,  171.76 " style="stroke-width: 1.42 ;&st7; " /><path d=" M 1334.28,  633.51  L 1351.27,  633.51 " style="stroke-width: 0.85 ;&st7; " /><path d=" M 1461.76,  205.75  L 1461.76,  239.75  L 1546.74,  239.75  L 1546.74,  205.75  L 1461.76,  205.75 " style="stroke-width: 1.42 ;&st7; " /><path d=" M 1461.76,  248.24  L 1461.76,  282.24  L 1546.74,  282.24  L 1546.74,  248.24  L 1461.76,  248.24 " style="stroke-width: 1.42 ;&st7; " /><path d=" M 1181.87,  447.96  L 1177.62,  443.71  L 1181.87,  439.46 " style="stroke-width: 1.42 ;&st7; " /><path d=" M 1178.47,  447.96  L 1174.22,  443.71  L 1178.47,  439.46 " style="stroke-width: 1.42 ;&st7; " /><path d=" M 1209.63,  439.46  L 1213.88,  443.71  L 1209.63,  447.96 " style="stroke-width: 1.42 ;&st7; " /><path d=" M 1206.23,  439.46  L 1210.48,  443.71  L 1206.23,  447.96 " style="stroke-width: 1.42 ;&st7; " /><path d=" M 1376.77,  316.23  L 1368.27,  316.23  L 1368.27,  443.71 " style="stroke-width: 0.85 ;&st7; " /><path d=" M 1359.77,  443.71  L 1376.77,  443.71 " style="stroke-width: 0.85 ;&st7; " /><path d=" M 1368.27,  341.73  L 1376.77,  341.73 " style="stroke-width: 0.85 ;&st7; " /><path d=" M 1368.27,  367.22  L 1376.77,  367.22 " style="stroke-width: 0.85 ;&st7; " /><path d=" M 1368.27,  392.72  L 1376.77,  392.72 " style="stroke-width: 0.85 ;&st7; " /><path d=" M 1368.27,  418.22  L 1376.77,  418.22 " style="stroke-width: 0.85 ;&st7; " /><path d=" M 1367.08,  340.73  L 1366.81,  341.20  L 1366.71,  341.73  L 1366.81,  342.26  L 1367.08,  342.73  L 1367.49,  343.08  L 1368.00,  343.26  L 1368.54,  343.26  L 1369.05,  343.08  L 1369.46,  342.73  L 1369.74,  342.26  L 1369.83,  341.73  L 1369.74,  341.20  L 1369.46,  340.73  L 1369.05,  340.38  L 1368.54,  340.19  L 1368.00,  340.19  L 1367.49,  340.38  L 1367.08,  340.73  L 1367.47,  341.44  L 1367.47,  342.02  L 1367.85,  342.46  L 1368.42,  342.56  L 1368.92,  342.28  L 1369.12,  341.73  L 1368.92,  341.18  L 1368.42,  340.89  L 1367.85,  340.99  L 1368.27,  341.73 " style="stroke-width: 0.85 ;&st7; " /><path d=" M 1367.08,  366.22  L 1366.81,  366.69  L 1366.71,  367.22  L 1366.81,  367.76  L 1367.08,  368.23  L 1367.49,  368.57  L 1368.00,  368.76  L 1368.54,  368.76  L 1369.05,  368.57  L 1369.46,  368.23  L 1369.74,  367.76  L 1369.83,  367.22  L 1369.74,  366.69  L 1369.46,  366.22  L 1369.05,  365.88  L 1368.54,  365.69  L 1368.00,  365.69  L 1367.49,  365.88  L 1367.08,  366.22  L 1367.47,  366.93  L 1367.47,  367.52  L 1367.85,  367.96  L 1368.42,  368.06  L 1368.92,  367.77  L 1369.12,  367.22  L 1368.92,  366.68  L 1368.42,  366.39  L 1367.85,  366.49  L 1368.27,  367.22 " style="stroke-width: 0.85 ;&st7; " /><path d=" M 1367.08,  391.72  L 1366.81,  392.19  L 1366.71,  392.72  L 1366.81,  393.25  L 1367.08,  393.72  L 1367.49,  394.07  L 1368.00,  394.26  L 1368.54,  394.26  L 1369.05,  394.07  L 1369.46,  393.72  L 1369.74,  393.25  L 1369.83,  392.72  L 1369.74,  392.19  L 1369.46,  391.72  L 1369.05,  391.37  L 1368.54,  391.18  L 1368.00,  391.18  L 1367.49,  391.37  L 1367.08,  391.72  L 1367.47,  392.43  L 1367.47,  393.01  L 1367.85,  393.46  L 1368.42,  393.56  L 1368.92,  393.27  L 1369.12,  392.72  L 1368.92,  392.17  L 1368.42,  391.88  L 1367.85,  391.98  L 1368.27,  392.72 " style="stroke-width: 0.85 ;&st7; " /><path d=" M 1367.08,  417.21  L 1366.81,  417.68  L 1366.71,  418.22  L 1366.81,  418.75  L 1367.08,  419.22  L 1367.49,  419.56  L 1368.00,  419.75  L 1368.54,  419.75  L 1369.05,  419.56  L 1369.46,  419.22  L 1369.74,  418.75  L 1369.83,  418.22  L 1369.74,  417.68  L 1369.46,  417.21  L 1369.05,  416.87  L 1368.54,  416.68  L 1368.00,  416.68  L 1367.49,  416.87  L 1367.08,  417.21  L 1367.47,  417.92  L 1367.47,  418.51  L 1367.85,  418.95  L 1368.42,  419.05  L 1368.92,  418.76  L 1369.12,  418.22  L 1368.92,  417.67  L 1368.42,  417.38  L 1367.85,  417.48  L 1368.27,  418.22 " style="stroke-width: 0.85 ;&st7; " /><path d=" M 1367.08,  442.71  L 1366.81,  443.18  L 1366.71,  443.71  L 1366.81,  444.24  L 1367.08,  444.71  L 1367.49,  445.06  L 1368.00,  445.25  L 1368.54,  445.25  L 1369.05,  445.06  L 1369.46,  444.71  L 1369.74,  444.24  L 1369.83,  443.71  L 1369.74,  443.18  L 1369.46,  442.71  L 1369.05,  442.36  L 1368.54,  442.18  L 1368.00,  442.18  L 1367.49,  442.36  L 1367.08,  442.71  L 1367.47,  443.42  L 1367.47,  444.00  L 1367.85,  444.45  L 1368.42,  444.55  L 1368.92,  444.26  L 1369.12,  443.71  L 1368.92,  443.16  L 1368.42,  442.88  L 1367.85,  442.97  L 1368.27,  443.71 " style="stroke-width: 0.85 ;&st7; " /><path d=" M 1359.77,  307.73  L 1359.77,  452.21  L 1376.77,  452.21  L 1376.77,  307.73  L 1359.77,  307.73 " style="stroke-width: 1.42 ;&st7; " /><path d=" M 1045.32,  435.21  L 1045.32,  460.71  L 1130.31,  460.71  L 1130.31,  435.21  L 1045.32,  435.21 " style="stroke-width: 1.42 ;&st7; " /><path d=" M 1045.32,  469.21  L 1045.32,  494.70  L 1130.31,  494.70  L 1130.31,  469.21  L 1045.32,  469.21 " style="stroke-width: 1.42 ;&st7; " /><path d=" M 1262.32,  201.78  C 1262.32   199.28  1260.29   197.25  1257.79   197.25 " style="stroke-width: 1.42 ;&st7; " /><path d=" M 1257.79,  197.25  C 1255.29   197.25  1253.26   199.28  1253.26   201.78 " style="stroke-width: 1.42 ;&st7; " /><path d=" M 1253.26,  201.78  C 1253.26   204.29  1255.29   206.32  1257.79   206.32 " style="stroke-width: 1.42 ;&st7; " /><path d=" M 1257.79,  206.32  C 1260.29   206.32  1262.32   204.29  1262.32   201.78 " style="stroke-width: 1.42 ;&st7; " /><path d=" M 1262.32,  167.22  C 1262.32   164.72  1260.29   162.69  1257.79   162.69 " style="stroke-width: 1.42 ;&st7; " /><path d=" M 1257.79,  162.69  C 1255.29   162.69  1253.26   164.72  1253.26   167.22 " style="stroke-width: 1.42 ;&st7; " /><path d=" M 1253.26,  167.22  C 1253.26   169.73  1255.29   171.76  1257.79   171.76 " style="stroke-width: 1.42 ;&st7; " /><path d=" M 1257.79,  171.76  C 1260.29   171.76  1262.32   169.73  1262.32   167.22 " style="stroke-width: 1.42 ;&st7; " /><text style="&st18;" transform="matrix(&st16;  1115.82  275.71 )">(E1)</text><text style="&st18;" transform="matrix(&st16;  1047.05  223.28 )">D74</text><text ewd:textID="64" style="&st18;" transform="matrix(&st16;  1047.05  230.38 )">Engine Control <tspan dy="6" x="0">Module</tspan></text><text style="&st18;" transform="matrix(&st16;  1106.08  224.72 )">(ME01)</text><text style="&st18;" transform="matrix(&st17;  1254.09  100.07 )">BR</text><text ewd:textID="106" style="&st18;" transform="matrix(&st16;  1195.77  92.99 )">Junction <tspan dy="6" x="0">Connector</tspan></text><text style="&st18;" transform="matrix(&st16;  1151.07  32.08 )">LG</text><text style="&st18;" transform="matrix(&st16;  1195.77  85.88 )">J65</text><text style="&st18;" transform="matrix(&st16;  1150.58  66.08 )">GR</text><text style="&st18;" transform="matrix(&st16;  1148.11  219.05 )">W-B</text><text style="&st18;" transform="matrix(&st16;  1151.0  270.04 )">BR</text><text style="&st18;" transform="matrix(&st16;  1047.05  70.3 )">J17</text><text style="&st18;" transform="matrix(&st16;  1047.05  77.41 )">DLC3</text><text style="&st18;" transform="matrix(&st16;  1113.49  71.74 )">(SG)</text><text style="&st18;" transform="matrix(&st16;  1047.05  36.31 )">J45</text><text style="&st18;" transform="matrix(&st16;  1411.56  508.0 )">W-B</text><text style="&st18;" transform="matrix(&st16;  1162.33  436.47 )">8</text><text style="&st18;" transform="matrix(&st16;  1220.23  436.47 )">10</text><text style="&st18;" transform="matrix(&st16;  1140.73  440.01 )">B</text><text style="&st18;" transform="matrix(&st16;  1186.35  440.01 )">W-B</text><text style="&st18;" transform="matrix(&st16;  1241.59  440.01 )">W-B</text><text style="&st18;" transform="matrix(&st16;  1186.35  474.01 )">W-B</text><text style="&st18;" transform="matrix(&st17;  1262.59  536.4 )">W-B</text><text ewd:textID="1" style="&st18;" transform="matrix(&st16;  1479.75  312.54 )">(Shielded)</text><text ewd:textID="1" style="&st18;" transform="matrix(&st16;  1479.75  338.03 )">(Shielded)</text><text ewd:textID="1" style="&st18;" transform="matrix(&st16;  1479.75  363.53 )">(Shielded)</text><text ewd:textID="1" style="&st18;" transform="matrix(&st16;  1479.75  389.02 )">(Shielded)</text><text ewd:textID="1" style="&st18;" transform="matrix(&st16;  1479.75  414.52 )">(Shielded)</text><text ewd:textID="1" style="&st18;" transform="matrix(&st16;  1479.75  440.01 )">(Shielded)</text><text style="&st18;" transform="matrix(&st16;  1379.6  312.54 )">16</text><text style="&st18;" transform="matrix(&st16;  1379.6  338.04 )">17</text><text style="&st18;" transform="matrix(&st16;  1379.6  363.53 )">18</text><text style="&st18;" transform="matrix(&st16;  1379.6  389.03 )">19</text><text style="&st18;" transform="matrix(&st16;  1379.6  414.53 )">20</text><text style="&st18;" transform="matrix(&st16;  1379.6  440.02 )">22</text><text style="&st18;" transform="matrix(&st16;  1414.46  312.54 )">BR</text><text style="&st18;" transform="matrix(&st16;  1414.46  338.03 )">BR</text><text style="&st18;" transform="matrix(&st16;  1414.46  363.53 )">BR</text><text style="&st18;" transform="matrix(&st16;  1414.46  389.02 )">BR</text><text style="&st18;" transform="matrix(&st16;  1414.46  414.52 )">BR</text><text style="&st18;" transform="matrix(&st16;  1414.46  440.01 )">BR</text><text style="&st18;" transform="matrix(&st16;  1349.8  440.02 )">21</text><text ewd:textID="143" style="&st18;" transform="matrix(&st16;  1047.05  43.41 )">Spiral Cable</text><text style="&st18;" transform="matrix(&st16;  1109.11  37.75 )">(ECC)</text><text style="&st18;" transform="matrix(&st17;  1254.09  151.06 )">BR</text><text style="&st18;" transform="matrix(&st17;  1254.09  236.05 )">BR</text><text ewd:textID="64" style="&st18;" transform="matrix(&st16;  1488.98  519.33 )">Engine Control <tspan dy="6" x="0">Module</tspan></text><text style="&st18;" transform="matrix(&st16;  1488.98  512.23 )">D74</text><text style="&st18;" transform="matrix(&st16;  1463.74  513.67 )">(E05)</text><text style="&st18;" transform="matrix(&st16;  1463.74  564.66 )">(E03)</text><text style="&st18;" transform="matrix(&st16;  1411.56  558.99 )">W-B</text><text style="&st18;" transform="matrix(&st16;  1463.74  539.16 )">(E04)</text><text ewd:textID="106" style="&st18;" transform="matrix(&st17;  1281.01  199.78 )">Junction <tspan dy="6" x="0">Connector</tspan></text><text style="&st18;" transform="matrix(&st17;  1273.9  199.78 )">A45(A),D73(B)</text><text style="&st18;" transform="matrix(&st16;  1242.98  126.98 )">9</text><text style="&st18;" transform="matrix(&st16;  1243.73  203.75 )">13</text><text style="&st18;" transform="matrix(&st16;  1255.46  203.75 )">B</text><text style="&st18;" transform="matrix(&st16;  1242.96  169.19 )">22</text><text style="&st18;" transform="matrix(&st16;  1255.46  169.19 )">A</text><text style="&st18;" transform="matrix(&st16;  1151.0  244.55 )">BR</text><text ewd:textID="39" style="&st18;" transform="matrix(&st16;  1488.98  221.88 )">Air Injection <tspan dy="6" x="0">Control Driver </tspan><tspan dy="6" x="0">(Bank 1)</tspan></text><text style="&st18;" transform="matrix(&st16;  1488.98  214.78 )">D50</text><text style="&st18;" transform="matrix(&st16;  1463.74  216.22 )">(E)</text><text style="&st18;" transform="matrix(&st16;  1463.74  258.71 )">(E2)</text><text style="&st18;" transform="matrix(&st16;  1488.98  257.27 )">D54</text><text ewd:textID="40" style="&st18;" transform="matrix(&st16;  1488.98  264.38 )">Air Injection <tspan dy="6" x="0">Control Driver </tspan><tspan dy="6" x="0">(Bank 2)</tspan></text><text style="&st18;" transform="matrix(&st16;  1411.56  253.05 )">W-B</text><text style="&st18;" transform="matrix(&st16;  1411.56  210.55 )">W-B</text><text style="&st18;" transform="matrix(&st16;  1111.09  250.21 )">(E02)</text><text style="&st18;" transform="matrix(&st16;  1318.08  253.05 )">W-B</text><text style="&st18;" transform="matrix(&st16;  1411.56  533.5 )">W-B</text><text style="&st18;" transform="matrix(&st17;  1305.09  536.4 )">W-B</text><text style="&st18;" transform="matrix(&st16;  1188.33  66.08 )">12</text><text style="&st18;" transform="matrix(&st16;  1188.33  32.09 )">14</text><text style="&st18;" transform="matrix(&st16;  1218.13  66.08 )">13</text><text ewd:textID="106" style="&st18;" transform="matrix(&st17;  1356.08  412.24 )">Junction Connector</text><text style="&st18;" transform="matrix(&st17;  1348.97  412.24 )">D71</text><text style="&st18;" transform="matrix(&st17;  1322.08  533.5 )">BR</text><text style="&st18;" transform="matrix(&st16;  1047.05  444.24 )">R12</text><text ewd:textID="54" style="&st18;" transform="matrix(&st16;  1047.05  451.35 )">Canister Pump <tspan dy="6" x="0">Module</tspan></text><text style="&st18;" transform="matrix(&st16;  1102.47  445.68 )">(MGND)</text><text style="&st18;" transform="matrix(&st16;  1047.05  478.23 )">D74</text><text ewd:textID="64" style="&st18;" transform="matrix(&st16;  1047.05  485.34 )">Engine Control <tspan dy="6" x="0">Module</tspan></text><text style="&st18;" transform="matrix(&st16;  1111.87  479.67 )">(E01)</text><text style="&st18;" transform="matrix(&st16;  1059.99  652.48 )">B</text><text style="&st18;" transform="matrix(&st16;  1009.0  652.48 )">B</text></svg>