﻿<?xml version="1.0" encoding="utf-8"?>
<!DOCTYPE svg PUBLIC "-//W3C//DTD SVG 1.0//EN" "http://www.w3.org/TR/2001/REC-SVG-20010904/DTD/svg10.dtd"[
	<!ENTITY ns_flows "http://ns.adobe.com/Flows/1.0/">
	<!ENTITY ns_svg "http://www.w3.org/2000/svg">
	<!ENTITY ns_xlink "http://www.w3.org/1999/xlink">
	<!ENTITY st0 "font-size:7px;font-family:'MS-PGothic';adobe-font-script:japanese;">
	<!ENTITY st1 "font-size:6px;font-family:'ArialMT';">
	<!-- White fill  -->
	<!ENTITY st2 "fill:#FFFFFF;stroke:#000000; stroke-width:1.41;stroke-linecap:round;stroke-linejoin:round;">
	<!-- Yellow fill  -->
	<!ENTITY st3 "fill:#FFFFCC;stroke:#FFFFCC; stroke-width:0.1;stroke-linecap:round;stroke-linejoin:round;">
	<!-- Gray fill  -->
	<!ENTITY st4 "fill:#CCCCCC;stroke:#CCCCCC; stroke-width:0.1;stroke-linecap:round;stroke-linejoin:round;">
	<!-- Light-blue fill -->
	<!ENTITY st5 "fill:#CCECF4;stroke:#000000; stroke-width:1.133;stroke-linecap:round;stroke-linejoin:round;">
	<!ENTITY st6 "fill:none;stroke-linecap:butt; stroke-linejoin:round;">
	<!ENTITY st7 "fill:none;stroke:#000000;stroke-linecap:round;stroke-linejoin:round;">
	<!ENTITY st8 "enable-background:new    ;">
	<!-- Black fill -->
	<!ENTITY st9 "fill:#000000;stroke:#000000; stroke-linecap:round;stroke-linejoin:round;">
	<!-- SRS note   -->
	<!ENTITY st10 "font-size:9px;font-family:'ArialMT';">
	<!ENTITY st11 "font-size:9px;font-family:'Svg Symbol';">
	<!ENTITY st12 "font-size:6px;font-family:'Svg Symbol';">
	<!ENTITY st13 "fill:none;stroke:#ff0000;stroke-linecap:round;stroke-linejoin:round;">
	<!-- Yellow fill  -->
	<!ENTITY st14 "fill:#FFFF00;stroke:#FFFF00; stroke-width:0.1;stroke-linecap:round;stroke-linejoin:round;">
	<!ENTITY st15 "font-size:6px;font-family:'MS-PGothic';adobe-font-script:japanese;">
	<!ENTITY st16 "1.00 0.00 0.00 1.00">
	<!ENTITY st17 "0.00 -1.00 1.00 0.00">
	<!ENTITY st18 "font-size:6px;font-family:'Arial';">
	<!ENTITY st19 "font-size:9px;font-family:'Arial';">
	<!ENTITY st20 "font-size:6px;font-family:'MS-PGothic','MS PGothic';adobe-font-script:japanese;">
	<!ENTITY st21 "font-size:7px;font-family:'MS-PGothic','MS PGothic';adobe-font-script:japanese;">
	<!ATTLIST svg
		xmlns:ewd CDATA #FIXED "http://shcl.co.jp/ewd"
		xmlns:a CDATA #FIXED "http://ns.adobe.com/AdobeSVGViewerExtensions/3.0/"
		ewd:ver CDATA #IMPLIED
	>
	<!ATTLIST a
		ewd:lineID CDATA #IMPLIED
		ewd:groupID CDATA #IMPLIED
		ewd:figtype CDATA #IMPLIED
		ewd:code CDATA #IMPLIED
		ewd:figID CDATA #IMPLIED
		ewd:pinNo CDATA #IMPLIED
		ewd:comment CDATA #IMPLIED >
	<!ATTLIST g
		ewd:lineID CDATA #IMPLIED
		ewd:groupID CDATA #IMPLIED
		ewd:figtype CDATA #IMPLIED
		ewd:code CDATA #IMPLIED
		ewd:figID CDATA #IMPLIED
		ewd:pinNo CDATA #IMPLIED
		ewd:comment CDATA #IMPLIED >
	<!ATTLIST text
		ewd:textID CDATA #IMPLIED >
	<!ATTLIST title
		ewd:textID CDATA #IMPLIED >
]>
<!-- Generator: Shintec Hozumi YS   -->
<svg onload="call_execInitLoadProc_svg('system')" style="overflow:visible;  enable-background:new 0 0 2541.784 710.000" viewBox="0 0 2541.784 710.000" height="710.000" width="2541.784" xml:space="preserve" ewd:ver="L2.1.2.9" xmlns="&ns_svg;" xmlns:a="http://ns.adobe.com/AdobeSVGViewerExtensions/3.0/" xmlns:ewd="http://shcl.co.jp/ewd" xmlns:xlink="&ns_xlink;">
<path d=" M  2252.12,   210.00  L  2252.12,   218.50  " style="stroke-width: 0.85 ;&st7;  " /><path d=" M  2230.88,   239.75  L  2222.38,   239.75  " style="stroke-width: 0.85 ;&st7;  " /><path d=" M  2171.39,   239.75  L  2162.89,   239.75  " style="stroke-width: 0.85 ;&st7;  " /><path d=" M  2167.14,    69.77  L  2167.14,    95.27  " style="stroke-width: 0.85 ;&st7;  " /><path d=" M  2169.26,    95.27  L  2165.01,    95.27  " style="stroke-width: 1.42 ;&st7;  " /><path d=" M  2169.26,   103.77  L  2165.01,   103.77  " style="stroke-width: 1.42 ;&st7;  " /><path d=" M  2175.64,   146.26  L  2167.14,   146.26  " style="stroke-width: 1.42 ;&st7;  " /><path d=" M  2226.63,    69.77  L  2226.63,    95.27  " style="stroke-width: 0.85 ;&st7;  " /><path d=" M  2228.75,    95.27  L  2224.50,    95.27  " style="stroke-width: 1.42 ;&st7;  " /><path d=" M  2228.75,   103.77  L  2224.50,   103.77  " style="stroke-width: 1.42 ;&st7;  " /><path d=" M  2235.13,   146.26  L  2226.63,   146.26  " style="stroke-width: 1.42 ;&st7;  " /><path d=" M  2447.59,   255.33  L  2447.59,   248.24  L  2473.09,   248.24  " style="stroke-width: 0.85 ;&st7;  " /><path d=" M  2446.17,   268.07  L  2449.01,   268.07  " style="stroke-width: 0.85 ;&st7;  " /><path d=" M  2444.76,   265.24  L  2450.42,   265.24  " style="stroke-width: 0.85 ;&st7;  " /><path d=" M  2443.34,   262.41  L  2451.84,   262.41  " style="stroke-width: 0.85 ;&st7;  " /><path d=" M  2439.09,   259.58  L  2456.09,   259.58  " style="stroke-width: 0.85 ;&st7;  " /><path d=" M  2447.59,   255.33  L  2447.59,   259.58  " style="stroke-width: 0.85 ;&st7;  " /><path d=" M  2490.08,   282.24  L  2490.08,   265.24  " style="stroke-width: 0.85 ;&st7;  " /><path d=" M  2473.09,   299.24  L  2507.08,   299.24  L  2507.08,   282.24  L  2473.09,   282.24  L  2473.09,   299.24  " style="stroke-width: 1.42 ;&st7;  " /><path d=" M  2490.08,   299.24  L  2490.08,   316.23  " style="stroke-width: 0.85 ;&st7;  " /><path d=" M  2218.13,   494.70  L  2235.13,   494.70  L  2235.13,   511.70  L  2218.13,   511.70  L  2218.13,   494.70  " style="stroke-width: 1.42 ;&st7;  " /><path d=" M  2226.63,   494.70  L  2226.63,   511.70  " style="stroke-width: 0.85 ;&st7;  " /><path d=" M  2230.88,   151.93  L  2226.63,   147.68  L  2222.38,   151.93  " style="stroke-width: 1.42 ;&st7;  " /><path d=" M  2230.88,   155.33  L  2226.63,   151.08  L  2222.38,   155.33  " style="stroke-width: 1.42 ;&st7;  " /><path d=" M  2213.88,    35.78  L  2213.88,    78.27  L  2239.37,    78.27  L  2239.37,    35.78  L  2213.88,    35.78  " style="stroke-width: 1.42 ;&st7;  " /><path d=" M  2226.63,    90.37  L  2223.79,    87.54  L  2223.79,    91.79  L  2226.63,    94.62  L  2229.46,    91.79  L  2229.46,    87.54  L  2226.63,    90.37  " style="stroke-width: 0.28 ;&st9;  " /><path d=" M  2225.21,   710.00  L  2228.04,   710.00  " style="stroke-width: 0.85 ;&st7;  " /><path d=" M  2223.79,   707.17  L  2229.46,   707.17  " style="stroke-width: 0.85 ;&st7;  " /><path d=" M  2222.38,   704.33  L  2230.88,   704.33  " style="stroke-width: 0.85 ;&st7;  " /><path d=" M  2218.13,   701.50  L  2235.13,   701.50  " style="stroke-width: 0.85 ;&st7;  " /><path d=" M  2226.63,   697.25  L  2226.63,   701.50  " style="stroke-width: 0.85 ;&st7;  " /><path d=" M  2171.39,   151.93  L  2167.14,   147.68  L  2162.89,   151.93  " style="stroke-width: 1.42 ;&st7;  " /><path d=" M  2171.39,   155.33  L  2167.14,   151.08  L  2162.89,   155.33  " style="stroke-width: 1.42 ;&st7;  " /><path d=" M  2154.39,    35.78  L  2154.39,    78.27  L  2179.88,    78.27  L  2179.88,    35.78  L  2154.39,    35.78  " style="stroke-width: 1.42 ;&st7;  " /><path d=" M  2167.14,    90.37  L  2164.30,    87.54  L  2164.30,    91.79  L  2167.14,    94.62  L  2169.97,    91.79  L  2169.97,    87.54  L  2167.14,    90.37  " style="stroke-width: 0.28 ;&st9;  " /><path d=" M  2141.64,   197.25  L  2141.64,   418.22  L  2541.07,   418.22  L  2541.07,   197.25  L  2141.64,   197.25  " style="stroke-width: 1.42 ;&st7;  " /><path d=" M  2226.63,   214.25  L  2354.11,   214.25  L  2354.11,   282.24  " style="stroke-width: 0.85 ;&st7;  " /><path d=" M  2447.59,   384.22  L  2498.58,   384.22  L  2498.58,   367.22  L  2447.59,   367.22  L  2447.59,   384.22  " style="stroke-width: 1.42 ;&st7;  " /><path d=" M  2456.09,   384.22  L  2456.09,   418.22  " style="stroke-width: 0.85 ;&st7;  " /><path d=" M  2490.08,   384.22  L  2490.08,   418.22  " style="stroke-width: 0.85 ;&st7;  " /><path d=" M  2490.08,   367.22  L  2490.08,   350.23  " style="stroke-width: 0.85 ;&st7;  " /><path d=" M  2456.09,   367.22  L  2456.09,   350.23  " style="stroke-width: 0.85 ;&st7;  " /><path d=" M  2209.63,   290.74  L  2243.62,   290.74  L  2243.62,   273.74  L  2209.63,   273.74  L  2209.63,   290.74  " style="stroke-width: 1.42 ;&st7;  " /><path d=" M  2303.11,   282.24  L  2303.11,   256.74  L  2226.63,   256.74  " style="stroke-width: 0.85 ;&st7;  " /><path d=" M  2294.62,   350.23  L  2362.60,   350.23  L  2362.60,   316.23  L  2294.62,   316.23  L  2294.62,   350.23  " style="stroke-width: 1.42 ;&st7;  " /><path d=" M  2294.62,   299.24  L  2362.60,   299.24  L  2362.60,   282.24  L  2294.62,   282.24  L  2294.62,   299.24  " style="stroke-width: 1.42 ;&st7;  " /><path d=" M  2362.60,   341.73  L  2379.60,   341.73  " style="stroke-width: 0.85 ;&st7;  " /><path d=" M  2379.60,   333.23  L  2362.60,   333.23  " style="stroke-width: 0.85 ;&st7;  " /><path d=" M  2354.11,   299.24  L  2354.11,   316.23  " style="stroke-width: 0.85 ;&st7;  " /><path d=" M  2303.11,   316.23  L  2303.11,   299.24  " style="stroke-width: 0.85 ;&st7;  " /><path d=" M  2328.61,   316.23  L  2328.61,   299.24  " style="stroke-width: 0.85 ;&st7;  " /><path d=" M  2362.60,   324.73  L  2379.60,   324.73  " style="stroke-width: 0.85 ;&st7;  " /><path d=" M  2167.14,   197.25  L  2167.14,   256.74  L  2226.63,   256.74  " style="stroke-width: 0.85 ;&st7;  " /><path d=" M  2167.14,   239.75  L  2161.47,   231.25  L  2172.80,   231.25  L  2167.14,   239.75  " style="stroke-width: 0.28 ;&st9;  " /><path d=" M  2226.63,   239.75  L  2220.96,   231.25  L  2232.29,   231.25  L  2226.63,   239.75  " style="stroke-width: 0.28 ;&st9;  " /><path d=" M  2226.63,   273.74  L  2226.63,   197.25  " style="stroke-width: 0.85 ;&st7;  " /><path d=" M  2243.62,   282.24  L  2277.62,   282.24  L  2277.62,   375.72  L  2447.59,   375.72  " style="stroke-width: 0.85 ;&st7;  " /><path d=" M  2422.09,   375.72  L  2422.09,   350.23  " style="stroke-width: 0.85 ;&st7;  " /><path d=" M  2225.43,   213.25  L  2225.16,   213.72  L  2225.07,   214.25  L  2225.16,   214.78  L  2225.43,   215.25  L  2225.85,   215.60  L  2226.36,   215.79  L  2226.90,   215.79  L  2227.41,   215.60  L  2227.82,   215.25  L  2228.09,   214.78  L  2228.19,   214.25  L  2228.09,   213.72  L  2227.82,   213.25  L  2227.41,   212.90  L  2226.90,   212.71  L  2226.36,   212.71  L  2225.85,   212.90  L  2225.43,   213.25  L  2225.83,   213.96  L  2225.83,   214.54  L  2226.20,   214.99  L  2226.77,   215.09  L  2227.28,   214.80  L  2227.48,   214.25  L  2227.28,   213.70  L  2226.77,   213.41  L  2226.20,   213.51  L  2226.63,   214.25  " style="stroke-width: 0.85 ;&st7;  " /><path d=" M  2420.90,   374.72  L  2420.63,   375.19  L  2420.54,   375.72  L  2420.63,   376.26  L  2420.90,   376.73  L  2421.32,   377.07  L  2421.82,   377.26  L  2422.37,   377.26  L  2422.87,   377.07  L  2423.29,   376.73  L  2423.56,   376.26  L  2423.65,   375.72  L  2423.56,   375.19  L  2423.29,   374.72  L  2422.87,   374.37  L  2422.37,   374.19  L  2421.82,   374.19  L  2421.32,   374.37  L  2420.90,   374.72  L  2421.30,   375.43  L  2421.30,   376.01  L  2421.67,   376.46  L  2422.24,   376.56  L  2422.75,   376.27  L  2422.94,   375.72  L  2422.75,   375.18  L  2422.24,   374.89  L  2421.67,   374.99  L  2422.09,   375.72  " style="stroke-width: 0.85 ;&st7;  " /><path d=" M  2226.63,   290.74  L  2226.63,   418.22  " style="stroke-width: 0.85 ;&st7;  " /><path d=" M  2396.60,   350.23  L  2396.60,   392.72  L  2226.63,   392.72  " style="stroke-width: 0.85 ;&st7;  " /><path d=" M  2225.43,   255.74  L  2225.16,   256.21  L  2225.07,   256.74  L  2225.16,   257.28  L  2225.43,   257.75  L  2225.85,   258.09  L  2226.36,   258.28  L  2226.90,   258.28  L  2227.41,   258.09  L  2227.82,   257.75  L  2228.09,   257.28  L  2228.19,   256.74  L  2228.09,   256.21  L  2227.82,   255.74  L  2227.41,   255.39  L  2226.90,   255.21  L  2226.36,   255.21  L  2225.85,   255.39  L  2225.43,   255.74  L  2225.83,   256.45  L  2225.83,   257.03  L  2226.20,   257.48  L  2226.77,   257.58  L  2227.28,   257.29  L  2227.48,   256.74  L  2227.28,   256.20  L  2226.77,   255.91  L  2226.20,   256.01  L  2226.63,   256.74  " style="stroke-width: 0.85 ;&st7;  " /><path d=" M  2252.12,   214.25  L  2243.62,   219.92  L  2243.62,   208.58  L  2252.12,   214.25  " style="stroke-width: 0.28 ;&st9;  " /><path d=" M  2379.60,   350.23  L  2515.58,   350.23  L  2515.58,   316.23  L  2379.60,   316.23  L  2379.60,   350.23  " style="stroke-width: 1.42 ;&st7;  " /><path d=" M  2225.43,   391.72  L  2225.16,   392.19  L  2225.07,   392.72  L  2225.16,   393.25  L  2225.43,   393.72  L  2225.85,   394.07  L  2226.36,   394.26  L  2226.90,   394.26  L  2227.41,   394.07  L  2227.82,   393.72  L  2228.09,   393.25  L  2228.19,   392.72  L  2228.09,   392.19  L  2227.82,   391.72  L  2227.41,   391.37  L  2226.90,   391.18  L  2226.36,   391.18  L  2225.85,   391.37  L  2225.43,   391.72  L  2225.83,   392.43  L  2225.83,   393.01  L  2226.20,   393.46  L  2226.77,   393.56  L  2227.28,   393.27  L  2227.48,   392.72  L  2227.28,   392.17  L  2226.77,   391.88  L  2226.20,   391.98  L  2226.63,   392.72  " style="stroke-width: 0.85 ;&st7;  " /><path d=" M  2490.08,   231.25  C  2480.70    231.25   2473.09    238.86   2473.09    248.24  " style="stroke-width: 1.42 ;&st7;   " /><path d=" M  2473.09,   248.24  C  2473.09    257.63   2480.70    265.24   2490.08    265.24  " style="stroke-width: 1.42 ;&st7;   " /><path d=" M  2490.08,   265.24  C  2499.47    265.24   2507.08    257.63   2507.08    248.24  " style="stroke-width: 1.42 ;&st7;   " /><path d=" M  2167.14,    47.11  C  2164.40     48.72   2163.49     52.25   2165.10     54.99  " style="stroke-width: 1.42 ;&st7;   " /><path d=" M  2165.10,    54.99  C  2165.62     55.87   2166.26     56.51   2167.14     57.03  " style="stroke-width: 1.42 ;&st7;   " /><path d=" M  2167.14,    66.94  C  2169.88     65.33   2170.79     61.80   2169.17     59.06  " style="stroke-width: 1.42 ;&st7;   " /><path d=" M  2169.17,    59.06  C  2168.66     58.18   2168.02     57.55   2167.14     57.03  " style="stroke-width: 1.42 ;&st7;   " /><path d=" M  2168.55,    45.69  C  2168.55     44.91   2167.92     44.28   2167.14     44.28  " style="stroke-width: 0.85 ;&st7;   " /><path d=" M  2167.14,    44.28  C  2166.36     44.28   2165.72     44.91   2165.72     45.69  " style="stroke-width: 0.85 ;&st7;   " /><path d=" M  2165.72,    45.69  C  2165.72     46.48   2166.36     47.11   2167.14     47.11  " style="stroke-width: 0.85 ;&st7;   " /><path d=" M  2167.14,    47.11  C  2167.92     47.11   2168.55     46.48   2168.55     45.69  " style="stroke-width: 0.85 ;&st7;   " /><path d=" M  2168.55,    68.36  C  2168.55     67.57   2167.92     66.94   2167.14     66.94  " style="stroke-width: 0.85 ;&st7;   " /><path d=" M  2167.14,    66.94  C  2166.36     66.94   2165.72     67.57   2165.72     68.36  " style="stroke-width: 0.85 ;&st7;   " /><path d=" M  2165.72,    68.36  C  2165.72     69.14   2166.36     69.77   2167.14     69.77  " style="stroke-width: 0.85 ;&st7;   " /><path d=" M  2167.14,    69.77  C  2167.92     69.77   2168.55     69.14   2168.55     68.36  " style="stroke-width: 0.85 ;&st7;   " /><path d=" M  2165.01,    95.27  C  2162.67     95.27   2160.76     97.17   2160.76     99.52  " style="stroke-width: 1.42 ;&st7;   " /><path d=" M  2160.76,    99.52  C  2160.76    101.87   2162.67    103.77   2165.01    103.77  " style="stroke-width: 1.42 ;&st7;   " /><path d=" M  2169.26,   103.77  C  2171.61    103.77   2173.51    101.87   2173.51     99.52  " style="stroke-width: 1.42 ;&st7;   " /><path d=" M  2173.51,    99.52  C  2173.51     97.17   2171.61     95.27   2169.26     95.27  " style="stroke-width: 1.42 ;&st7;   " /><path d=" M  2226.63,    47.11  C  2223.89     48.72   2222.98     52.25   2224.59     54.99  " style="stroke-width: 1.42 ;&st7;   " /><path d=" M  2224.59,    54.99  C  2225.11     55.87   2225.75     56.51   2226.63     57.03  " style="stroke-width: 1.42 ;&st7;   " /><path d=" M  2226.63,    66.94  C  2229.37     65.33   2230.28     61.80   2228.66     59.06  " style="stroke-width: 1.42 ;&st7;   " /><path d=" M  2228.66,    59.06  C  2228.15     58.18   2227.51     57.55   2226.63     57.03  " style="stroke-width: 1.42 ;&st7;   " /><path d=" M  2228.04,    45.69  C  2228.04     44.91   2227.41     44.28   2226.63     44.28  " style="stroke-width: 0.85 ;&st7;   " /><path d=" M  2226.63,    44.28  C  2225.85     44.28   2225.21     44.91   2225.21     45.69  " style="stroke-width: 0.85 ;&st7;   " /><path d=" M  2225.21,    45.69  C  2225.21     46.48   2225.85     47.11   2226.63     47.11  " style="stroke-width: 0.85 ;&st7;   " /><path d=" M  2226.63,    47.11  C  2227.41     47.11   2228.04     46.48   2228.04     45.69  " style="stroke-width: 0.85 ;&st7;   " /><path d=" M  2228.04,    68.36  C  2228.04     67.57   2227.41     66.94   2226.63     66.94  " style="stroke-width: 0.85 ;&st7;   " /><path d=" M  2226.63,    66.94  C  2225.85     66.94   2225.21     67.57   2225.21     68.36  " style="stroke-width: 0.85 ;&st7;   " /><path d=" M  2225.21,    68.36  C  2225.21     69.14   2225.85     69.77   2226.63     69.77  " style="stroke-width: 0.85 ;&st7;   " /><path d=" M  2226.63,    69.77  C  2227.41     69.77   2228.04     69.14   2228.04     68.36  " style="stroke-width: 0.85 ;&st7;   " /><path d=" M  2224.50,    95.27  C  2222.16     95.27   2220.25     97.17   2220.25     99.52  " style="stroke-width: 1.42 ;&st7;   " /><path d=" M  2220.25,    99.52  C  2220.25    101.87   2222.16    103.77   2224.50    103.77  " style="stroke-width: 1.42 ;&st7;   " /><path d=" M  2228.75,   103.77  C  2231.10    103.77   2233.00    101.87   2233.00     99.52  " style="stroke-width: 1.42 ;&st7;   " /><path d=" M  2233.00,    99.52  C  2233.00     97.17   2231.10     95.27   2228.75     95.27  " style="stroke-width: 1.42 ;&st7;   " /><text style="&st18;" transform="matrix(&st16;  2229.21  205.45 )">IG+</text><text style="&st18;" transform="matrix(&st16;  2160.95  86.47 )">2</text><text style="&st18;" transform="matrix(&st16;  2165.34  101.49 )">1</text><text style="&st18;" transform="matrix(&st16;  2183.56  56.17 )">5A <tspan dy="6.0" x="0 ">MET-B</tspan></text><text style="&st18;" transform="matrix(&st16;  2169.72  205.45 )">B</text><text style="&st18;" transform="matrix(&st16;  2160.95  193.56 )">1</text><text style="&st18;" transform="matrix(&st16;  2220.44  193.56 )">2</text><text style="&st18;" transform="matrix(&st16;  2217.34  426.41 )">24</text><text style="&st18;" transform="matrix(&st16;  2492.67  414.53 )">CANH</text><text style="&st18;" transform="matrix(&st16;  2458.67  414.53 )">CANL</text><text style="&st18;" transform="matrix(&st16;  2229.21  414.53 )">ES</text><text ewd:textID="12" style="&st18;" transform="matrix(&st16;  2320.3  332.37 )">LED <tspan dy="6.0" x="0 ">Driver</tspan></text><text ewd:textID="17" style="&st18;" transform="matrix(&st16;  2318.78  292.71 )">Telltale</text><text style="&st18;" transform="matrix(&st16;  2441.29  335.2 )">CPU</text><text style="&st18;" transform="matrix(&st16;  2461.32  377.69 )">CAN I/F</text><text style="&st18;" transform="matrix(&st16;  2218.78  284.21 )">5V IC</text><text style="&st18;" transform="matrix(&st16;  2253.28  278.54 )">5V+B</text><text ewd:textID="6" style="&st18;" transform="matrix(&st16;  2480.96  250.21 )">Buzzer</text><text style="&st18;" transform="matrix(&st16;  2485.53  292.71 )">I/F</text><text style="&st18;" transform="matrix(&st16;  2159.09  32.08 )">(BAT)</text><text style="&st18;" transform="matrix(&st16;  2154.51  143.98 )">9</text><text style="&st18;" transform="matrix(&st16;  2243.05  56.17 )">7.5A <tspan dy="6.0" x="0 ">MET</tspan></text><text style="&st18;" transform="matrix(&st16;  2224.83  101.49 )">1</text><text style="&st18;" transform="matrix(&st16;  2220.44  86.47 )">2</text><text style="&st18;" transform="matrix(&st16;  2221.42  32.08 )">(IG)</text><text style="&st18;" transform="matrix(&st16;  2214.0  143.98 )">8</text><text style="&st18;" transform="matrix(&st16;  2480.8  426.41 )">39</text><text style="&st18;" transform="matrix(&st16;  2446.8  426.41 )">40</text><text ewd:textID="7" style="&st18;" transform="matrix(&st16;  2401.69  193.56 )">Combination Meter</text><text style="&st18;" transform="matrix(&st16;  2401.69  186.45 )">J28</text><text ewd:textID="11" style="&st18;" transform="matrix(&st16;  2237.39  503.75 )">Junction <tspan dy="6.0" x="0 ">Connector</tspan></text><text style="&st18;" transform="matrix(&st17;  2222.93  462.41 )">W-B</text><text style="&st18;" transform="matrix(&st16;  2237.38  496.65 )">J61</text><text style="&st18;" transform="matrix(&st17;  2222.93  564.4 )">W-B</text><text style="&st18;" transform="matrix(&st17;  2163.44  122.73 )">G</text><text style="&st18;" transform="matrix(&st17;  2163.44  175.54 )">LG</text><text style="&st18;" transform="matrix(&st17;  2222.93  124.32 )">BE</text><text style="&st18;" transform="matrix(&st17;  2222.93  173.25 )">P</text><text style="&st18;" transform="matrix(&st16;  2217.34  519.89 )">22</text><text style="&st18;" transform="matrix(&st16;  2217.34  491.01 )">15</text><text style="&st18;" transform="matrix(&st17;  2452.39  454.67 )">W</text><text style="&st18;" transform="matrix(&st17;  2486.39  455.45 )">SB</text><text style="&st18;" transform="matrix(&st16;  2096.19  643.98 )">W</text><text style="&st18;" transform="matrix(&st16;  2095.41  660.98 )">SB</text><text style="&st18;" transform="matrix(&st16;  2044.42  660.98 )">SB</text><text style="&st18;" transform="matrix(&st16;  2045.19  643.98 )">W</text></svg>