﻿<?xml version="1.0" encoding="utf-8"?>
<!DOCTYPE svg PUBLIC "-//W3C//DTD SVG 1.0//EN" "http://www.w3.org/TR/2001/REC-SVG-20010904/DTD/svg10.dtd"[
	<!ENTITY ns_flows "http://ns.adobe.com/Flows/1.0/">
	<!ENTITY ns_svg "http://www.w3.org/2000/svg">
	<!ENTITY ns_xlink "http://www.w3.org/1999/xlink">
	<!ENTITY st0 "font-size:7px;font-family:'MS-PGothic';adobe-font-script:japanese;">
	<!ENTITY st1 "font-size:6px;font-family:'ArialMT';">
	<!-- White fill  -->
	<!ENTITY st2 "fill:#FFFFFF;stroke:#000000; stroke-width:1.41;stroke-linecap:round;stroke-linejoin:round;">
	<!-- Yellow fill  -->
	<!ENTITY st3 "fill:#FFFFCC;stroke:#FFFFCC; stroke-width:0.1;stroke-linecap:round;stroke-linejoin:round;">
	<!-- Gray fill  -->
	<!ENTITY st4 "fill:#CCCCCC;stroke:#CCCCCC; stroke-width:0.1;stroke-linecap:round;stroke-linejoin:round;">
	<!-- Light-blue fill -->
	<!ENTITY st5 "fill:#CCECF4;stroke:#000000; stroke-width:1.133;stroke-linecap:round;stroke-linejoin:round;">
	<!ENTITY st6 "fill:none;stroke-linecap:butt; stroke-linejoin:round;">
	<!ENTITY st7 "fill:none;stroke:#000000;stroke-linecap:round;stroke-linejoin:round;">
	<!ENTITY st8 "enable-background:new    ;">
	<!-- Black fill -->
	<!ENTITY st9 "fill:#000000;stroke:#000000; stroke-linecap:round;stroke-linejoin:round;">
	<!-- SRS note   -->
	<!ENTITY st10 "font-size:9px;font-family:'ArialMT';">
	<!ENTITY st11 "font-size:9px;font-family:'Svg Symbol';">
	<!ENTITY st12 "font-size:6px;font-family:'Svg Symbol';">
	<!ENTITY st13 "fill:none;stroke:#ff0000;stroke-linecap:round;stroke-linejoin:round;">
	<!-- Yellow fill  -->
	<!ENTITY st14 "fill:#FFFF00;stroke:#FFFF00; stroke-width:0.1;stroke-linecap:round;stroke-linejoin:round;">
	<!ENTITY st15 "font-size:6px;font-family:'MS-PGothic';adobe-font-script:japanese;">
	<!ENTITY st16 "1.00 0.00 0.00 1.00">
	<!ENTITY st17 "0.00 -1.00 1.00 0.00">
	<!ENTITY st18 "font-size:6px;font-family:'Arial';">
	<!ENTITY st19 "font-size:9px;font-family:'Arial';">
	<!ENTITY st20 "font-size:6px;font-family:'MS-PGothic','MS PGothic';adobe-font-script:japanese;">
	<!ENTITY st21 "font-size:7px;font-family:'MS-PGothic','MS PGothic';adobe-font-script:japanese;">
	<!ATTLIST svg
		xmlns:ewd CDATA #FIXED "http://shcl.co.jp/ewd"
		xmlns:a CDATA #FIXED "http://ns.adobe.com/AdobeSVGViewerExtensions/3.0/"
		ewd:ver CDATA #IMPLIED
	>
	<!ATTLIST a
		ewd:lineID CDATA #IMPLIED
		ewd:groupID CDATA #IMPLIED
		ewd:figtype CDATA #IMPLIED
		ewd:code CDATA #IMPLIED
		ewd:figID CDATA #IMPLIED
		ewd:pinNo CDATA #IMPLIED
		ewd:comment CDATA #IMPLIED >
	<!ATTLIST g
		ewd:lineID CDATA #IMPLIED
		ewd:groupID CDATA #IMPLIED
		ewd:figtype CDATA #IMPLIED
		ewd:code CDATA #IMPLIED
		ewd:figID CDATA #IMPLIED
		ewd:pinNo CDATA #IMPLIED
		ewd:comment CDATA #IMPLIED >
	<!ATTLIST text
		ewd:textID CDATA #IMPLIED >
	<!ATTLIST title
		ewd:textID CDATA #IMPLIED >
]>
<!-- Generator: Shintec Hozumi YS   -->
<svg onload="call_execInitLoadProc_svg('system')" style="overflow:visible;  enable-background:new 0 0 457.395 710.000" viewBox="0 0 457.395 710.000" height="710.000" width="457.395" xml:space="preserve" ewd:ver="L2.1.2.9" xmlns="&ns_svg;" xmlns:a="http://ns.adobe.com/AdobeSVGViewerExtensions/3.0/" xmlns:ewd="http://shcl.co.jp/ewd" xmlns:xlink="&ns_xlink;"><script type="text/javascript" xlink:href="../../../../../system/js/ewd/fig/svgfig.js" xmlns:xlink="http://www.w3.org/1999/xlink" />
<g id="ewd_top"><a ewd:code="J27" ewd:figID="1" ewd:figtype="conn" style="cursor:pointer;"><path d=" M    33.99,   307.73  L    33.99,   435.21  L   297.45,   435.21  L   297.45,   384.22  L   169.97,   384.22  L   169.97,   307.73  L    33.99,   307.73 " style="fill:#CCECF4;stroke:#000000; stroke-width:1.133; stroke-linecap:round;stroke-linejoin:round; " /><title ewd:textID="5">Shift Lock Control ECU</title></a><a ewd:code="J21" ewd:figID="2" ewd:figtype="conn" style="cursor:pointer;"><path d=" M    76.49,   554.19  L    76.49,   520.20  L    59.49,   520.20  L    59.49,   554.19  L    76.49,   554.19 " style="fill:#CCECF4;stroke:#000000; stroke-width:1.133; stroke-linecap:round;stroke-linejoin:round; " /><title ewd:textID="4">Key Interlock Solenoid</title></a><a ewd:code="J9" ewd:figID="3" ewd:figtype="conn" style="cursor:pointer;"><path d=" M   118.98,   222.75  L   178.47,   222.75  L   178.47,   154.76  L   118.98,   154.76  L   118.98,   222.75 " style="fill:#CCECF4;stroke:#000000; stroke-width:1.133; stroke-linecap:round;stroke-linejoin:round; " /><title ewd:textID="2">Ignition Switch</title></a><a ewd:code="FUSE22" ewd:figID="4" ewd:figtype="rb" style="cursor:pointer;"><path d=" M   403.68,    35.78  L   403.68,    78.27  L   429.18,    78.27  L   429.18,    35.78  L   403.68,    35.78 " style="fill:#CCECF4;stroke:#000000; stroke-width:0; stroke-linecap:round;stroke-linejoin:round; " /></a><a ewd:code="J60" ewd:figID="5" ewd:figtype="conn" style="cursor:pointer;"><path d=" M    59.49,   613.68  L    76.49,   613.68  L    76.49,   630.68  L    59.49,   630.68  L    59.49,   613.68 " style="fill:#CCECF4;stroke:#000000; stroke-width:1.133; stroke-linecap:round;stroke-linejoin:round; " /><title ewd:textID="3">Junction Connector</title></a><a ewd:code="A4" ewd:figID="6" ewd:figtype="conn" style="cursor:pointer;"><path d=" M   424.93,   273.74  L   424.93,   239.75  L   407.93,   239.75  L   407.93,   273.74  L   424.93,   273.74 " style="fill:#CCECF4;stroke:#000000; stroke-width:1.133; stroke-linecap:round;stroke-linejoin:round; " /><title ewd:textID="7">Stop Light Switch</title></a><a ewd:code="A50" ewd:figID="7" ewd:figtype="conn" style="cursor:pointer;"><path d=" M   407.93,   401.22  L   407.93,   418.22  L   424.93,   418.22  L   424.93,   401.22  L   407.93,   401.22 " style="fill:#CCECF4;stroke:#000000; stroke-width:1.133; stroke-linecap:round;stroke-linejoin:round; " /><title ewd:textID="3">Junction Connector</title></a><a ewd:code="D-JB" ewd:figID="8" ewd:figtype="jb" style="cursor:pointer;"><path d=" M    50.99,    35.78  L    50.99,   103.77  L   110.48,   103.77  L   110.48,    35.78  L    50.99,    35.78  " style="&st4; " /></a><a ewd:code="D-JB" ewd:figID="9" ewd:figtype="jb" style="cursor:pointer;"><path d=" M   263.46,    35.78  L   263.46,   103.77  L   322.95,   103.77  L   322.95,    35.78  L   263.46,    35.78  " style="&st4; " /></a><a ewd:code="FUSE50" ewd:figID="10" ewd:figtype="fuse" style="cursor:pointer;"><path d=" M   293.20,    78.27  L   293.20,    35.78  L   267.71,    35.78  L   267.71,    78.27  L   293.20,    78.27 " style="&st7; stroke-width:0;" /></a><a ewd:code="FUSE48" ewd:figID="11" ewd:figtype="fuse" style="cursor:pointer;"><path d=" M    55.24,    35.78  L    55.24,    78.27  L    80.74,    78.27  L    80.74,    35.78  L    55.24,    35.78 " style="&st7; stroke-width:0;" /></a><a ewd:code="FUSE22" ewd:figID="12" ewd:figtype="fuse" style="cursor:pointer;"><path d=" M   403.68,    35.78  L   403.68,    78.27  L   429.18,    78.27  L   429.18,    35.78  L   403.68,    35.78 " style="&st7; stroke-width:0;" /></a><a ewd:lineID="1" style="cursor:pointer;"><path d=" M    67.99,   630.68  L    67.99,   681.67  " style="stroke:#000000;stroke-width: 5.10 ;&st6;" /><path d=" M    67.99,   630.68  L    67.99,   681.67  " style="stroke:#FFFFFF;stroke-width: 4.53 ;&st6;" /><path d=" M    67.99,   630.68  L    67.99,   681.67  " style="stroke:#000000;stroke-width: 1.13 ;&st6;" /></a><a ewd:lineID="2" style="cursor:pointer;"><path d=" M    67.99,   554.19  L    67.99,   613.68  " style="stroke:#000000;stroke-width: 5.10 ;&st6;" /><path d=" M    67.99,   554.19  L    67.99,   613.68  " style="stroke:#FFFFFF;stroke-width: 4.53 ;&st6;" /><path d=" M    67.99,   554.19  L    67.99,   613.68  " style="stroke:#000000;stroke-width: 1.13 ;&st6;" /></a><a ewd:lineID="3" style="cursor:pointer;"><path d=" M    67.99,   435.21  L    67.99,   520.20  " style="stroke:#008837;stroke-width: 5.10 ;&st6;" /></a><a ewd:lineID="4" style="cursor:pointer;"> d=" M    67.99,   103.77  L    67.99,   188.75  L   118.98,   188.75 
	
		<path d=" M    67.99,   103.77  L    67.99,   188.75  L   118.98,   188.75  " style="stroke:#000000;stroke-width: 5.10 ;&st6;" /><path d=" M    67.99,   103.77  L    67.99,   188.75  L   118.98,   188.75  " style="stroke:#FFFFFF;stroke-width: 4.53 ;&st6;" /></a><a ewd:lineID="5" style="cursor:pointer;"><path d=" M   212.46,   384.22  L   212.46,   171.76  L   178.47,   171.76  " style="stroke:#999999;stroke-width: 5.10 ;&st6;" /></a><a ewd:lineID="6" style="cursor:pointer;"><path d=" M   186.97,   435.21  L   186.97,   681.67  " style="stroke:#000000;stroke-width: 5.10 ;&st6;" /><path d=" M   186.97,   435.21  L   186.97,   681.67  " style="stroke:#FFFFFF;stroke-width: 4.53 ;&st6;" /><path d=" M   186.97,   435.21  L   186.97,   681.67  " style="stroke:#000000;stroke-width: 1.13 ;&st6;" /></a><a ewd:lineID="7" style="cursor:pointer;"><path d=" M   416.43,   418.22  L   416.43,   537.20  L   280.45,   537.20  L   280.45,   494.70  " style="stroke:#F668B2;stroke-width: 5.10 ;&st6;" /></a><a ewd:lineID="8" style="cursor:pointer;"><path d=" M   280.45,   479.97  L   280.45,   435.21  " style="stroke:#008837;stroke-width: 5.10 ;&st6;" /></a><a ewd:lineID="9" style="cursor:pointer;"><path d=" M   280.45,   103.77  L   280.45,   384.22  " style="stroke:#F668B2;stroke-width: 5.10 ;&st6;" /></a><a ewd:lineID="10" style="cursor:pointer;"><path d=" M   416.43,   273.74  L   416.43,   401.22  " style="stroke:#C3AF96;stroke-width: 5.10 ;&st6;" /></a><a ewd:lineID="11" style="cursor:pointer;"><path d=" M   416.43,   103.77  L   416.43,   239.75  " style="stroke:#00A0C6;stroke-width: 5.10 ;&st6;" /></a><a ewd:code="AJ11" ewd:figID="13" ewd:figtype="w2w" ewd:pinNo="2" style="cursor:pointer;"><path d=" M   288.95,   486.20  L   271.95,   486.20  L   271.95,   494.70  L   288.95,   494.70  L   288.95,   486.20 " style="&st2;" /><text style="&st8;" transform="matrix(&st16;  274.28  492.57 )"><tspan style="&st18;" x="0" y="0">AJ11</tspan></text></a><a ewd:code="J1" ewd:figID="14" ewd:figtype="gp" style="cursor:pointer;"><path d=" M    57.37,   681.67  L    78.61,   681.67  L    67.99,   697.25  L    57.37,   681.67 " style="&st2;" /><text style="&st8;" transform="matrix(&st16;  65.32  689.46 )"><tspan style="&st18;" x="0" y="0">J1</tspan></text></a><a ewd:code="J2" ewd:figID="15" ewd:figtype="gp" style="cursor:pointer;"><path d=" M   176.35,   681.67  L   197.59,   681.67  L   186.97,   697.25  L   176.35,   681.67 " style="&st2;" /><text style="&st8;" transform="matrix(&st16;  184.3  689.46 )"><tspan style="&st18;" x="0" y="0">J2</tspan></text></a></g></svg>