﻿<?xml version="1.0" encoding="utf-8"?>
<!DOCTYPE svg PUBLIC "-//W3C//DTD SVG 1.0//EN" "http://www.w3.org/TR/2001/REC-SVG-20010904/DTD/svg10.dtd"[
	<!ENTITY ns_flows "http://ns.adobe.com/Flows/1.0/">
	<!ENTITY ns_svg "http://www.w3.org/2000/svg">
	<!ENTITY ns_xlink "http://www.w3.org/1999/xlink">
	<!ENTITY st0 "font-size:7px;font-family:'MS-PGothic';adobe-font-script:japanese;">
	<!ENTITY st1 "font-size:6px;font-family:'ArialMT';">
	<!-- White fill  -->
	<!ENTITY st2 "fill:#FFFFFF;stroke:#000000; stroke-width:1.41;stroke-linecap:round;stroke-linejoin:round;">
	<!-- Yellow fill  -->
	<!ENTITY st3 "fill:#FFFFCC;stroke:#FFFFCC; stroke-width:0.1;stroke-linecap:round;stroke-linejoin:round;">
	<!-- Gray fill  -->
	<!ENTITY st4 "fill:#CCCCCC;stroke:#CCCCCC; stroke-width:0.1;stroke-linecap:round;stroke-linejoin:round;">
	<!-- Light-blue fill -->
	<!ENTITY st5 "fill:#CCECF4;stroke:#000000; stroke-width:1.133;stroke-linecap:round;stroke-linejoin:round;">
	<!ENTITY st6 "fill:none;stroke-linecap:butt; stroke-linejoin:round;">
	<!ENTITY st7 "fill:none;stroke:#000000;stroke-linecap:round;stroke-linejoin:round;">
	<!ENTITY st8 "enable-background:new    ;">
	<!-- Black fill -->
	<!ENTITY st9 "fill:#000000;stroke:#000000; stroke-linecap:round;stroke-linejoin:round;">
	<!-- SRS note   -->
	<!ENTITY st10 "font-size:9px;font-family:'ArialMT';">
	<!ENTITY st11 "font-size:9px;font-family:'Svg Symbol';">
	<!ENTITY st12 "font-size:6px;font-family:'Svg Symbol';">
	<!ENTITY st13 "fill:none;stroke:#ff0000;stroke-linecap:round;stroke-linejoin:round;">
	<!-- Yellow fill  -->
	<!ENTITY st14 "fill:#FFFF00;stroke:#FFFF00; stroke-width:0.1;stroke-linecap:round;stroke-linejoin:round;">
	<!ENTITY st15 "font-size:6px;font-family:'MS-PGothic';adobe-font-script:japanese;">
	<!ENTITY st16 "1.00 0.00 0.00 1.00">
	<!ENTITY st17 "0.00 -1.00 1.00 0.00">
	<!ENTITY st18 "font-size:6px;font-family:'Arial';">
	<!ENTITY st19 "font-size:9px;font-family:'Arial';">
	<!ENTITY st20 "font-size:6px;font-family:'MS-PGothic','MS PGothic';adobe-font-script:japanese;">
	<!ENTITY st21 "font-size:7px;font-family:'MS-PGothic','MS PGothic';adobe-font-script:japanese;">
	<!ATTLIST svg
		xmlns:ewd CDATA #FIXED "http://shcl.co.jp/ewd"
		xmlns:a CDATA #FIXED "http://ns.adobe.com/AdobeSVGViewerExtensions/3.0/"
		ewd:ver CDATA #IMPLIED
	>
	<!ATTLIST a
		ewd:lineID CDATA #IMPLIED
		ewd:groupID CDATA #IMPLIED
		ewd:figtype CDATA #IMPLIED
		ewd:code CDATA #IMPLIED
		ewd:figID CDATA #IMPLIED
		ewd:pinNo CDATA #IMPLIED
		ewd:comment CDATA #IMPLIED >
	<!ATTLIST g
		ewd:lineID CDATA #IMPLIED
		ewd:groupID CDATA #IMPLIED
		ewd:figtype CDATA #IMPLIED
		ewd:code CDATA #IMPLIED
		ewd:figID CDATA #IMPLIED
		ewd:pinNo CDATA #IMPLIED
		ewd:comment CDATA #IMPLIED >
	<!ATTLIST text
		ewd:textID CDATA #IMPLIED >
	<!ATTLIST title
		ewd:textID CDATA #IMPLIED >
]>
<!-- Generator: Shintec Hozumi YS   -->
<svg onload="call_execInitLoadProc_svg('system')" style="overflow:visible;  enable-background:new 0 0 4139.517 710.000" viewBox="0 0 4139.517 710.000" height="710.000" width="4139.517" xml:space="preserve" ewd:ver="L2.1.2.9" xmlns="&ns_svg;" xmlns:a="http://ns.adobe.com/AdobeSVGViewerExtensions/3.0/" xmlns:ewd="http://shcl.co.jp/ewd" xmlns:xlink="&ns_xlink;">
<path d=" M   580.03,   452.21  L   575.78,   452.21  " style="stroke-width: 1.42 ;&st7;  " /><path d=" M   580.03,   443.71  L   575.78,   443.71  " style="stroke-width: 1.42 ;&st7;  " /><path d=" M   807.37,   426.71  L   815.86,   426.71  " style="stroke-width: 1.42 ;&st7;  " /><path d=" M   841.36,   426.71  L   849.86,   426.71  " style="stroke-width: 1.42 ;&st7;  " /><path d=" M   917.85,   426.71  L   926.35,   426.71  " style="stroke-width: 1.42 ;&st7;  " /><path d=" M   951.84,   426.71  L   960.34,   426.71  " style="stroke-width: 1.42 ;&st7;  " /><path d=" M   580.03,   477.71  L   575.78,   477.71  " style="stroke-width: 1.42 ;&st7;  " /><path d=" M   580.03,   486.20  L   575.78,   486.20  " style="stroke-width: 1.42 ;&st7;  " /><path d=" M   576.49,   710.00  L   579.32,   710.00  " style="stroke-width: 0.85 ;&st7;  " /><path d=" M   575.07,   707.17  L   580.74,   707.17  " style="stroke-width: 0.85 ;&st7;  " /><path d=" M   573.65,   704.33  L   582.15,   704.33  " style="stroke-width: 0.85 ;&st7;  " /><path d=" M   569.40,   701.50  L   586.40,   701.50  " style="stroke-width: 0.85 ;&st7;  " /><path d=" M   577.90,   697.25  L   577.90,   701.50  " style="stroke-width: 0.85 ;&st7;  " /><path d=" M   696.88,   512.27  L   747.87,   512.27  L   747.87,   554.19  L   696.88,   554.19  L   696.88,   512.27  " style="stroke-width: 1.42 ;&st7;  " /><path d=" M   739.38,   503.20  L   739.38,   477.71  " style="stroke-width: 0.85 ;&st7;  " /><path d=" M   747.87,   503.20  L   628.89,   503.20  L   628.89,   477.71  L   747.87,   477.71  L   747.87,   503.20  " style="stroke-width: 1.42 ;&st7;  " /><path d=" M   705.38,   477.71  L   705.38,   503.20  " style="stroke-width: 0.85 ;&st7;  " /><path d=" M   637.39,   477.71  L   637.39,   503.20  " style="stroke-width: 0.85 ;&st7;  " /><path d=" M   917.85,   214.25  L   917.85,   197.25  L   934.84,   197.25  L   943.34,   188.75  L   951.84,   197.25  L   968.84,   197.25  L   968.84,   214.25  " style="stroke-width: 0.85 ;&st7;  " /><path d=" M   815.86,   214.25  L   815.86,   197.25  L   832.86,   197.25  L   841.36,   188.75  L   849.86,   197.25  L   866.85,   197.25  L   866.85,   214.25  " style="stroke-width: 0.85 ;&st7;  " /><path d=" M   560.91,   307.73  L   560.91,   358.73  L  2864.02,   358.73  L  2864.02,   307.73  L   560.91,   307.73  " style="stroke-width: 1.42 ;&st7;  " /><path d=" M   577.90,   472.81  L   575.07,   469.98  L   575.07,   474.23  L   577.90,   477.06  L   580.74,   474.23  L   580.74,   469.98  L   577.90,   472.81  " style="stroke-width: 0.28 ;&st9;  " /><path d=" M   964.59,   421.05  L   960.34,   425.30  L   956.09,   421.05  " style="stroke-width: 1.42 ;&st7;  " /><path d=" M   956.09,   417.65  L   960.34,   421.90  L   964.59,   417.65  " style="stroke-width: 1.42 ;&st7;  " /><path d=" M   930.59,   421.05  L   926.34,   425.30  L   922.10,   421.05  " style="stroke-width: 1.42 ;&st7;  " /><path d=" M   922.10,   417.65  L   926.34,   421.90  L   930.59,   417.65  " style="stroke-width: 1.42 ;&st7;  " /><path d=" M   854.11,   421.05  L   849.86,   425.30  L   845.61,   421.05  " style="stroke-width: 1.42 ;&st7;  " /><path d=" M   845.61,   417.65  L   849.86,   421.90  L   854.11,   417.65  " style="stroke-width: 1.42 ;&st7;  " /><path d=" M   820.11,   421.05  L   815.86,   425.30  L   811.61,   421.05  " style="stroke-width: 1.42 ;&st7;  " /><path d=" M   811.61,   417.65  L   815.86,   421.90  L   820.11,   417.65  " style="stroke-width: 1.42 ;&st7;  " /><path d=" M   909.35,   214.25  L   977.34,   214.25  L   977.34,   180.26  L   909.35,   180.26  L   909.35,   214.25  " style="stroke-width: 1.42 ;&st7;  " /><path d=" M   688.38,   214.25  L   688.38,   197.25  L   696.88,   197.25  L   705.38,   188.75  L   713.88,   197.25  L   722.38,   197.25  L   722.38,   214.25  " style="stroke-width: 0.85 ;&st7;  " /><path d=" M   679.89,   214.25  L   730.88,   214.25  L   730.88,   180.26  L   679.89,   180.26  L   679.89,   214.25  " style="stroke-width: 1.42 ;&st7;  " /><path d=" M   577.90,   214.25  L   577.90,   197.25  L   586.40,   197.25  L   594.90,   188.75  L   603.40,   197.25  L   611.90,   197.25  L   611.90,   214.25  " style="stroke-width: 0.85 ;&st7;  " /><path d=" M   807.36,   214.25  L   875.35,   214.25  L   875.35,   180.26  L   807.36,   180.26  L   807.36,   214.25  " style="stroke-width: 1.42 ;&st7;  " /><path d=" M   798.87,   494.70  L   798.87,   537.20  L   866.85,   537.20  L   866.85,   494.70  L   798.87,   494.70  " style="stroke-width: 1.42 ;&st7;  " /><path d=" M   909.35,   494.70  L   909.35,   537.20  L   977.34,   537.20  L   977.34,   494.70  L   909.35,   494.70  " style="stroke-width: 1.42 ;&st7;  " /><path d=" M   705.38,   512.27  L   705.38,   537.20  L   713.88,   537.20  L   722.38,   545.69  L   730.88,   537.20  L   739.38,   537.20  L   739.38,   512.27  " style="stroke-width: 0.85 ;&st7;  " /><path d=" M   637.39,   512.27  L   637.39,   537.20  L   645.89,   537.20  L   654.39,   545.69  L   662.89,   537.20  L   671.39,   537.20  L   671.39,   512.27  " style="stroke-width: 0.85 ;&st7;  " /><path d=" M   671.39,   503.20  L   671.39,   477.71  " style="stroke-width: 0.85 ;&st7;  " /><path d=" M   679.89,   512.27  L   679.89,   554.19  L   628.89,   554.19  L   628.89,   512.27  L   679.89,   512.27  " style="stroke-width: 1.42 ;&st7;  " /><path d=" M   569.40,   214.25  L   620.40,   214.25  L   620.40,   180.26  L   569.40,   180.26  L   569.40,   214.25  " style="stroke-width: 1.42 ;&st7;  " /><path d=" M   577.90,   457.11  L   580.74,   459.94  L   580.74,   455.69  L   577.90,   452.86  L   575.07,   455.69  L   575.07,   459.94  L   577.90,   457.11  " style="stroke-width: 0.28 ;&st9;  " /><path d=" M   577.90,   477.71  L   577.90,   452.21  " style="stroke-width: 0.85 ;&st7;  " /><path d=" M   641.93,   507.73  C   641.93    505.23    639.90    503.20    637.39    503.20  " style="stroke-width: 1.42 ;&st7;   " /><path d=" M   637.39,   503.20  C   634.89    503.20    632.86    505.23    632.86    507.73  " style="stroke-width: 1.42 ;&st7;   " /><path d=" M   632.86,   507.73  C   632.86    510.24    634.89    512.27    637.39    512.27  " style="stroke-width: 1.42 ;&st7;   " /><path d=" M   637.39,   512.27  C   639.90    512.27    641.93    510.24    641.93    507.73  " style="stroke-width: 1.42 ;&st7;   " /><path d=" M   675.92,   507.73  C   675.92    505.23    673.89    503.20    671.39    503.20  " style="stroke-width: 1.42 ;&st7;   " /><path d=" M   671.39,   503.20  C   668.88    503.20    666.86    505.23    666.86    507.73  " style="stroke-width: 1.42 ;&st7;   " /><path d=" M   666.86,   507.73  C   666.86    510.24    668.88    512.27    671.39    512.27  " style="stroke-width: 1.42 ;&st7;   " /><path d=" M   671.39,   512.27  C   673.89    512.27    675.92    510.24    675.92    507.73  " style="stroke-width: 1.42 ;&st7;   " /><path d=" M   709.91,   507.73  C   709.91    505.23    707.89    503.20    705.38    503.20  " style="stroke-width: 1.42 ;&st7;   " /><path d=" M   705.38,   503.20  C   702.88    503.20    700.85    505.23    700.85    507.73  " style="stroke-width: 1.42 ;&st7;   " /><path d=" M   700.85,   507.73  C   700.85    510.24    702.88    512.27    705.38    512.27  " style="stroke-width: 1.42 ;&st7;   " /><path d=" M   705.38,   512.27  C   707.89    512.27    709.91    510.24    709.91    507.73  " style="stroke-width: 1.42 ;&st7;   " /><path d=" M   743.91,   507.73  C   743.91    505.23    741.88    503.20    739.38    503.20  " style="stroke-width: 1.42 ;&st7;   " /><path d=" M   739.38,   503.20  C   736.87    503.20    734.84    505.23    734.84    507.73  " style="stroke-width: 1.42 ;&st7;   " /><path d=" M   734.84,   507.73  C   734.84    510.24    736.87    512.27    739.38    512.27  " style="stroke-width: 1.42 ;&st7;   " /><path d=" M   739.38,   512.27  C   741.88    512.27    743.91    510.24    743.91    507.73  " style="stroke-width: 1.42 ;&st7;   " /><path d=" M   641.93,   473.17  C   641.93    470.67    639.90    468.64    637.39    468.64  " style="stroke-width: 1.42 ;&st7;   " /><path d=" M   637.39,   468.64  C   634.89    468.64    632.86    470.67    632.86    473.17  " style="stroke-width: 1.42 ;&st7;   " /><path d=" M   632.86,   473.17  C   632.86    475.68    634.89    477.71    637.39    477.71  " style="stroke-width: 1.42 ;&st7;   " /><path d=" M   637.39,   477.71  C   639.90    477.71    641.93    475.68    641.93    473.17  " style="stroke-width: 1.42 ;&st7;   " /><path d=" M   675.92,   473.17  C   675.92    470.67    673.89    468.64    671.39    468.64  " style="stroke-width: 1.42 ;&st7;   " /><path d=" M   671.39,   468.64  C   668.88    468.64    666.86    470.67    666.86    473.17  " style="stroke-width: 1.42 ;&st7;   " /><path d=" M   666.86,   473.17  C   666.86    475.68    668.88    477.71    671.39    477.71  " style="stroke-width: 1.42 ;&st7;   " /><path d=" M   671.39,   477.71  C   673.89    477.71    675.92    475.68    675.92    473.17  " style="stroke-width: 1.42 ;&st7;   " /><path d=" M   709.91,   473.17  C   709.91    470.67    707.89    468.64    705.38    468.64  " style="stroke-width: 1.42 ;&st7;   " /><path d=" M   705.38,   468.64  C   702.88    468.64    700.85    470.67    700.85    473.17  " style="stroke-width: 1.42 ;&st7;   " /><path d=" M   700.85,   473.17  C   700.85    475.68    702.88    477.71    705.38    477.71  " style="stroke-width: 1.42 ;&st7;   " /><path d=" M   705.38,   477.71  C   707.89    477.71    709.91    475.68    709.91    473.17  " style="stroke-width: 1.42 ;&st7;   " /><path d=" M   743.91,   473.17  C   743.91    470.67    741.88    468.64    739.38    468.64  " style="stroke-width: 1.42 ;&st7;   " /><path d=" M   739.38,   468.64  C   736.87    468.64    734.84    470.67    734.84    473.17  " style="stroke-width: 1.42 ;&st7;   " /><path d=" M   734.84,   473.17  C   734.84    475.68    736.87    477.71    739.38    477.71  " style="stroke-width: 1.42 ;&st7;   " /><path d=" M   739.38,   477.71  C   741.88    477.71    743.91    475.68    743.91    473.17  " style="stroke-width: 1.42 ;&st7;   " /><path d=" M   584.28,   447.96  C   584.28    445.61    582.37    443.71    580.03    443.71  " style="stroke-width: 1.42 ;&st7;   " /><path d=" M   973.37,   303.20  C   973.37    300.70    971.34    298.67    968.84    298.67  " style="stroke-width: 1.42 ;&st7;   " /><path d=" M   968.84,   298.67  C   966.33    298.67    964.31    300.70    964.31    303.20  " style="stroke-width: 1.42 ;&st7;   " /><path d=" M   964.31,   303.20  C   964.31    305.70    966.33    307.73    968.84    307.73  " style="stroke-width: 1.42 ;&st7;   " /><path d=" M   968.84,   307.73  C   971.34    307.73    973.37    305.70    973.37    303.20  " style="stroke-width: 1.42 ;&st7;   " /><path d=" M   580.03,   452.21  C   582.37    452.21    584.28    450.31    584.28    447.96  " style="stroke-width: 1.42 ;&st7;   " /><path d=" M   571.53,   447.96  C   571.53    450.31    573.43    452.21    575.78    452.21  " style="stroke-width: 1.42 ;&st7;   " /><path d=" M   575.78,   443.71  C   573.43    443.71    571.53    445.61    571.53    447.96  " style="stroke-width: 1.42 ;&st7;   " /><path d=" M   964.87,   363.26  C   964.87    360.75    962.84    358.73    960.34    358.73  " style="stroke-width: 1.42 ;&st7;   " /><path d=" M   960.34,   358.73  C   957.84    358.73    955.81    360.75    955.81    363.26  " style="stroke-width: 1.42 ;&st7;   " /><path d=" M   955.81,   363.26  C   955.81    365.76    957.84    367.79    960.34    367.79  " style="stroke-width: 1.42 ;&st7;   " /><path d=" M   960.34,   367.79  C   962.84    367.79    964.87    365.76    964.87    363.26  " style="stroke-width: 1.42 ;&st7;   " /><path d=" M   930.88,   363.26  C   930.88    360.75    928.85    358.73    926.35    358.73  " style="stroke-width: 1.42 ;&st7;   " /><path d=" M   926.35,   358.73  C   923.84    358.73    921.81    360.75    921.81    363.26  " style="stroke-width: 1.42 ;&st7;   " /><path d=" M   921.81,   363.26  C   921.81    365.76    923.84    367.79    926.35    367.79  " style="stroke-width: 1.42 ;&st7;   " /><path d=" M   926.35,   367.79  C   928.85    367.79    930.88    365.76    930.88    363.26  " style="stroke-width: 1.42 ;&st7;   " /><path d=" M   854.39,   363.26  C   854.39    360.75    852.36    358.73    849.86    358.73  " style="stroke-width: 1.42 ;&st7;   " /><path d=" M   849.86,   358.73  C   847.35    358.73    845.33    360.75    845.33    363.26  " style="stroke-width: 1.42 ;&st7;   " /><path d=" M   845.33,   363.26  C   845.33    365.76    847.35    367.79    849.86    367.79  " style="stroke-width: 1.42 ;&st7;   " /><path d=" M   849.86,   367.79  C   852.36    367.79    854.39    365.76    854.39    363.26  " style="stroke-width: 1.42 ;&st7;   " /><path d=" M   820.40,   363.26  C   820.40    360.75    818.37    358.73    815.86    358.73  " style="stroke-width: 1.42 ;&st7;   " /><path d=" M   815.86,   358.73  C   813.36    358.73    811.33    360.75    811.33    363.26  " style="stroke-width: 1.42 ;&st7;   " /><path d=" M   811.33,   363.26  C   811.33    365.76    813.36    367.79    815.86    367.79  " style="stroke-width: 1.42 ;&st7;   " /><path d=" M   815.86,   367.79  C   818.37    367.79    820.40    365.76    820.40    363.26  " style="stroke-width: 1.42 ;&st7;   " /><path d=" M   922.38,   303.20  C   922.38    300.70    920.35    298.67    917.85    298.67  " style="stroke-width: 1.42 ;&st7;   " /><path d=" M   917.85,   298.67  C   915.34    298.67    913.31    300.70    913.31    303.20  " style="stroke-width: 1.42 ;&st7;   " /><path d=" M   913.31,   303.20  C   913.31    305.70    915.34    307.73    917.85    307.73  " style="stroke-width: 1.42 ;&st7;   " /><path d=" M   917.85,   307.73  C   920.35    307.73    922.38    305.70    922.38    303.20  " style="stroke-width: 1.42 ;&st7;   " /><path d=" M   871.39,   303.20  C   871.39    300.70    869.36    298.67    866.86    298.67  " style="stroke-width: 1.42 ;&st7;   " /><path d=" M   866.86,   298.67  C   864.35    298.67    862.32    300.70    862.32    303.20  " style="stroke-width: 1.42 ;&st7;   " /><path d=" M   862.32,   303.20  C   862.32    305.70    864.35    307.73    866.86    307.73  " style="stroke-width: 1.42 ;&st7;   " /><path d=" M   866.86,   307.73  C   869.36    307.73    871.39    305.70    871.39    303.20  " style="stroke-width: 1.42 ;&st7;   " /><path d=" M   582.44,   363.26  C   582.44    360.75    580.41    358.73    577.90    358.73  " style="stroke-width: 1.42 ;&st7;   " /><path d=" M   577.90,   358.73  C   575.40    358.73    573.37    360.75    573.37    363.26  " style="stroke-width: 1.42 ;&st7;   " /><path d=" M   573.37,   363.26  C   573.37    365.76    575.40    367.79    577.90    367.79  " style="stroke-width: 1.42 ;&st7;   " /><path d=" M   577.90,   367.79  C   580.41    367.79    582.44    365.76    582.44    363.26  " style="stroke-width: 1.42 ;&st7;   " /><path d=" M   820.40,   303.20  C   820.40    300.70    818.37    298.67    815.86    298.67  " style="stroke-width: 1.42 ;&st7;   " /><path d=" M   815.86,   298.67  C   813.36    298.67    811.33    300.70    811.33    303.20  " style="stroke-width: 1.42 ;&st7;   " /><path d=" M   811.33,   303.20  C   811.33    305.70    813.36    307.73    815.86    307.73  " style="stroke-width: 1.42 ;&st7;   " /><path d=" M   815.86,   307.73  C   818.37    307.73    820.40    305.70    820.40    303.20  " style="stroke-width: 1.42 ;&st7;   " /><path d=" M   582.44,   303.20  C   582.44    300.70    580.41    298.67    577.90    298.67  " style="stroke-width: 1.42 ;&st7;   " /><path d=" M   577.90,   298.67  C   575.40    298.67    573.37    300.70    573.37    303.20  " style="stroke-width: 1.42 ;&st7;   " /><path d=" M   573.37,   303.20  C   573.37    305.70    575.40    307.73    577.90    307.73  " style="stroke-width: 1.42 ;&st7;   " /><path d=" M   577.90,   307.73  C   580.41    307.73    582.44    305.70    582.44    303.20  " style="stroke-width: 1.42 ;&st7;   " /><path d=" M   616.43,   303.20  C   616.43    300.70    614.40    298.67    611.90    298.67  " style="stroke-width: 1.42 ;&st7;   " /><path d=" M   611.90,   298.67  C   609.39    298.67    607.37    300.70    607.37    303.20  " style="stroke-width: 1.42 ;&st7;   " /><path d=" M   607.37,   303.20  C   607.37    305.70    609.39    307.73    611.90    307.73  " style="stroke-width: 1.42 ;&st7;   " /><path d=" M   611.90,   307.73  C   614.40    307.73    616.43    305.70    616.43    303.20  " style="stroke-width: 1.42 ;&st7;   " /><path d=" M   692.92,   303.20  C   692.92    300.70    690.89    298.67    688.38    298.67  " style="stroke-width: 1.42 ;&st7;   " /><path d=" M   688.38,   298.67  C   685.88    298.67    683.85    300.70    683.85    303.20  " style="stroke-width: 1.42 ;&st7;   " /><path d=" M   683.85,   303.20  C   683.85    305.70    685.88    307.73    688.38    307.73  " style="stroke-width: 1.42 ;&st7;   " /><path d=" M   688.38,   307.73  C   690.89    307.73    692.92    305.70    692.92    303.20  " style="stroke-width: 1.42 ;&st7;   " /><path d=" M   726.91,   303.20  C   726.91    300.70    724.88    298.67    722.38    298.67  " style="stroke-width: 1.42 ;&st7;   " /><path d=" M   722.38,   298.67  C   719.88    298.67    717.85    300.70    717.85    303.20  " style="stroke-width: 1.42 ;&st7;   " /><path d=" M   717.85,   303.20  C   717.85    305.70    719.88    307.73    722.38    307.73  " style="stroke-width: 1.42 ;&st7;   " /><path d=" M   722.38,   307.73  C   724.88    307.73    726.91    305.70    726.91    303.20  " style="stroke-width: 1.42 ;&st7;   " /><path d=" M   641.93,   363.26  C   641.93    360.75    639.90    358.73    637.39    358.73  " style="stroke-width: 1.42 ;&st7;   " /><path d=" M   637.39,   358.73  C   634.89    358.73    632.86    360.75    632.86    363.26  " style="stroke-width: 1.42 ;&st7;   " /><path d=" M   632.86,   363.26  C   632.86    365.76    634.89    367.79    637.39    367.79  " style="stroke-width: 1.42 ;&st7;   " /><path d=" M   637.39,   367.79  C   639.90    367.79    641.93    365.76    641.93    363.26  " style="stroke-width: 1.42 ;&st7;   " /><path d=" M   675.92,   363.26  C   675.92    360.75    673.89    358.73    671.39    358.73  " style="stroke-width: 1.42 ;&st7;   " /><path d=" M   671.39,   358.73  C   668.88    358.73    666.86    360.75    666.86    363.26  " style="stroke-width: 1.42 ;&st7;   " /><path d=" M   666.86,   363.26  C   666.86    365.76    668.88    367.79    671.39    367.79  " style="stroke-width: 1.42 ;&st7;   " /><path d=" M   671.39,   367.79  C   673.89    367.79    675.92    365.76    675.92    363.26  " style="stroke-width: 1.42 ;&st7;   " /><path d=" M   709.91,   363.26  C   709.91    360.75    707.89    358.73    705.38    358.73  " style="stroke-width: 1.42 ;&st7;   " /><path d=" M   705.38,   358.73  C   702.88    358.73    700.85    360.75    700.85    363.26  " style="stroke-width: 1.42 ;&st7;   " /><path d=" M   700.85,   363.26  C   700.85    365.76    702.88    367.79    705.38    367.79  " style="stroke-width: 1.42 ;&st7;   " /><path d=" M   705.38,   367.79  C   707.89    367.79    709.91    365.76    709.91    363.26  " style="stroke-width: 1.42 ;&st7;   " /><path d=" M   743.91,   363.26  C   743.91    360.75    741.88    358.73    739.38    358.73  " style="stroke-width: 1.42 ;&st7;   " /><path d=" M   739.38,   358.73  C   736.87    358.73    734.84    360.75    734.84    363.26  " style="stroke-width: 1.42 ;&st7;   " /><path d=" M   734.84,   363.26  C   734.84    365.76    736.87    367.79    739.38    367.79  " style="stroke-width: 1.42 ;&st7;   " /><path d=" M   739.38,   367.79  C   741.88    367.79    743.91    365.76    743.91    363.26  " style="stroke-width: 1.42 ;&st7;   " /><path d=" M   575.78,   477.71  C   573.43    477.71    571.53    479.61    571.53    481.95  " style="stroke-width: 1.42 ;&st7;   " /><path d=" M   571.53,   481.95  C   571.53    484.30    573.43    486.20    575.78    486.20  " style="stroke-width: 1.42 ;&st7;   " /><path d=" M   580.03,   486.20  C   582.37    486.20    584.28    484.30    584.28    481.95  " style="stroke-width: 1.42 ;&st7;   " /><path d=" M   584.28,   481.95  C   584.28    479.61    582.37    477.71    580.03    477.71  " style="stroke-width: 1.42 ;&st7;   " /><text style="&st18;" transform="matrix(&st16;  575.6  365.23 )">A</text><text style="&st18;" transform="matrix(&st16;  574.24  355.03 )">E1</text><text style="&st18;" transform="matrix(&st16;  914.43  544.81 )">A1</text><text style="&st18;" transform="matrix(&st16;  859.51  315.37 )">SFD-</text><text style="&st18;" transform="matrix(&st16;  808.52  315.37 )">SFD+</text><text style="&st18;" transform="matrix(&st16;  813.68  305.17 )">B</text><text style="&st18;" transform="matrix(&st16;  909.15  305.17 )">7</text><text style="&st18;" transform="matrix(&st16;  575.72  305.17 )">B</text><text style="&st18;" transform="matrix(&st16;  572.23  315.37 )">PD+</text><text style="&st18;" transform="matrix(&st16;  609.71  305.17 )">B</text><text style="&st18;" transform="matrix(&st16;  606.22  315.37 )">PD-</text><text style="&st18;" transform="matrix(&st16;  960.14  305.17 )">6</text><text style="&st18;" transform="matrix(&st16;  685.96  305.17 )">C</text><text style="&st18;" transform="matrix(&st16;  683.09  315.37 )">PP+</text><text style="&st18;" transform="matrix(&st16;  719.96  305.17 )">C</text><text style="&st18;" transform="matrix(&st16;  717.09  315.37 )">PP-</text><text style="&st18;" transform="matrix(&st16;  810.69  502.34 )">+SL</text><text style="&st18;" transform="matrix(&st16;  635.09  365.23 )">A</text><text style="&st18;" transform="matrix(&st16;  633.46  355.03 )">D+</text><text style="&st18;" transform="matrix(&st16;  669.08  365.23 )">A</text><text style="&st18;" transform="matrix(&st16;  667.45  355.03 )">D-</text><text style="&st18;" transform="matrix(&st16;  703.08  365.23 )">A</text><text style="&st18;" transform="matrix(&st16;  699.9  355.03 )">D2+</text><text style="&st18;" transform="matrix(&st16;  737.07  365.23 )">A</text><text style="&st18;" transform="matrix(&st16;  733.89  355.03 )">D2-</text><text style="&st18;" transform="matrix(&st16;  571.72  222.44 )">1</text><text style="&st18;" transform="matrix(&st16;  605.71  222.44 )">2</text><text style="&st18;" transform="matrix(&st16;  682.2  222.44 )">1</text><text style="&st18;" transform="matrix(&st16;  716.2  222.44 )">2</text><text style="&st18;" transform="matrix(&st16;  809.68  491.01 )">2</text><text style="&st18;" transform="matrix(&st16;  843.67  491.01 )">1</text><text style="&st18;" transform="matrix(&st16;  920.16  491.01 )">2</text><text style="&st18;" transform="matrix(&st16;  954.15  491.01 )">1</text><text style="&st18;" transform="matrix(&st16;  921.13  502.34 )">+SR</text><text style="&st18;" transform="matrix(&st16;  955.13  502.34 )">-SR</text><text style="&st18;" transform="matrix(&st16;  803.23  432.93 )">2</text><text style="&st18;" transform="matrix(&st16;  837.23  432.93 )">1</text><text style="&st18;" transform="matrix(&st16;  913.71  432.93 )">2</text><text style="&st18;" transform="matrix(&st16;  947.71  432.93 )">1</text><text style="&st18;" transform="matrix(&st16;  573.58  483.92 )">DB</text><text style="&st18;" transform="matrix(&st16;  564.29  483.92 )">21</text><text style="&st18;" transform="matrix(&st16;  905.94  163.79 )">Q9</text><text style="&st18;" transform="matrix(&st16;  625.48  561.8 )">z4(B)</text><text style="&st18;" transform="matrix(&st16;  565.99  163.5 )">P2</text><text style="&st18;" transform="matrix(&st16;  676.47  163.79 )">Q2</text><text style="&st18;" transform="matrix(&st16;  752.96  332.34 )">J46(A),P1(B),Q1(C)</text><text style="&st18;" transform="matrix(&st17;  574.21  277.56 )">GR</text><text style="&st18;" transform="matrix(&st17;  608.2  275.43 )">Y</text><text style="&st18;" transform="matrix(&st17;  684.69  277.56 )">GR</text><text style="&st18;" transform="matrix(&st17;  718.68  275.43 )">Y</text><text style="&st18;" transform="matrix(&st17;  735.68  440.66 )">Y-G</text><text style="&st18;" transform="matrix(&st17;  701.69  440.31 )">Y-R</text><text style="&st18;" transform="matrix(&st17;  667.69  436.9 )">Y</text><text style="&st18;" transform="matrix(&st17;  633.7  440.39 )">Y-B</text><text style="&st18;" transform="matrix(&st17;  846.16  394.41 )">B</text><text style="&st18;" transform="matrix(&st17;  922.65  395.18 )">W</text><text style="&st18;" transform="matrix(&st17;  956.64  394.41 )">B</text><text style="&st18;" transform="matrix(&st17;  956.64  462.4 )">B</text><text style="&st18;" transform="matrix(&st17;  922.65  463.17 )">W</text><text style="&st18;" transform="matrix(&st17;  846.16  462.4 )">B</text><text style="&st18;" transform="matrix(&st17;  812.17  463.17 )">W</text><text style="&st18;" transform="matrix(&st17;  574.21  415.67 )">W-B</text><text style="&st18;" transform="matrix(&st16;  707.97  485.9 )">D2+</text><text style="&st18;" transform="matrix(&st16;  855.06  305.17 )">10</text><text style="&st18;" transform="matrix(&st16;  807.17  305.17 )">9</text><text style="&st18;" transform="matrix(&st16;  713.69  305.17 )">5</text><text style="&st18;" transform="matrix(&st16;  679.69  305.17 )">4</text><text style="&st18;" transform="matrix(&st16;  603.2  305.17 )">1</text><text style="&st18;" transform="matrix(&st16;  569.21  305.17 )">2</text><text style="&st18;" transform="matrix(&st16;  730.68  365.23 )">7</text><text style="&st18;" transform="matrix(&st16;  696.69  365.23 )">8</text><text style="&st18;" transform="matrix(&st16;  662.69  365.23 )">6</text><text style="&st18;" transform="matrix(&st16;  628.7  365.23 )">5</text><text style="&st18;" transform="matrix(&st16;  804.07  365.23 )">30</text><text style="&st18;" transform="matrix(&st16;  838.06  365.23 )">28</text><text style="&st18;" transform="matrix(&st16;  914.55  365.23 )">29</text><text style="&st18;" transform="matrix(&st16;  948.54  365.23 )">27</text><text style="&st18;" transform="matrix(&st16;  566.11  365.23 )">25</text><text style="&st18;" transform="matrix(&st16;  920.43  210.56 )">SFR+</text><text style="&st18;" transform="matrix(&st16;  818.45  210.56 )">SFL+</text><text style="&st18;" transform="matrix(&st16;  564.29  449.93 )">30</text><text style="&st18;" transform="matrix(&st16;  573.39  449.93 )">DD</text><text style="&st18;" transform="matrix(&st16;  958.04  365.23 )">A</text><text style="&st18;" transform="matrix(&st16;  955.13  355.03 )">-SR</text><text style="&st18;" transform="matrix(&st16;  921.13  355.03 )">+SR</text><text style="&st18;" transform="matrix(&st16;  924.04  365.23 )">A</text><text style="&st18;" transform="matrix(&st16;  847.55  365.23 )">A</text><text style="&st18;" transform="matrix(&st16;  844.68  355.03 )">-SL</text><text style="&st18;" transform="matrix(&st16;  810.69  355.03 )">+SL</text><text style="&st18;" transform="matrix(&st16;  813.56  365.23 )">A</text><text style="&st18;" transform="matrix(&st17;  812.17  278.92 )">Y-B</text><text style="&st18;" transform="matrix(&st17;  863.16  275.43 )">Y</text><text style="&st18;" transform="matrix(&st17;  914.15  278.92 )">Y-B</text><text style="&st18;" transform="matrix(&st17;  965.14  275.43 )">Y</text><text style="&st18;" transform="matrix(&st17;  812.17  395.18 )">W</text><text style="&st18;" transform="matrix(&st16;  803.95  544.81 )">A2</text><text style="&st18;" transform="matrix(&st16;  844.68  502.34 )">-SL</text><text style="&st18;" transform="matrix(&st16;  966.42  305.17 )">C</text><text style="&st18;" transform="matrix(&st16;  961.88  315.37 )">SFP-</text><text style="&st18;" transform="matrix(&st16;  910.89  315.37 )">SFP+</text><text style="&st18;" transform="matrix(&st16;  915.43  305.17 )">C</text><text style="&st18;" transform="matrix(&st16;  864.67  305.17 )">B</text><text style="&st18;" transform="matrix(&st16;  803.95  163.79 )">P12</text><text ewd:textID="61" style="&st18;" transform="matrix(&st17;  762.59  506.11 )">Spiral Cable</text><text ewd:textID="3" style="&st18;" transform="matrix(&st16;  583.0  54.75 )">* 2 :Regular Cab</text><text ewd:textID="2" style="&st18;" transform="matrix(&st16;  583.0  46.25 )">* 1 :Except Regular Cab</text><text style="&st18;" transform="matrix(&st16;  911.66  222.44 )">1</text><text style="&st18;" transform="matrix(&st16;  962.65  222.44 )">2</text><text style="&st18;" transform="matrix(&st16;  809.68  222.44 )">1</text><text style="&st18;" transform="matrix(&st16;  580.49  210.56 )">L+</text><text style="&st18;" transform="matrix(&st16;  690.97  210.56 )">R+</text><text style="&st18;" transform="matrix(&st16;  602.07  210.56 )">L-</text><text style="&st18;" transform="matrix(&st16;  712.47  210.56 )">R-</text><text ewd:textID="32" style="&st18;" transform="matrix(&st16;  803.96  551.91 )">Front Airbag <tspan dy="6.0" x="0 ">Sensor LH</tspan></text><text style="&st18;" transform="matrix(&st16;  860.67  222.44 )">2</text><text ewd:textID="33" style="&st18;" transform="matrix(&st16;  914.44  551.91 )">Front Airbag <tspan dy="6.0" x="0 ">Sensor RH</tspan></text><text ewd:textID="27" style="&st18;" transform="matrix(&st16;  625.49  568.91 )">Driver Side <tspan dy="6.0" x="0 ">Squib Circuit</tspan></text><text ewd:textID="18" style="&st18;" transform="matrix(&st16;  752.97  339.45 )">Center Airbag ECU</text><text ewd:textID="41" style="&st18;" transform="matrix(&st16;  803.96  170.61 )">Front Side Airbag <tspan dy="6.0" x="0 ">Squib Circuit LH</tspan></text><text ewd:textID="37" style="&st18;" transform="matrix(&st16;  566.0  170.61 )">Front <tspan dy="6.0" x="0 ">Pretensioner LH</tspan></text><text ewd:textID="42" style="&st18;" transform="matrix(&st16;  905.94  170.61 )">Front Side Airbag <tspan dy="6.0" x="0 ">Squib Circuit RH</tspan></text><text ewd:textID="38" style="&st18;" transform="matrix(&st16;  676.48  170.61 )">Front <tspan dy="6.0" x="0 ">Pretensioner RH</tspan></text><text style="&st18;" transform="matrix(&st16;  639.98  485.9 )">D+</text><text style="&st18;" transform="matrix(&st16;  725.82  485.9 )">D2-</text><text style="&st18;" transform="matrix(&st16;  660.94  485.9 )">D-</text><text style="&st18;" transform="matrix(&st16;  850.2  210.56 )">SFL-</text><text style="&st18;" transform="matrix(&st16;  952.11  210.56 )">SFR-</text><text style="&st18;" transform="matrix(&st16;  628.7  509.7 )">2</text><text style="&st18;" transform="matrix(&st16;  635.21  509.7 )">B</text><text style="&st18;" transform="matrix(&st16;  662.69  509.7 )">1</text><text style="&st18;" transform="matrix(&st16;  669.2  509.7 )">B</text><text style="&st18;" transform="matrix(&st16;  702.96  509.7 )">C</text><text style="&st18;" transform="matrix(&st16;  696.69  509.7 )">2</text><text style="&st18;" transform="matrix(&st16;  730.68  509.7 )">1</text><text style="&st18;" transform="matrix(&st16;  736.96  509.7 )">C</text><text style="&st18;" transform="matrix(&st17;  755.49  506.1 )">J11(A),z4(B),z5(C)</text><text style="&st18;" transform="matrix(&st16;  693.47  561.8 )">z5(C)</text><text ewd:textID="25" style="&st18;" transform="matrix(&st16;  693.48  568.91 )">Driver Side <tspan dy="6.0" x="0 ">Squib 2nd Step </tspan><tspan dy="6.0" x="0 ">Circuit</tspan></text><text style="&st18;" transform="matrix(&st16;  628.7  475.14 )">1</text><text style="&st18;" transform="matrix(&st16;  635.09  475.14 )">A</text><text style="&st18;" transform="matrix(&st16;  662.69  475.14 )">2</text><text style="&st18;" transform="matrix(&st16;  669.08  475.14 )">A</text><text style="&st18;" transform="matrix(&st16;  696.69  475.14 )">4</text><text style="&st18;" transform="matrix(&st16;  703.08  475.14 )">A</text><text style="&st18;" transform="matrix(&st16;  730.68  475.14 )">3</text><text style="&st18;" transform="matrix(&st16;  737.07  475.14 )">A</text><text style="&st18;" transform="matrix(&st17;  574.21  602.62 )">B</text></svg>