﻿<?xml version="1.0" encoding="utf-8"?>
<!DOCTYPE svg PUBLIC "-//W3C//DTD SVG 1.0//EN" "http://www.w3.org/TR/2001/REC-SVG-20010904/DTD/svg10.dtd"[
	<!ENTITY ns_flows "http://ns.adobe.com/Flows/1.0/">
	<!ENTITY ns_svg "http://www.w3.org/2000/svg">
	<!ENTITY ns_xlink "http://www.w3.org/1999/xlink">
	<!ENTITY st0 "font-size:7px;font-family:'MS-PGothic';adobe-font-script:japanese;">
	<!ENTITY st1 "font-size:6px;font-family:'ArialMT';">
	<!-- White fill  -->
	<!ENTITY st2 "fill:#FFFFFF;stroke:#000000; stroke-width:1.41;stroke-linecap:round;stroke-linejoin:round;">
	<!-- Yellow fill  -->
	<!ENTITY st3 "fill:#FFFFCC;stroke:#FFFFCC; stroke-width:0.1;stroke-linecap:round;stroke-linejoin:round;">
	<!-- Gray fill  -->
	<!ENTITY st4 "fill:#CCCCCC;stroke:#CCCCCC; stroke-width:0.1;stroke-linecap:round;stroke-linejoin:round;">
	<!-- Light-blue fill -->
	<!ENTITY st5 "fill:#CCECF4;stroke:#000000; stroke-width:1.133;stroke-linecap:round;stroke-linejoin:round;">
	<!ENTITY st6 "fill:none;stroke-linecap:butt; stroke-linejoin:round;">
	<!ENTITY st7 "fill:none;stroke:#000000;stroke-linecap:round;stroke-linejoin:round;">
	<!ENTITY st8 "enable-background:new    ;">
	<!-- Black fill -->
	<!ENTITY st9 "fill:#000000;stroke:#000000; stroke-linecap:round;stroke-linejoin:round;">
	<!-- SRS note   -->
	<!ENTITY st10 "font-size:9px;font-family:'ArialMT';">
	<!ENTITY st11 "font-size:9px;font-family:'Svg Symbol';">
	<!ENTITY st12 "font-size:6px;font-family:'Svg Symbol';">
	<!ENTITY st13 "fill:none;stroke:#ff0000;stroke-linecap:round;stroke-linejoin:round;">
	<!-- Yellow fill  -->
	<!ENTITY st14 "fill:#FFFF00;stroke:#FFFF00; stroke-width:0.1;stroke-linecap:round;stroke-linejoin:round;">
	<!ENTITY st15 "font-size:6px;font-family:'MS-PGothic';adobe-font-script:japanese;">
	<!ENTITY st16 "1.00 0.00 0.00 1.00">
	<!ENTITY st17 "0.00 -1.00 1.00 0.00">
	<!ENTITY st18 "font-size:6px;font-family:'Arial';">
	<!ENTITY st19 "font-size:9px;font-family:'Arial';">
	<!ENTITY st20 "font-size:6px;font-family:'MS-PGothic','MS PGothic';adobe-font-script:japanese;">
	<!ENTITY st21 "font-size:7px;font-family:'MS-PGothic','MS PGothic';adobe-font-script:japanese;">
	<!ATTLIST svg
		xmlns:ewd CDATA #FIXED "http://shcl.co.jp/ewd"
		xmlns:a CDATA #FIXED "http://ns.adobe.com/AdobeSVGViewerExtensions/3.0/"
		ewd:ver CDATA #IMPLIED
	>
	<!ATTLIST a
		ewd:lineID CDATA #IMPLIED
		ewd:groupID CDATA #IMPLIED
		ewd:figtype CDATA #IMPLIED
		ewd:code CDATA #IMPLIED
		ewd:figID CDATA #IMPLIED
		ewd:pinNo CDATA #IMPLIED
		ewd:comment CDATA #IMPLIED >
	<!ATTLIST g
		ewd:lineID CDATA #IMPLIED
		ewd:groupID CDATA #IMPLIED
		ewd:figtype CDATA #IMPLIED
		ewd:code CDATA #IMPLIED
		ewd:figID CDATA #IMPLIED
		ewd:pinNo CDATA #IMPLIED
		ewd:comment CDATA #IMPLIED >
	<!ATTLIST text
		ewd:textID CDATA #IMPLIED >
	<!ATTLIST title
		ewd:textID CDATA #IMPLIED >
]>
<!-- Generator: Shintec Hozumi YS   -->
<svg onload="call_execInitLoadProc_svg('system')" style="overflow:visible;  enable-background:new 0 0 960.192 710.000" viewBox="0 0 960.192 710.000" height="710.000" width="960.192" xml:space="preserve" ewd:ver="L2.1.2.9" xmlns="&ns_svg;" xmlns:a="http://ns.adobe.com/AdobeSVGViewerExtensions/3.0/" xmlns:ewd="http://shcl.co.jp/ewd" xmlns:xlink="&ns_xlink;">
<path d=" M   767.00,   494.70  L   762.75,   494.70  " style="stroke-width: 1.42 ;&st7;  " /><path d=" M   767.00,   503.20  L   762.75,   503.20  " style="stroke-width: 1.42 ;&st7;  " /><path d=" M   767.00,   409.72  L   762.75,   409.72  " style="stroke-width: 1.42 ;&st7;  " /><path d=" M   767.00,   401.22  L   762.75,   401.22  " style="stroke-width: 1.42 ;&st7;  " /><path d=" M   764.87,   460.71  L   764.87,   469.21  " style="stroke-width: 0.85 ;&st7;  " /><path d=" M   764.87,   435.21  L   764.87,   443.71  " style="stroke-width: 0.85 ;&st7;  " /><path d=" M   739.38,   439.46  L   739.38,   435.21  " style="stroke-width: 0.85 ;&st7;  " /><path d=" M   739.38,   469.21  L   739.38,   464.96  " style="stroke-width: 0.85 ;&st7;  " /><path d=" M   739.38,   462.12  L   733.71,   439.46  " style="stroke-width: 1.42 ;&st7;  " /><path d=" M   909.35,    69.77  L   909.35,    95.27  " style="stroke-width: 0.85 ;&st7;  " /><path d=" M   911.47,    95.27  L   907.22,    95.27  " style="stroke-width: 1.42 ;&st7;  " /><path d=" M   911.47,   103.77  L   907.22,   103.77  " style="stroke-width: 1.42 ;&st7;  " /><path d=" M   911.47,   188.75  L   907.22,   188.75  " style="stroke-width: 1.42 ;&st7;  " /><path d=" M   911.47,   180.26  L   907.22,   180.26  " style="stroke-width: 1.42 ;&st7;  " /><path d=" M   911.47,   146.26  L   907.22,   146.26  " style="stroke-width: 1.42 ;&st7;  " /><path d=" M   911.47,   137.76  L   907.22,   137.76  " style="stroke-width: 1.42 ;&st7;  " /><path d=" M   849.86,   341.73  L   849.86,   350.23  " style="stroke-width: 0.85 ;&st7;  " /><path d=" M   849.86,   316.23  L   849.86,   324.73  " style="stroke-width: 0.85 ;&st7;  " /><path d=" M   824.36,   320.48  L   824.36,   316.23  " style="stroke-width: 0.85 ;&st7;  " /><path d=" M   824.36,   350.23  L   824.36,   345.98  " style="stroke-width: 0.85 ;&st7;  " /><path d=" M   824.36,   343.14  L   825.86,   320.48  " style="stroke-width: 1.42 ;&st7;  " /><path d=" M   841.36,   409.72  L   849.86,   409.72  " style="stroke-width: 1.42 ;&st7;  " /><path d=" M   611.90,   256.74  L   620.40,   256.74  " style="stroke-width: 1.42 ;&st7;  " /><path d=" M   624.65,   477.71  L   616.15,   477.71  " style="stroke-width: 0.85 ;&st7;  " /><path d=" M   620.40,   460.71  L   620.40,   486.20  " style="stroke-width: 0.85 ;&st7;  " /><path d=" M   764.87,   469.21  L   764.87,   494.70  " style="stroke-width: 0.85 ;&st7;  " /><path d=" M   764.87,   409.72  L   764.87,   435.21  " style="stroke-width: 0.85 ;&st7;  " /><path d=" M   764.87,   489.81  L   762.04,   486.97  L   762.04,   491.22  L   764.87,   494.06  L   767.70,   491.22  L   767.70,   486.97  L   764.87,   489.81  " style="stroke-width: 0.28 ;&st9;  " /><path d=" M   764.87,   414.61  L   767.70,   417.45  L   767.70,   413.20  L   764.87,   410.36  L   762.04,   413.20  L   762.04,   417.45  L   764.87,   414.61  " style="stroke-width: 0.28 ;&st9;  " /><path d=" M   773.37,   435.21  L   730.88,   435.21  L   730.88,   469.21  L   773.37,   469.21  L   773.37,   435.21  " style="stroke-width: 1.42 ;&st7;  " /><path d=" M   922.10,    78.27  L   922.10,    35.78  L   896.60,    35.78  L   896.60,    78.27  L   922.10,    78.27  " style="stroke-width: 1.42 ;&st7;  " /><path d=" M   909.35,    90.37  L   906.51,    87.54  L   906.51,    91.79  L   909.35,    94.62  L   912.18,    91.79  L   912.18,    87.54  L   909.35,    90.37  " style="stroke-width: 0.28 ;&st9;  " /><path d=" M   909.35,   180.26  L   909.35,   146.26  " style="stroke-width: 0.85 ;&st7;  " /><path d=" M   909.35,   175.36  L   906.51,   172.53  L   906.51,   176.78  L   909.35,   179.61  L   912.18,   176.78  L   912.18,   172.53  L   909.35,   175.36  " style="stroke-width: 0.28 ;&st9;  " /><path d=" M   909.35,   151.16  L   912.18,   153.99  L   912.18,   149.74  L   909.35,   146.91  L   906.51,   149.74  L   906.51,   153.99  L   909.35,   151.16  " style="stroke-width: 0.28 ;&st9;  " /><path d=" M   909.35,   239.75  L   909.35,   256.74  " style="stroke-width: 0.85 ;&st7;  " /><path d=" M   900.85,   239.75  L   900.85,   256.74  L   917.85,   256.74  L   917.85,   239.75  L   900.85,   239.75  " style="stroke-width: 1.42 ;&st7;  " /><path d=" M   858.36,   316.23  L   815.86,   316.23  L   815.86,   350.23  L   858.36,   350.23  L   858.36,   316.23  " style="stroke-width: 1.42 ;&st7;  " /><path d=" M   854.11,   404.05  L   849.86,   408.30  L   845.61,   404.05  " style="stroke-width: 1.42 ;&st7;  " /><path d=" M   845.61,   400.65  L   849.86,   404.90  L   854.11,   400.65  " style="stroke-width: 1.42 ;&st7;  " /><path d=" M   624.65,   251.08  L   620.40,   255.33  L   616.15,   251.08  " style="stroke-width: 1.42 ;&st7;  " /><path d=" M   611.90,   384.22  L   611.90,   401.22  L   662.89,   401.22  L   662.89,   384.22  L   611.90,   384.22  " style="stroke-width: 1.42 ;&st7;  " /><path d=" M   616.15,   247.68  L   620.40,   251.93  L   624.65,   247.68  " style="stroke-width: 1.42 ;&st7;  " /><path d=" M   611.90,   486.20  L   628.89,   486.20  L   628.89,   460.71  L   611.90,   460.71  L   611.90,   486.20  " style="stroke-width: 1.42 ;&st7;  " /><path d=" M   620.40,   477.71  L   614.73,   469.21  L   626.06,   469.21  L   620.40,   477.71  " style="stroke-width: 0.28 ;&st9;  " /><path d=" M   764.87,   697.25  L   764.87,   701.50  " style="stroke-width: 0.85 ;&st7;  " /><path d=" M   756.37,   701.50  L   773.37,   701.50  " style="stroke-width: 0.85 ;&st7;  " /><path d=" M   760.62,   704.33  L   769.12,   704.33  " style="stroke-width: 0.85 ;&st7;  " /><path d=" M   762.04,   707.17  L   767.70,   707.17  " style="stroke-width: 0.85 ;&st7;  " /><path d=" M   763.46,   710.00  L   766.29,   710.00  " style="stroke-width: 0.85 ;&st7;  " /><path d=" M   739.38,   418.22  L   739.38,   435.21  " style="stroke-width: 0.85 ;&st7;  " /><path d=" M   739.38,   486.20  L   739.38,   469.21  " style="stroke-width: 0.85 ;&st7;  " /><path d=" M   619.20,   391.72  L   618.93,   392.19  L   618.84,   392.72  L   618.93,   393.25  L   619.20,   393.72  L   619.62,   394.07  L   620.12,   394.26  L   620.67,   394.26  L   621.18,   394.07  L   621.59,   393.72  L   621.86,   393.25  L   621.95,   392.72  L   621.86,   392.19  L   621.59,   391.72  L   621.18,   391.37  L   620.67,   391.18  L   620.12,   391.18  L   619.62,   391.37  L   619.20,   391.72  L   619.60,   392.43  L   619.60,   393.01  L   619.97,   393.46  L   620.54,   393.56  L   621.05,   393.27  L   621.25,   392.72  L   621.05,   392.17  L   620.54,   391.88  L   619.97,   391.98  L   620.40,   392.72  " style="stroke-width: 0.85 ;&st7;  " /><path d=" M   620.40,   384.22  L   620.40,   401.22  " style="stroke-width: 0.85 ;&st7;  " /><path d=" M   620.40,   392.72  L   654.39,   392.72  L   654.39,   384.22  " style="stroke-width: 0.85 ;&st7;  " /><path d=" M   764.87,   426.71  L   798.87,   426.71  L   798.87,   443.71  L   801.70,   445.13  L   796.03,   447.96  L   801.70,   450.79  L   796.03,   453.63  L   801.70,   456.46  L   796.03,   459.29  L   798.87,   460.71  L   798.87,   477.71  L   764.87,   477.71  " style="stroke-width: 0.85 ;&st7;  " /><path d=" M   763.68,   425.71  L   763.41,   426.18  L   763.31,   426.71  L   763.41,   427.25  L   763.68,   427.72  L   764.09,   428.06  L   764.60,   428.25  L   765.14,   428.25  L   765.65,   428.06  L   766.06,   427.72  L   766.34,   427.25  L   766.43,   426.71  L   766.34,   426.18  L   766.06,   425.71  L   765.65,   425.37  L   765.14,   425.18  L   764.60,   425.18  L   764.09,   425.37  L   763.68,   425.71  L   764.07,   426.42  L   764.07,   427.01  L   764.45,   427.45  L   765.02,   427.55  L   765.52,   427.26  L   765.72,   426.71  L   765.52,   426.17  L   765.02,   425.88  L   764.45,   425.98  L   764.87,   426.71  " style="stroke-width: 0.85 ;&st7;  " /><path d=" M   763.68,   476.70  L   763.41,   477.17  L   763.31,   477.71  L   763.41,   478.24  L   763.68,   478.71  L   764.09,   479.05  L   764.60,   479.24  L   765.14,   479.24  L   765.65,   479.05  L   766.06,   478.71  L   766.34,   478.24  L   766.43,   477.71  L   766.34,   477.17  L   766.06,   476.70  L   765.65,   476.36  L   765.14,   476.17  L   764.60,   476.17  L   764.09,   476.36  L   763.68,   476.70  L   764.07,   477.41  L   764.07,   478.00  L   764.45,   478.44  L   765.02,   478.54  L   765.52,   478.25  L   765.72,   477.71  L   765.52,   477.16  L   765.02,   476.87  L   764.45,   476.97  L   764.87,   477.71  " style="stroke-width: 0.85 ;&st7;  " /><path d=" M   739.38,   418.22  C   737.16    416.39    734.03    416.45    731.89    418.36  " style="stroke-width: 1.42 ;&st7;   " /><path d=" M   739.38,   418.22  C   741.59    420.04    744.72    419.98    746.86    418.07  " style="stroke-width: 1.42 ;&st7;   " /><path d=" M   739.38,   486.20  C   737.16    484.38    734.03    484.44    731.89    486.35  " style="stroke-width: 1.42 ;&st7;   " /><path d=" M   739.38,   486.20  C   741.59    488.03    744.72    487.97    746.86    486.06  " style="stroke-width: 1.42 ;&st7;   " /><path d=" M   762.75,   494.70  C   760.40    494.70    758.50    496.61    758.50    498.95  " style="stroke-width: 1.42 ;&st7;   " /><path d=" M   758.50,   498.95  C   758.50    501.30    760.40    503.20    762.75    503.20  " style="stroke-width: 1.42 ;&st7;   " /><path d=" M   767.00,   503.20  C   769.34    503.20    771.25    501.30    771.25    498.95  " style="stroke-width: 1.42 ;&st7;   " /><path d=" M   771.25,   498.95  C   771.25    496.61    769.34    494.70    767.00    494.70  " style="stroke-width: 1.42 ;&st7;   " /><path d=" M   767.00,   409.72  C   769.34    409.72    771.25    407.81    771.25    405.47  " style="stroke-width: 1.42 ;&st7;   " /><path d=" M   771.25,   405.47  C   771.25    403.12    769.34    401.22    767.00    401.22  " style="stroke-width: 1.42 ;&st7;   " /><path d=" M   764.87,   460.71  C   766.83    460.71    768.41    459.12    768.41    457.17  " style="stroke-width: 0.85 ;&st7;   " /><path d=" M   768.41,   457.17  C   768.41    455.21    766.83    453.63    764.87    453.63  " style="stroke-width: 0.85 ;&st7;   " /><path d=" M   764.87,   453.63  C   763.88    453.63    763.04    453.98    762.34    454.69  " style="stroke-width: 0.85 ;&st7;   " /><path d=" M   762.34,   454.69  C   763.71    456.09    765.95    456.11    767.35    454.74  " style="stroke-width: 0.85 ;&st7;   " /><path d=" M   767.35,   454.74  C   768.75    453.37    768.77    451.13    767.40    449.73  " style="stroke-width: 0.85 ;&st7;   " /><path d=" M   767.40,   449.73  C   766.03    448.33    763.79    448.31    762.39    449.68  " style="stroke-width: 0.85 ;&st7;   " /><path d=" M   762.39,   449.68  C   762.38    449.70    762.36    449.71    762.34    449.73  " style="stroke-width: 0.85 ;&st7;   " /><path d=" M   762.34,   449.73  C   763.71    451.13    765.95    451.15    767.35    449.78  " style="stroke-width: 0.85 ;&st7;   " /><path d=" M   767.35,   449.78  C   768.75    448.41    768.77    446.17    767.40    444.77  " style="stroke-width: 0.85 ;&st7;   " /><path d=" M   767.40,   444.77  C   766.71    444.07    765.86    443.71    764.87    443.71  " style="stroke-width: 0.85 ;&st7;   " /><path d=" M   740.79,   440.88  C   740.79    440.10    740.16    439.46    739.38    439.46  " style="stroke-width: 0.85 ;&st7;   " /><path d=" M   739.38,   439.46  C   738.59    439.46    737.96    440.10    737.96    440.88  " style="stroke-width: 0.85 ;&st7;   " /><path d=" M   737.96,   440.88  C   737.96    441.66    738.59    442.29    739.38    442.29  " style="stroke-width: 0.85 ;&st7;   " /><path d=" M   739.38,   442.29  C   740.16    442.29    740.79    441.66    740.79    440.88  " style="stroke-width: 0.85 ;&st7;   " /><path d=" M   740.79,   463.54  C   740.79    462.76    740.16    462.12    739.38    462.12  " style="stroke-width: 0.85 ;&st7;   " /><path d=" M   739.38,   462.12  C   738.59    462.12    737.96    462.76    737.96    463.54  " style="stroke-width: 0.85 ;&st7;   " /><path d=" M   737.96,   463.54  C   737.96    464.32    738.59    464.96    739.38    464.96  " style="stroke-width: 0.85 ;&st7;   " /><path d=" M   739.38,   464.96  C   740.16    464.96    740.79    464.32    740.79    463.54  " style="stroke-width: 0.85 ;&st7;   " /><path d=" M   909.35,    47.11  C   906.61     48.72    905.70     52.25    907.31     54.99  " style="stroke-width: 1.42 ;&st7;   " /><path d=" M   907.31,    54.99  C   907.83     55.87    908.47     56.51    909.35     57.03  " style="stroke-width: 1.42 ;&st7;   " /><path d=" M   909.35,    66.94  C   912.09     65.33    913.00     61.80    911.38     59.06  " style="stroke-width: 1.42 ;&st7;   " /><path d=" M   911.38,    59.06  C   910.87     58.18    910.23     57.55    909.35     57.03  " style="stroke-width: 1.42 ;&st7;   " /><path d=" M   910.76,    45.69  C   910.76     44.91    910.13     44.28    909.35     44.28  " style="stroke-width: 0.85 ;&st7;   " /><path d=" M   909.35,    44.28  C   908.57     44.28    907.93     44.91    907.93     45.69  " style="stroke-width: 0.85 ;&st7;   " /><path d=" M   907.93,    45.69  C   907.93     46.48    908.57     47.11    909.35     47.11  " style="stroke-width: 0.85 ;&st7;   " /><path d=" M   909.35,    47.11  C   910.13     47.11    910.76     46.48    910.76     45.69  " style="stroke-width: 0.85 ;&st7;   " /><path d=" M   910.76,    68.36  C   910.76     67.57    910.13     66.94    909.35     66.94  " style="stroke-width: 0.85 ;&st7;   " /><path d=" M   909.35,    66.94  C   908.57     66.94    907.93     67.57    907.93     68.36  " style="stroke-width: 0.85 ;&st7;   " /><path d=" M   907.93,    68.36  C   907.93     69.14    908.57     69.77    909.35     69.77  " style="stroke-width: 0.85 ;&st7;   " /><path d=" M   909.35,    69.77  C   910.13     69.77    910.76     69.14    910.76     68.36  " style="stroke-width: 0.85 ;&st7;   " /><path d=" M   907.22,    95.27  C   904.88     95.27    902.97     97.17    902.97     99.52  " style="stroke-width: 1.42 ;&st7;   " /><path d=" M   902.97,    99.52  C   902.97    101.87    904.88    103.77    907.22    103.77  " style="stroke-width: 1.42 ;&st7;   " /><path d=" M   911.47,   103.77  C   913.82    103.77    915.72    101.87    915.72     99.52  " style="stroke-width: 1.42 ;&st7;   " /><path d=" M   915.72,    99.52  C   915.72     97.17    913.82     95.27    911.47     95.27  " style="stroke-width: 1.42 ;&st7;   " /><path d=" M   915.72,   184.50  C   915.72    182.16    913.82    180.26    911.47    180.26  " style="stroke-width: 1.42 ;&st7;   " /><path d=" M   911.47,   188.75  C   913.82    188.75    915.72    186.85    915.72    184.50  " style="stroke-width: 1.42 ;&st7;   " /><path d=" M   902.97,   184.50  C   902.97    186.85    904.88    188.75    907.22    188.75  " style="stroke-width: 1.42 ;&st7;   " /><path d=" M   907.22,   180.26  C   904.88    180.26    902.97    182.16    902.97    184.50  " style="stroke-width: 1.42 ;&st7;   " /><path d=" M   915.72,   142.01  C   915.72    139.66    913.82    137.76    911.47    137.76  " style="stroke-width: 1.42 ;&st7;   " /><path d=" M   911.47,   146.26  C   913.82    146.26    915.72    144.36    915.72    142.01  " style="stroke-width: 1.42 ;&st7;   " /><path d=" M   902.97,   142.01  C   902.97    144.36    904.88    146.26    907.22    146.26  " style="stroke-width: 1.42 ;&st7;   " /><path d=" M   907.22,   137.76  C   904.88    137.76    902.97    139.66    902.97    142.01  " style="stroke-width: 1.42 ;&st7;   " /><path d=" M   913.88,   261.27  C   913.88    258.77    911.85    256.74    909.35    256.74  " style="stroke-width: 1.42 ;&st7;   " /><path d=" M   909.35,   256.74  C   906.84    256.74    904.82    258.77    904.82    261.27  " style="stroke-width: 1.42 ;&st7;   " /><path d=" M   904.82,   261.27  C   904.82    263.78    906.84    265.81    909.35    265.81  " style="stroke-width: 1.42 ;&st7;   " /><path d=" M   909.35,   265.81  C   911.85    265.81    913.88    263.78    913.88    261.27  " style="stroke-width: 1.42 ;&st7;   " /><path d=" M   913.88,   235.21  C   913.88    232.71    911.85    230.68    909.35    230.68  " style="stroke-width: 1.42 ;&st7;   " /><path d=" M   909.35,   230.68  C   906.84    230.68    904.82    232.71    904.82    235.21  " style="stroke-width: 1.42 ;&st7;   " /><path d=" M   904.82,   235.21  C   904.82    237.72    906.84    239.75    909.35    239.75  " style="stroke-width: 1.42 ;&st7;   " /><path d=" M   909.35,   239.75  C   911.85    239.75    913.88    237.72    913.88    235.21  " style="stroke-width: 1.42 ;&st7;   " /><path d=" M   849.86,   341.73  C   851.81    341.73    853.40    340.14    853.40    338.19  " style="stroke-width: 0.85 ;&st7;   " /><path d=" M   853.40,   338.19  C   853.40    336.23    851.81    334.65    849.86    334.65  " style="stroke-width: 0.85 ;&st7;   " /><path d=" M   849.86,   334.65  C   848.87    334.65    848.02    335.00    847.33    335.71  " style="stroke-width: 0.85 ;&st7;   " /><path d=" M   847.33,   335.71  C   848.70    337.11    850.94    337.13    852.34    335.76  " style="stroke-width: 0.85 ;&st7;   " /><path d=" M   852.34,   335.76  C   853.73    334.39    853.76    332.15    852.39    330.75  " style="stroke-width: 0.85 ;&st7;   " /><path d=" M   852.39,   330.75  C   851.02    329.35    848.78    329.33    847.38    330.70  " style="stroke-width: 0.85 ;&st7;   " /><path d=" M   847.38,   330.70  C   847.36    330.72    847.35    330.73    847.33    330.75  " style="stroke-width: 0.85 ;&st7;   " /><path d=" M   847.33,   330.75  C   848.70    332.15    850.94    332.17    852.34    330.80  " style="stroke-width: 0.85 ;&st7;   " /><path d=" M   852.34,   330.80  C   853.73    329.43    853.76    327.19    852.39    325.79  " style="stroke-width: 0.85 ;&st7;   " /><path d=" M   852.39,   325.79  C   851.69    325.09    850.85    324.73    849.86    324.73  " style="stroke-width: 0.85 ;&st7;   " /><path d=" M   825.78,   321.90  C   825.78    321.12    825.14    320.48    824.36    320.48  " style="stroke-width: 0.85 ;&st7;   " /><path d=" M   824.36,   320.48  C   823.58    320.48    822.95    321.12    822.95    321.90  " style="stroke-width: 0.85 ;&st7;   " /><path d=" M   822.95,   321.90  C   822.95    322.68    823.58    323.31    824.36    323.31  " style="stroke-width: 0.85 ;&st7;   " /><path d=" M   824.36,   323.31  C   825.14    323.31    825.78    322.68    825.78    321.90  " style="stroke-width: 0.85 ;&st7;   " /><path d=" M   825.78,   344.56  C   825.78    343.78    825.14    343.14    824.36    343.14  " style="stroke-width: 0.85 ;&st7;   " /><path d=" M   824.36,   343.14  C   823.58    343.14    822.95    343.78    822.95    344.56  " style="stroke-width: 0.85 ;&st7;   " /><path d=" M   822.95,   344.56  C   822.95    345.34    823.58    345.98    824.36    345.98  " style="stroke-width: 0.85 ;&st7;   " /><path d=" M   824.36,   345.98  C   825.14    345.98    825.78    345.34    825.78    344.56  " style="stroke-width: 0.85 ;&st7;   " /><path d=" M   758.50,   405.47  C   758.50    407.81    760.40    409.72    762.75    409.72  " style="stroke-width: 1.42 ;&st7;   " /><path d=" M   762.75,   401.22  C   760.40    401.22    758.50    403.12    758.50    405.47  " style="stroke-width: 1.42 ;&st7;   " /><text style="&st18;" transform="matrix(&st17;  616.7  437.02 )">V</text><text style="&st18;" transform="matrix(&st17;  616.7  319.78 )">BE</text><text ewd:textID="7" style="&st18;" transform="matrix(&st17;  677.61  404.12 )">Junction <tspan dy="6.0" x="0 ">Connector</tspan></text><text style="&st18;" transform="matrix(&st17;  670.5  404.12 )">A51</text><text style="&st18;" transform="matrix(&st17;  693.19  438.76 )">BR</text><text ewd:textID="4" style="&st18;" transform="matrix(&st17;  643.61  489.11 )">Diode <tspan dy="6.0" x="0 ">(Starting)</tspan></text><text style="&st18;" transform="matrix(&st17;  636.51  489.1 )">A35</text><text style="&st18;" transform="matrix(&st17;  616.7  233.21 )">G</text><text style="&st18;" transform="matrix(&st17;  820.67  286.06 )">GR</text><text style="&st18;" transform="matrix(&st17;  846.16  388.04 )">GR</text><text style="&st18;" transform="matrix(&st16;  881.39  287.04 )">G</text><text style="&st18;" transform="matrix(&st16;  796.87  380.52 )">P</text><text style="&st18;" transform="matrix(&st17;  905.65  209.3 )">BE</text><text style="&st18;" transform="matrix(&st17;  905.65  124.59 )">GR</text><text style="&st18;" transform="matrix(&st17;  865.97  353.13 )">J53</text><text ewd:textID="1" style="&st18;" transform="matrix(&st17;  873.07  353.13 )">ACC Cut Relay</text><text ewd:textID="2" style="&st18;" transform="matrix(&st17;  781.01  466.23 )">ACC Relay</text><text style="&st18;" transform="matrix(&st17;  761.18  530.39 )">B</text><text style="&st18;" transform="matrix(&st17;  846.16  455.76 )">BR</text><text ewd:textID="7" style="&st18;" transform="matrix(&st17;  932.56  259.65 )">Junction <tspan dy="6.0" x="0 ">Connector</tspan></text><text style="&st18;" transform="matrix(&st17;  925.46  259.64 )">J70(A)</text><text style="&st18;" transform="matrix(&st16;  539.86  643.98 )">BR</text><text style="&st18;" transform="matrix(&st16;  539.86  660.98 )">BR</text><text style="&st18;" transform="matrix(&st16;  541.84  516.5 )">L</text><text style="&st18;" transform="matrix(&st16;  541.45  185.06 )">G</text><text style="&st18;" transform="matrix(&st16;  539.59  100.07 )">GR</text><text style="&st18;" transform="matrix(&st16;  760.55  500.92 )">DB</text><text style="&st18;" transform="matrix(&st16;  760.36  407.44 )">DD</text><text style="&st18;" transform="matrix(&st16;  751.26  500.92 )">21</text><text style="&st18;" transform="matrix(&st16;  751.26  407.44 )">45</text><text style="&st18;" transform="matrix(&st16;  925.77  56.17 )">7.5A <tspan dy="6.0" x="0 ">ECU-B1</tspan></text><text style="&st18;" transform="matrix(&st16;  907.55  101.49 )">1</text><text style="&st18;" transform="matrix(&st16;  903.16  86.47 )">2</text><text style="&st18;" transform="matrix(&st16;  901.3  32.08 )">(BAT)</text><text style="&st18;" transform="matrix(&st16;  895.74  186.47 )">14</text><text style="&st18;" transform="matrix(&st16;  904.83  186.47 )">DD</text><text style="&st18;" transform="matrix(&st16;  895.74  143.98 )">13</text><text style="&st18;" transform="matrix(&st16;  905.03  143.98 )">DB</text><text style="&st18;" transform="matrix(&st16;  897.55  263.24 )">15</text><text style="&st18;" transform="matrix(&st16;  907.04  263.24 )">A</text><text style="&st18;" transform="matrix(&st16;  897.55  237.18 )">14</text><text style="&st18;" transform="matrix(&st16;  907.04  237.18 )">A</text><text style="&st18;" transform="matrix(&st16;  843.67  358.42 )">1</text><text style="&st18;" transform="matrix(&st16;  818.18  358.42 )">4</text><text style="&st18;" transform="matrix(&st16;  843.67  312.54 )">2</text><text style="&st18;" transform="matrix(&st16;  818.18  312.54 )">3</text><text style="&st18;" transform="matrix(&st16;  837.23  415.94 )">4</text><text style="&st18;" transform="matrix(&st16;  648.21  380.53 )">6</text><text style="&st18;" transform="matrix(&st16;  604.66  262.96 )">14</text><text style="&st18;" transform="matrix(&st16;  614.21  380.53 )">5</text><text style="&st18;" transform="matrix(&st16;  614.21  409.41 )">4</text><text style="&st18;" transform="matrix(&st16;  614.21  457.02 )">1</text><text style="&st18;" transform="matrix(&st16;  614.21  494.4 )">2</text></svg>