﻿<?xml version="1.0"?>
<!-- Generator: Adobe Illustrator 10.0, SVG Export Plug-In . SVG Version: 3.0.0 Build 77)  -->
<!DOCTYPE svg PUBLIC "-//W3C//DTD SVG 1.0//EN" "http://www.w3.org/TR/2001/REC-SVG-20010904/DTD/svg10.dtd"[
	<!ENTITY ns_flows "http://ns.adobe.com/Flows/1.0/">
	<!ENTITY ns_svg "http://www.w3.org/2000/svg">
	<!ENTITY ns_xlink "http://www.w3.org/1999/xlink">
	<!ENTITY st0 "fill:none;stroke:#000000;stroke-linecap:round;stroke-linejoin:round;">
	<!ENTITY st1 "fill:none;stroke:#000000;stroke-width:0.6;stroke-linecap:round;stroke-linejoin:round;">
	<!ENTITY st2 "font-size:6px;">
	<!ENTITY st3 "font-family:'Arial';">
	<!ATTLIST svg
		ewd:ver CDATA #IMPLIED
		xmlns:ewd CDATA #FIXED "http://shcl.co.jp/ewd"
		xmlns:a CDATA #FIXED "http://ns.adobe.com/AdobeSVGViewerExtensions/3.0/">
	<!ATTLIST g
		ewd:pinNo CDATA #IMPLIED>
]>
<svg width="118.564" height="94.485" viewBox="0 0 118.564 94.485" style="overflow:visible;enable-background:new 0 0 118.564 94.485" xml:space="preserve" onload="call_execInitLoadProc_svg('connector')" ewd:ver="L2.1.2.9" xmlns="&ns_svg;" xmlns:ewd="http://shcl.co.jp/ewd" xmlns:a="http://ns.adobe.com/AdobeSVGViewerExtensions/3.0/" xmlns:xlink="&ns_xlink;">
<script type="text/javascript" xlink:href="../../../../../system/js/ewd/fig/svgfig.js"/>
<g id="レイヤー_1">
	<path style="&st0;" d="M104.314,0.583c-0.29-0.058-0.54-0.083-0.836-0.083"/>
	<path style="&st0;" d="M15.087,0.5c-0.296,0-0.546,0.025-0.835,0.083"/>
	<path style="&st0;" d="M89.028,0.5c-1.564,0-2.833,1.269-2.833,2.833"/>
	<path style="&st0;" d="M118.064,5.657c0-1.368-0.936-2.51-2.278-2.778"/>
	<path style="&st0;" d="M2.779,2.877C1.437,3.146,0.5,4.288,0.5,5.657"/>
	<path style="&st0;" d="M32.371,3.333c0-1.564-1.269-2.833-2.833-2.833"/>
	<path style="&st0;" d="M114.79,89.09c1.948-0.459,3.275-2.135,3.275-4.136"/>
	<path style="&st0;" d="M14.946,0.5c-0.197,0-0.363,0.017-0.555,0.055"/>
	<path style="&st0;" d="M0.501,84.954c0,2.001,1.327,3.677,3.274,4.136"/>
	<path style="&st1;" d="M103.9,54.325v25.496"/>
	<path style="&st1;" d="M4.75,67.073h109.065"/>
	<path style="&st1;" d="M93.985,54.325v25.496"/>
	<path style="&st1;" d="M4.75,54.325h109.065"/>
	<path style="&st1;" d="M74.155,79.821V54.325"/>
	<path style="&st1;" d="M64.24,79.821V54.325"/>
	<path style="&st1;" d="M54.325,67.073V54.325"/>
	<path style="&st1;" d="M14.665,79.821V54.325"/>
	<path style="&st1;" d="M23.872,0.5v22.663"/>
	<path style="&st1;" d="M0.501,23.164h1.416v-7.082"/>
	<path style="&st1;" d="M38.036,7.583h42.493"/>
	<path style="&st0;" d="M38.036,4.75l12.748-2.833h16.997L80.529,4.75"/>
	<path style="&st0;" d="M38.036,4.75v11.332"/>
	<path style="&st1;" d="M53.617,16.082v-5.666h11.332v5.666"/>
	<path style="&st1;" d="M6.167,17.498v5.666h26.204"/>
	<path style="&st0;" d="M32.371,23.164h8.499"/>
	<path style="&st0;" d="M86.195,23.164h-8.499"/>
	<path style="&st1;" d="M69.198,16.082v-3.683h8.499v3.683"/>
	<path style="&st1;" d="M49.368,14.24h4.25"/>
	<path style="&st0;" d="M103.478,0.5h-14.45"/>
	<path style="&st0;" d="M86.195,23.164V3.333"/>
	<path style="&st1;" d="M118.064,17.498l-1.417-1.417h-2.833l-1.417,1.417"/>
	<path style="&st0;" d="M115.787,2.877l-11.473-2.294"/>
	<path style="&st1;" d="M94.693,0.5v22.663"/>
	<path style="&st1;" d="M116.648,16.082v7.082h1.417"/>
	<path style="&st1;" d="M40.869,16.082h36.827"/>
	<path style="&st0;" d="M80.529,16.082h-2.833v7.082"/>
	<path style="&st1;" d="M40.869,16.082v-3.683h8.499v3.683"/>
	<path style="&st0;" d="M38.036,16.082h2.833v7.082"/>
	<path style="&st0;" d="M80.529,4.75v11.332"/>
	<path style="&st1;" d="M112.399,17.498v5.666H86.195"/>
	<path style="&st1;" d="M112.399,23.164h1.417v-7.082"/>
	<path style="&st0;" d="M2.779,2.877l11.473-2.294"/>
	<path style="&st1;" d="M0.501,17.498l1.416-1.417H4.75l1.417,1.417"/>
	<path style="&st0;" d="M24.58,93.985h69.405"/>
	<path style="&st1;" d="M64.949,14.24h4.249"/>
	<path style="&st0;" d="M93.985,93.985l20.804-4.895"/>
	<path style="&st0;" d="M3.775,89.09l20.805,4.895"/>
	<path style="&st1;" d="M4.75,16.082v7.082h1.417"/>
	<path style="&st1;" d="M0.501,78.404l4.249,4.25"/>
	<path style="&st1;" d="M113.815,82.654l4.249-4.25"/>
	<path style="&st0;" d="M32.371,23.164V3.333"/>
	<path style="&st0;" d="M0.501,5.657v79.297"/>
	<path style="&st1;" d="M4.75,82.654h109.065"/>
	<path style="&st0;" d="M118.064,5.657v79.297"/>
	<path style="&st0;" d="M15.087,0.5h14.45"/>
	<path style="&st1;" d="M61.407,82.654v5.666h52.408v-5.666"/>
	<path style="&st1;" d="M24.58,79.821V54.325"/>
	<path style="&st1;" d="M34.495,79.821V54.325"/>
	<path style="&st1;" d="M4.75,54.325v25.496h39.66"/>
	<path style="&st1;" d="M113.815,54.325v25.496"/>
	<path style="&st1;" d="M64.24,79.821h49.575"/>
	<path style="&st1;" d="M84.07,79.821V54.325"/>
	<path style="&st1;" d="M44.41,79.821V54.325"/>
	<path style="&st1;" d="M4.75,25.996v22.663h109.065V25.996H4.75"/>
	<path style="&st1;" d="M22.929,48.659V25.996"/>
	<path style="&st1;" d="M41.104,48.659V25.996"/>
	<path style="&st1;" d="M59.283,48.659V25.996"/>
	<path style="&st1;" d="M77.461,48.659V25.996"/>
	<path style="&st1;" d="M95.637,48.659V25.996"/>
	<path style="&st1;" d="M61.407,69.906v12.748"/>
	<path style="&st1;" d="M47.243,69.906v12.748"/>
	<path style="&st1;" d="M47.243,74.863h14.164"/>
	<path style="&st1;" d="M47.243,82.654v5.666H4.75v-5.666"/>
	<path style="&st1;" d="M47.243,69.906h14.164"/>
	<g ewd:pinNo="23">
		<text transform="matrix(1 0 0 1 75.8271 75.4761)"><tspan x="0" y="0" style="&st3; &st2;">23</tspan></text>
	</g>
	<g ewd:pinNo="22">
		<text transform="matrix(1 0 0 1 65.9121 75.4761)"><tspan x="0" y="0" style="&st3; &st2;">22</tspan></text>
	</g>
	<g ewd:pinNo="26">
		<text transform="matrix(1 0 0 1 105.5723 75.4761)"><tspan x="0" y="0" style="&st3; &st2;">26</tspan></text>
	</g>
	<g ewd:pinNo="18">
		<text transform="matrix(1 0 0 1 6.1147 75.4761)"><tspan x="0" y="0" style="&st3; &st2;">18</tspan></text>
	</g>
	<g ewd:pinNo="10">
		<text transform="matrix(1 0 0 1 35.8599 62.7285)"><tspan x="0" y="0" style="&st3; &st2;">10</tspan></text>
	</g>
	<g ewd:pinNo="7">
		<text transform="matrix(1 0 0 1 8.1733 62.7285)"><tspan x="0" y="0" style="&st3; &st2;">7</tspan></text>
	</g>
	<g ewd:pinNo="25">
		<text transform="matrix(1 0 0 1 95.6572 75.4761)"><tspan x="0" y="0" style="&st3; &st2;">25</tspan></text>
	</g>
	<g ewd:pinNo="13">
		<text transform="matrix(1 0 0 1 65.605 62.7285)"><tspan x="0" y="0" style="&st3; &st2;">13</tspan></text>
	</g>
	<g ewd:pinNo="14">
		<text transform="matrix(1 0 0 1 75.52 62.7285)"><tspan x="0" y="0" style="&st3; &st2;">14</tspan></text>
	</g>
	<g ewd:pinNo="16">
		<text transform="matrix(1 0 0 1 95.3501 62.7285)"><tspan x="0" y="0" style="&st3; &st2;">16</tspan></text>
	</g>
	<g ewd:pinNo="17">
		<text transform="matrix(1 0 0 1 105.2651 62.7285)"><tspan x="0" y="0" style="&st3; &st2;">17</tspan></text>
	</g>
	<g ewd:pinNo="19">
		<text transform="matrix(1 0 0 1 16.0303 75.4761)"><tspan x="0" y="0" style="&st3; &st2;">19</tspan></text>
	</g>
	<g ewd:pinNo="8">
		<text transform="matrix(1 0 0 1 18.0884 62.7285)"><tspan x="0" y="0" style="&st3; &st2;">8</tspan></text>
	</g>
	<g ewd:pinNo="20">
		<text transform="matrix(1 0 0 1 26.2524 75.4761)"><tspan x="0" y="0" style="&st3; &st2;">20</tspan></text>
	</g>
	<g ewd:pinNo="9">
		<text transform="matrix(1 0 0 1 28.0034 62.7285)"><tspan x="0" y="0" style="&st3; &st2;">9</tspan></text>
	</g>
	<g ewd:pinNo="11">
		<text transform="matrix(1 0 0 1 45.9976 62.7285)"><tspan x="0" y="0" style="&st3; &st2;">11</tspan></text>
	</g>
	<g ewd:pinNo="12">
		<text transform="matrix(1 0 0 1 55.5415 62.7285)"><tspan x="0" y="0" style="&st3; &st2;">12</tspan></text>
	</g>
	<g ewd:pinNo="15">
		<text transform="matrix(1 0 0 1 85.4351 62.7285)"><tspan x="0" y="0" style="&st3; &st2;">15</tspan></text>
	</g>
	<g ewd:pinNo="24">
		<text transform="matrix(1 0 0 1 85.7422 75.4761)"><tspan x="0" y="0" style="&st3; &st2;">24</tspan></text>
	</g>
	<g ewd:pinNo="21">
		<text transform="matrix(1 0 0 1 36.167 75.4761)"><tspan x="0" y="0" style="&st3; &st2;">21</tspan></text>
	</g>
	<g ewd:pinNo="1">
		<text transform="matrix(1 0 0 1 12.3037 39.3574)"><tspan x="0" y="0" style="&st3; &st2;">1</tspan></text>
	</g>
	<g ewd:pinNo="2">
		<text transform="matrix(1 0 0 1 30.4819 39.3574)"><tspan x="0" y="0" style="&st3; &st2;">2</tspan></text>
	</g>
	<g ewd:pinNo="3">
		<text transform="matrix(1 0 0 1 48.6606 39.3574)"><tspan x="0" y="0" style="&st3; &st2;">3</tspan></text>
	</g>
	<g ewd:pinNo="4">
		<text transform="matrix(1 0 0 1 66.8359 39.3574)"><tspan x="0" y="0" style="&st3; &st2;">4</tspan></text>
	</g>
	<g ewd:pinNo="5">
		<text transform="matrix(1 0 0 1 85.0146 39.3574)"><tspan x="0" y="0" style="&st3; &st2;">5</tspan></text>
	</g>
	<g ewd:pinNo="6">
		<text transform="matrix(1 0 0 1 103.1934 39.3574)"><tspan x="0" y="0" style="&st3; &st2;">6</tspan></text>
	</g>
</g>
</svg>